 Data for JOB [18541,1] offset 0 Total slots allocated 8

 ========================   JOB MAP   ========================

 Data for node: n004	Num slots: 8	Max slots: 0	Num procs: 8
 	Process OMPI jobid: [18541,1] App: 0 Process rank: 0 Bound: socket 1[core 32[hwt 0-1]]:[../../../../../../../../../../../../../../../../../../../../../../../../../../../../../../../..][BB/../../../../../../../../../../../../../../../../../../../../../../../../../../../../../../..]
 	Process OMPI jobid: [18541,1] App: 0 Process rank: 1 Bound: socket 1[core 33[hwt 0-1]]:[../../../../../../../../../../../../../../../../../../../../../../../../../../../../../../../..][../BB/../../../../../../../../../../../../../../../../../../../../../../../../../../../../../..]
 	Process OMPI jobid: [18541,1] App: 0 Process rank: 2 Bound: socket 1[core 40[hwt 0-1]]:[../../../../../../../../../../../../../../../../../../../../../../../../../../../../../../../..][../../../../../../../../BB/../../../../../../../../../../../../../../../../../../../../../../..]
 	Process OMPI jobid: [18541,1] App: 0 Process rank: 3 Bound: socket 1[core 41[hwt 0-1]]:[../../../../../../../../../../../../../../../../../../../../../../../../../../../../../../../..][../../../../../../../../../BB/../../../../../../../../../../../../../../../../../../../../../..]
 	Process OMPI jobid: [18541,1] App: 0 Process rank: 4 Bound: socket 1[core 48[hwt 0-1]]:[../../../../../../../../../../../../../../../../../../../../../../../../../../../../../../../..][../../../../../../../../../../../../../../../../BB/../../../../../../../../../../../../../../..]
 	Process OMPI jobid: [18541,1] App: 0 Process rank: 5 Bound: socket 1[core 49[hwt 0-1]]:[../../../../../../../../../../../../../../../../../../../../../../../../../../../../../../../..][../../../../../../../../../../../../../../../../../BB/../../../../../../../../../../../../../..]
 	Process OMPI jobid: [18541,1] App: 0 Process rank: 6 Bound: socket 1[core 56[hwt 0-1]]:[../../../../../../../../../../../../../../../../../../../../../../../../../../../../../../../..][../../../../../../../../../../../../../../../../../../../../../../../../BB/../../../../../../..]
 	Process OMPI jobid: [18541,1] App: 0 Process rank: 7 Bound: socket 1[core 57[hwt 0-1]]:[../../../../../../../../../../../../../../../../../../../../../../../../../../../../../../../..][../../../../../../../../../../../../../../../../../../../../../../../../../BB/../../../../../..]

 =============================================================
[1579609662.592699] [n004:18815:0]         mxm.c:196  MXM  WARN  The 'ulimit -s' on the system is set to 'unlimited'. This may have negative performance implications. Please set the stack size to the default value (10240) 
[1579609662.592698] [n004:18816:0]         mxm.c:196  MXM  WARN  The 'ulimit -s' on the system is set to 'unlimited'. This may have negative performance implications. Please set the stack size to the default value (10240) 
[1579609662.592904] [n004:18810:0]         mxm.c:196  MXM  WARN  The 'ulimit -s' on the system is set to 'unlimited'. This may have negative performance implications. Please set the stack size to the default value (10240) 
[1579609662.592904] [n004:18812:0]         mxm.c:196  MXM  WARN  The 'ulimit -s' on the system is set to 'unlimited'. This may have negative performance implications. Please set the stack size to the default value (10240) 
[1579609662.593316] [n004:18813:0]         mxm.c:196  MXM  WARN  The 'ulimit -s' on the system is set to 'unlimited'. This may have negative performance implications. Please set the stack size to the default value (10240) 
[1579609662.593317] [n004:18814:0]         mxm.c:196  MXM  WARN  The 'ulimit -s' on the system is set to 'unlimited'. This may have negative performance implications. Please set the stack size to the default value (10240) 
[1579609662.593326] [n004:18817:0]         mxm.c:196  MXM  WARN  The 'ulimit -s' on the system is set to 'unlimited'. This may have negative performance implications. Please set the stack size to the default value (10240) 
[1579609662.593326] [n004:18818:0]         mxm.c:196  MXM  WARN  The 'ulimit -s' on the system is set to 'unlimited'. This may have negative performance implications. Please set the stack size to the default value (10240) 
0: 1 

Rank 0 ghostCells: 10323
Rank 1 ghostCells: 7618
Rank 2 ghostCells: 7875
Rank 3 ghostCells: 16689
Rank 4 ghostCells: 3896
Rank 5 ghostCells: 3126
Rank 6 ghostCells: 5655
Rank 7 ghostCells: 2890

Rank 0 numCells: 59028
Rank 1 numCells: 49255
Rank 2 numCells: 56666
Rank 3 numCells: 64328
Rank 4 numCells: 49438
Rank 5 numCells: 36601
Rank 6 numCells: 49331
Rank 7 numCells: 48832

Rank 0 interiorCells: 48705
Rank 1 interiorCells: 41637
Rank 2 interiorCells: 48791
Rank 3 interiorCells: 47639
Rank 4 interiorCells: 45542
Rank 5 interiorCells: 33475
Rank 6 interiorCells: 43676
Rank 7 interiorCells: 45942

MeasComm+1 8: 0.000807723 0.000681922 0.000789822 0.000966602 0.000583182 0.000534501 0.000662001 0.00026966 
MeasComm+1 8: 0.000806442 0.000684782 0.000725552 0.000964372 0.000582551 0.000527171 0.000639371 0.000269651 
MeasComm+1 8: 0.000801322 0.000481751 0.000768342 0.000960263 0.000589602 0.000393961 0.000657752 0.000268201 
MeasComm+1 8: 0.000806373 0.000702322 0.000767072 0.000961072 0.000577941 0.000533191 0.000631331 0.000256811 
MeasComm+1 8: 0.000806272 0.000692602 0.000720352 0.000964713 0.000581511 0.000531641 0.000655312 0.000269621 
MeasComm+1 8: 0.000800272 0.000694181 0.000781612 0.000958492 0.000582841 0.000531532 0.000655111 0.00027009 
MeasComm+1 8: 0.000809392 0.000683661 0.000715402 0.000960682 0.000586732 0.000534222 0.000654311 0.00026818 
MeasComm+1 8: 0.000809292 0.000701512 0.000716511 0.000964043 0.000587801 0.000534652 0.000629361 0.000257621 
MeasComm+1 8: 0.000811663 0.000702342 0.000783522 0.000964933 0.000576271 0.000534852 0.000657882 0.000270011 
MeasComm+1 8: 0.000805572 0.000702232 0.000781482 0.000961323 0.000579971 0.000531901 0.000654671 0.000268801 

MeasCopy 8: 0.000484321 0.000357321 0.000369581 0.000782932 0.00018278 0.00014663 0.000265241 0.00013555 
MeasCopy 8: 0.000484091 0.000357361 0.000369511 0.000782942 0.00018283 0.00014656 0.000265111 0.000135531 
MeasCopy 8: 0.000484141 0.000357301 0.000369511 0.000783192 0.000182721 0.00014655 0.00026507 0.000135511 
MeasCopy 8: 0.000484262 0.000357331 0.000369531 0.000783043 0.0001826 0.000146591 0.000265171 0.00013551 
MeasCopy 8: 0.000484081 0.000357331 0.000369491 0.000783182 0.000182761 0.00014656 0.00026518 0.00013555 
MeasCopy 8: 0.000484251 0.000357431 0.000369381 0.000783132 0.000182811 0.000146541 0.000265201 0.00013553 
MeasCopy 8: 0.000484181 0.000357311 0.000369441 0.000783272 0.00018261 0.00014656 0.000265021 0.00013556 
MeasCopy 8: 0.000484151 0.000357381 0.000369561 0.000783002 0.00018274 0.00014647 0.00026515 0.00013552 
MeasCopy 8: 0.000484202 0.000357441 0.000369561 0.000783072 0.00018273 0.00014655 0.00026508 0.000135491 
MeasCopy 8: 0.000484171 0.000357311 0.000369601 0.000783082 0.00018269 0.00014661 0.000265181 0.00013557 

ComTab rank 0: 0 2409 1773 5790 0 643 596 0 
ComTab rank 1: 2321 0 0 5416 0 90 218 0 
ComTab rank 2: 1464 0 0 3554 2494 720 345 0 
ComTab rank 3: 5279 4190 4005 0 2445 186 2055 0 
ComTab rank 4: 0 0 2484 1738 0 198 0 0 
ComTab rank 5: 797 112 1249 223 230 0 546 214 
ComTab rank 6: 552 191 72 1973 0 301 0 2858 
ComTab rank 7: 0 0 0 0 0 197 2732 0 

Edge-cut: 45181

Wgt-cut: 7.6028e-09

[1579609710.610363] [n004:18815:0]          mpool.c:38   UCX  WARN  object 0x1555394fade0 was not returned to mpool mm_recv_desc
[1579609710.617316] [n004:18817:0]          mpool.c:38   UCX  WARN  object 0x155539500f60 was not returned to mpool mm_recv_desc
[1579609710.635980] [n004:18813:0]          mpool.c:38   UCX  WARN  object 0x15554411ee60 was not returned to mpool mm_recv_desc
[1579609710.638905] [n004:18818:0]          mpool.c:38   UCX  WARN  object 0x155544118ce0 was not returned to mpool mm_recv_desc
[1579609710.640039] [n004:18814:0]          mpool.c:38   UCX  WARN  object 0x555563f57680 was not returned to mpool ucp_am_bufs
[1579609710.644135] [n004:18812:0]          mpool.c:38   UCX  WARN  object 0x15554411ad60 was not returned to mpool mm_recv_desc
[1579609710.645506] [n004:18816:0]          mpool.c:38   UCX  WARN  object 0x155544120ee0 was not returned to mpool mm_recv_desc
