 Data for JOB [19196,1] offset 0 Total slots allocated 32

 ========================   JOB MAP   ========================

 Data for node: n004	Num slots: 32	Max slots: 0	Num procs: 32
 	Process OMPI jobid: [19196,1] App: 0 Process rank: 0 Bound: socket 1[core 32[hwt 0-1]]:[../../../../../../../../../../../../../../../../../../../../../../../../../../../../../../../..][BB/../../../../../../../../../../../../../../../../../../../../../../../../../../../../../../..]
 	Process OMPI jobid: [19196,1] App: 0 Process rank: 1 Bound: socket 1[core 33[hwt 0-1]]:[../../../../../../../../../../../../../../../../../../../../../../../../../../../../../../../..][../BB/../../../../../../../../../../../../../../../../../../../../../../../../../../../../../..]
 	Process OMPI jobid: [19196,1] App: 0 Process rank: 2 Bound: socket 1[core 34[hwt 0-1]]:[../../../../../../../../../../../../../../../../../../../../../../../../../../../../../../../..][../../BB/../../../../../../../../../../../../../../../../../../../../../../../../../../../../..]
 	Process OMPI jobid: [19196,1] App: 0 Process rank: 3 Bound: socket 1[core 35[hwt 0-1]]:[../../../../../../../../../../../../../../../../../../../../../../../../../../../../../../../..][../../../BB/../../../../../../../../../../../../../../../../../../../../../../../../../../../..]
 	Process OMPI jobid: [19196,1] App: 0 Process rank: 4 Bound: socket 1[core 36[hwt 0-1]]:[../../../../../../../../../../../../../../../../../../../../../../../../../../../../../../../..][../../../../BB/../../../../../../../../../../../../../../../../../../../../../../../../../../..]
 	Process OMPI jobid: [19196,1] App: 0 Process rank: 5 Bound: socket 1[core 37[hwt 0-1]]:[../../../../../../../../../../../../../../../../../../../../../../../../../../../../../../../..][../../../../../BB/../../../../../../../../../../../../../../../../../../../../../../../../../..]
 	Process OMPI jobid: [19196,1] App: 0 Process rank: 6 Bound: socket 1[core 38[hwt 0-1]]:[../../../../../../../../../../../../../../../../../../../../../../../../../../../../../../../..][../../../../../../BB/../../../../../../../../../../../../../../../../../../../../../../../../..]
 	Process OMPI jobid: [19196,1] App: 0 Process rank: 7 Bound: socket 1[core 39[hwt 0-1]]:[../../../../../../../../../../../../../../../../../../../../../../../../../../../../../../../..][../../../../../../../BB/../../../../../../../../../../../../../../../../../../../../../../../..]
 	Process OMPI jobid: [19196,1] App: 0 Process rank: 8 Bound: socket 1[core 40[hwt 0-1]]:[../../../../../../../../../../../../../../../../../../../../../../../../../../../../../../../..][../../../../../../../../BB/../../../../../../../../../../../../../../../../../../../../../../..]
 	Process OMPI jobid: [19196,1] App: 0 Process rank: 9 Bound: socket 1[core 41[hwt 0-1]]:[../../../../../../../../../../../../../../../../../../../../../../../../../../../../../../../..][../../../../../../../../../BB/../../../../../../../../../../../../../../../../../../../../../..]
 	Process OMPI jobid: [19196,1] App: 0 Process rank: 10 Bound: socket 1[core 42[hwt 0-1]]:[../../../../../../../../../../../../../../../../../../../../../../../../../../../../../../../..][../../../../../../../../../../BB/../../../../../../../../../../../../../../../../../../../../..]
 	Process OMPI jobid: [19196,1] App: 0 Process rank: 11 Bound: socket 1[core 43[hwt 0-1]]:[../../../../../../../../../../../../../../../../../../../../../../../../../../../../../../../..][../../../../../../../../../../../BB/../../../../../../../../../../../../../../../../../../../..]
 	Process OMPI jobid: [19196,1] App: 0 Process rank: 12 Bound: socket 1[core 44[hwt 0-1]]:[../../../../../../../../../../../../../../../../../../../../../../../../../../../../../../../..][../../../../../../../../../../../../BB/../../../../../../../../../../../../../../../../../../..]
 	Process OMPI jobid: [19196,1] App: 0 Process rank: 13 Bound: socket 1[core 45[hwt 0-1]]:[../../../../../../../../../../../../../../../../../../../../../../../../../../../../../../../..][../../../../../../../../../../../../../BB/../../../../../../../../../../../../../../../../../..]
 	Process OMPI jobid: [19196,1] App: 0 Process rank: 14 Bound: socket 1[core 46[hwt 0-1]]:[../../../../../../../../../../../../../../../../../../../../../../../../../../../../../../../..][../../../../../../../../../../../../../../BB/../../../../../../../../../../../../../../../../..]
 	Process OMPI jobid: [19196,1] App: 0 Process rank: 15 Bound: socket 1[core 47[hwt 0-1]]:[../../../../../../../../../../../../../../../../../../../../../../../../../../../../../../../..][../../../../../../../../../../../../../../../BB/../../../../../../../../../../../../../../../..]
 	Process OMPI jobid: [19196,1] App: 0 Process rank: 16 Bound: socket 1[core 48[hwt 0-1]]:[../../../../../../../../../../../../../../../../../../../../../../../../../../../../../../../..][../../../../../../../../../../../../../../../../BB/../../../../../../../../../../../../../../..]
 	Process OMPI jobid: [19196,1] App: 0 Process rank: 17 Bound: socket 1[core 49[hwt 0-1]]:[../../../../../../../../../../../../../../../../../../../../../../../../../../../../../../../..][../../../../../../../../../../../../../../../../../BB/../../../../../../../../../../../../../..]
 	Process OMPI jobid: [19196,1] App: 0 Process rank: 18 Bound: socket 1[core 50[hwt 0-1]]:[../../../../../../../../../../../../../../../../../../../../../../../../../../../../../../../..][../../../../../../../../../../../../../../../../../../BB/../../../../../../../../../../../../..]
 	Process OMPI jobid: [19196,1] App: 0 Process rank: 19 Bound: socket 1[core 51[hwt 0-1]]:[../../../../../../../../../../../../../../../../../../../../../../../../../../../../../../../..][../../../../../../../../../../../../../../../../../../../BB/../../../../../../../../../../../..]
 	Process OMPI jobid: [19196,1] App: 0 Process rank: 20 Bound: socket 1[core 52[hwt 0-1]]:[../../../../../../../../../../../../../../../../../../../../../../../../../../../../../../../..][../../../../../../../../../../../../../../../../../../../../BB/../../../../../../../../../../..]
 	Process OMPI jobid: [19196,1] App: 0 Process rank: 21 Bound: socket 1[core 53[hwt 0-1]]:[../../../../../../../../../../../../../../../../../../../../../../../../../../../../../../../..][../../../../../../../../../../../../../../../../../../../../../BB/../../../../../../../../../..]
 	Process OMPI jobid: [19196,1] App: 0 Process rank: 22 Bound: socket 1[core 54[hwt 0-1]]:[../../../../../../../../../../../../../../../../../../../../../../../../../../../../../../../..][../../../../../../../../../../../../../../../../../../../../../../BB/../../../../../../../../..]
 	Process OMPI jobid: [19196,1] App: 0 Process rank: 23 Bound: socket 1[core 55[hwt 0-1]]:[../../../../../../../../../../../../../../../../../../../../../../../../../../../../../../../..][../../../../../../../../../../../../../../../../../../../../../../../BB/../../../../../../../..]
 	Process OMPI jobid: [19196,1] App: 0 Process rank: 24 Bound: socket 1[core 56[hwt 0-1]]:[../../../../../../../../../../../../../../../../../../../../../../../../../../../../../../../..][../../../../../../../../../../../../../../../../../../../../../../../../BB/../../../../../../..]
 	Process OMPI jobid: [19196,1] App: 0 Process rank: 25 Bound: socket 1[core 57[hwt 0-1]]:[../../../../../../../../../../../../../../../../../../../../../../../../../../../../../../../..][../../../../../../../../../../../../../../../../../../../../../../../../../BB/../../../../../..]
 	Process OMPI jobid: [19196,1] App: 0 Process rank: 26 Bound: socket 1[core 58[hwt 0-1]]:[../../../../../../../../../../../../../../../../../../../../../../../../../../../../../../../..][../../../../../../../../../../../../../../../../../../../../../../../../../../BB/../../../../..]
 	Process OMPI jobid: [19196,1] App: 0 Process rank: 27 Bound: socket 1[core 59[hwt 0-1]]:[../../../../../../../../../../../../../../../../../../../../../../../../../../../../../../../..][../../../../../../../../../../../../../../../../../../../../../../../../../../../BB/../../../..]
 	Process OMPI jobid: [19196,1] App: 0 Process rank: 28 Bound: socket 1[core 60[hwt 0-1]]:[../../../../../../../../../../../../../../../../../../../../../../../../../../../../../../../..][../../../../../../../../../../../../../../../../../../../../../../../../../../../../BB/../../..]
 	Process OMPI jobid: [19196,1] App: 0 Process rank: 29 Bound: socket 1[core 61[hwt 0-1]]:[../../../../../../../../../../../../../../../../../../../../../../../../../../../../../../../..][../../../../../../../../../../../../../../../../../../../../../../../../../../../../../BB/../..]
 	Process OMPI jobid: [19196,1] App: 0 Process rank: 30 Bound: socket 1[core 62[hwt 0-1]]:[../../../../../../../../../../../../../../../../../../../../../../../../../../../../../../../..][../../../../../../../../../../../../../../../../../../../../../../../../../../../../../../BB/..]
 	Process OMPI jobid: [19196,1] App: 0 Process rank: 31 Bound: socket 1[core 63[hwt 0-1]]:[../../../../../../../../../../../../../../../../../../../../../../../../../../../../../../../..][../../../../../../../../../../../../../../../../../../../../../../../../../../../../../../../BB]

 =============================================================
[1579609763.701356] [n004:19485:0]         mxm.c:196  MXM  WARN  The 'ulimit -s' on the system is set to 'unlimited'. This may have negative performance implications. Please set the stack size to the default value (10240) 
[1579609763.702819] [n004:19489:0]         mxm.c:196  MXM  WARN  The 'ulimit -s' on the system is set to 'unlimited'. This may have negative performance implications. Please set the stack size to the default value (10240) 
[1579609763.702826] [n004:19488:0]         mxm.c:196  MXM  WARN  The 'ulimit -s' on the system is set to 'unlimited'. This may have negative performance implications. Please set the stack size to the default value (10240) 
[1579609763.702818] [n004:19490:0]         mxm.c:196  MXM  WARN  The 'ulimit -s' on the system is set to 'unlimited'. This may have negative performance implications. Please set the stack size to the default value (10240) 
[1579609763.704526] [n004:19491:0]         mxm.c:196  MXM  WARN  The 'ulimit -s' on the system is set to 'unlimited'. This may have negative performance implications. Please set the stack size to the default value (10240) 
[1579609763.705138] [n004:19471:0]         mxm.c:196  MXM  WARN  The 'ulimit -s' on the system is set to 'unlimited'. This may have negative performance implications. Please set the stack size to the default value (10240) 
[1579609763.705133] [n004:19473:0]         mxm.c:196  MXM  WARN  The 'ulimit -s' on the system is set to 'unlimited'. This may have negative performance implications. Please set the stack size to the default value (10240) 
[1579609763.705630] [n004:19483:0]         mxm.c:196  MXM  WARN  The 'ulimit -s' on the system is set to 'unlimited'. This may have negative performance implications. Please set the stack size to the default value (10240) 
[1579609763.705706] [n004:19486:0]         mxm.c:196  MXM  WARN  The 'ulimit -s' on the system is set to 'unlimited'. This may have negative performance implications. Please set the stack size to the default value (10240) 
[1579609763.705673] [n004:19492:0]         mxm.c:196  MXM  WARN  The 'ulimit -s' on the system is set to 'unlimited'. This may have negative performance implications. Please set the stack size to the default value (10240) 
[1579609763.705673] [n004:19493:0]         mxm.c:196  MXM  WARN  The 'ulimit -s' on the system is set to 'unlimited'. This may have negative performance implications. Please set the stack size to the default value (10240) 
[1579609763.705784] [n004:19477:0]         mxm.c:196  MXM  WARN  The 'ulimit -s' on the system is set to 'unlimited'. This may have negative performance implications. Please set the stack size to the default value (10240) 
[1579609763.709301] [n004:19494:0]         mxm.c:196  MXM  WARN  The 'ulimit -s' on the system is set to 'unlimited'. This may have negative performance implications. Please set the stack size to the default value (10240) 
[1579609763.710064] [n004:19478:0]         mxm.c:196  MXM  WARN  The 'ulimit -s' on the system is set to 'unlimited'. This may have negative performance implications. Please set the stack size to the default value (10240) 
[1579609763.712507] [n004:19501:0]         mxm.c:196  MXM  WARN  The 'ulimit -s' on the system is set to 'unlimited'. This may have negative performance implications. Please set the stack size to the default value (10240) 
[1579609763.712617] [n004:19499:0]         mxm.c:196  MXM  WARN  The 'ulimit -s' on the system is set to 'unlimited'. This may have negative performance implications. Please set the stack size to the default value (10240) 
[1579609763.712617] [n004:19497:0]         mxm.c:196  MXM  WARN  The 'ulimit -s' on the system is set to 'unlimited'. This may have negative performance implications. Please set the stack size to the default value (10240) 
[1579609763.713710] [n004:19480:0]         mxm.c:196  MXM  WARN  The 'ulimit -s' on the system is set to 'unlimited'. This may have negative performance implications. Please set the stack size to the default value (10240) 
[1579609763.713710] [n004:19481:0]         mxm.c:196  MXM  WARN  The 'ulimit -s' on the system is set to 'unlimited'. This may have negative performance implications. Please set the stack size to the default value (10240) 
[1579609763.714231] [n004:19479:0]         mxm.c:196  MXM  WARN  The 'ulimit -s' on the system is set to 'unlimited'. This may have negative performance implications. Please set the stack size to the default value (10240) 
[1579609763.714855] [n004:19476:0]         mxm.c:196  MXM  WARN  The 'ulimit -s' on the system is set to 'unlimited'. This may have negative performance implications. Please set the stack size to the default value (10240) 
[1579609763.714855] [n004:19475:0]         mxm.c:196  MXM  WARN  The 'ulimit -s' on the system is set to 'unlimited'. This may have negative performance implications. Please set the stack size to the default value (10240) 
[1579609763.715082] [n004:19487:0]         mxm.c:196  MXM  WARN  The 'ulimit -s' on the system is set to 'unlimited'. This may have negative performance implications. Please set the stack size to the default value (10240) 
[1579609763.715314] [n004:19474:0]         mxm.c:196  MXM  WARN  The 'ulimit -s' on the system is set to 'unlimited'. This may have negative performance implications. Please set the stack size to the default value (10240) 
[1579609763.715443] [n004:19503:0]         mxm.c:196  MXM  WARN  The 'ulimit -s' on the system is set to 'unlimited'. This may have negative performance implications. Please set the stack size to the default value (10240) 
[1579609763.715656] [n004:19484:0]         mxm.c:196  MXM  WARN  The 'ulimit -s' on the system is set to 'unlimited'. This may have negative performance implications. Please set the stack size to the default value (10240) 
[1579609763.715711] [n004:19500:0]         mxm.c:196  MXM  WARN  The 'ulimit -s' on the system is set to 'unlimited'. This may have negative performance implications. Please set the stack size to the default value (10240) 
[1579609763.715717] [n004:19502:0]         mxm.c:196  MXM  WARN  The 'ulimit -s' on the system is set to 'unlimited'. This may have negative performance implications. Please set the stack size to the default value (10240) 
[1579609763.715841] [n004:19472:0]         mxm.c:196  MXM  WARN  The 'ulimit -s' on the system is set to 'unlimited'. This may have negative performance implications. Please set the stack size to the default value (10240) 
[1579609763.715894] [n004:19495:0]         mxm.c:196  MXM  WARN  The 'ulimit -s' on the system is set to 'unlimited'. This may have negative performance implications. Please set the stack size to the default value (10240) 
[1579609763.716150] [n004:19498:0]         mxm.c:196  MXM  WARN  The 'ulimit -s' on the system is set to 'unlimited'. This may have negative performance implications. Please set the stack size to the default value (10240) 
[1579609763.720396] [n004:19482:0]         mxm.c:196  MXM  WARN  The 'ulimit -s' on the system is set to 'unlimited'. This may have negative performance implications. Please set the stack size to the default value (10240) 
0: 1 

Rank 0 ghostCells: 5641
Rank 1 ghostCells: 3496
Rank 2 ghostCells: 3887
Rank 3 ghostCells: 6046
Rank 4 ghostCells: 3326
Rank 5 ghostCells: 2394
Rank 6 ghostCells: 2740
Rank 7 ghostCells: 14460
Rank 8 ghostCells: 3621
Rank 9 ghostCells: 3421
Rank 10 ghostCells: 4479
Rank 11 ghostCells: 2712
Rank 12 ghostCells: 4178
Rank 13 ghostCells: 2512
Rank 14 ghostCells: 7286
Rank 15 ghostCells: 7892
Rank 16 ghostCells: 5654
Rank 17 ghostCells: 11408
Rank 18 ghostCells: 5445
Rank 19 ghostCells: 5112
Rank 20 ghostCells: 1654
Rank 21 ghostCells: 1494
Rank 22 ghostCells: 2112
Rank 23 ghostCells: 1475
Rank 24 ghostCells: 2336
Rank 25 ghostCells: 1410
Rank 26 ghostCells: 2461
Rank 27 ghostCells: 1603
Rank 28 ghostCells: 1443
Rank 29 ghostCells: 2759
Rank 30 ghostCells: 2700
Rank 31 ghostCells: 1300

Rank 0 numCells: 17779
Rank 1 numCells: 15575
Rank 2 numCells: 15611
Rank 3 numCells: 17782
Rank 4 numCells: 14599
Rank 5 numCells: 14593
Rank 6 numCells: 12222
Rank 7 numCells: 24253
Rank 8 numCells: 15806
Rank 9 numCells: 13568
Rank 10 numCells: 16693
Rank 11 numCells: 14020
Rank 12 numCells: 16362
Rank 13 numCells: 13767
Rank 14 numCells: 18105
Rank 15 numCells: 17490
Rank 16 numCells: 16802
Rank 17 numCells: 23573
Rank 18 numCells: 17565
Rank 19 numCells: 13892
Rank 20 numCells: 12637
Rank 21 numCells: 10914
Rank 22 numCells: 14288
Rank 23 numCells: 12607
Rank 24 numCells: 13875
Rank 25 numCells: 12642
Rank 26 numCells: 11555
Rank 27 numCells: 11807
Rank 28 numCells: 12889
Rank 29 numCells: 14970
Rank 30 numCells: 13881
Rank 31 numCells: 11742

Rank 0 interiorCells: 12138
Rank 1 interiorCells: 12079
Rank 2 interiorCells: 11724
Rank 3 interiorCells: 11736
Rank 4 interiorCells: 11273
Rank 5 interiorCells: 12199
Rank 6 interiorCells: 9482
Rank 7 interiorCells: 9793
Rank 8 interiorCells: 12185
Rank 9 interiorCells: 10147
Rank 10 interiorCells: 12214
Rank 11 interiorCells: 11308
Rank 12 interiorCells: 12184
Rank 13 interiorCells: 11255
Rank 14 interiorCells: 10819
Rank 15 interiorCells: 9598
Rank 16 interiorCells: 11148
Rank 17 interiorCells: 12165
Rank 18 interiorCells: 12120
Rank 19 interiorCells: 8780
Rank 20 interiorCells: 10983
Rank 21 interiorCells: 9420
Rank 22 interiorCells: 12176
Rank 23 interiorCells: 11132
Rank 24 interiorCells: 11539
Rank 25 interiorCells: 11232
Rank 26 interiorCells: 9094
Rank 27 interiorCells: 10204
Rank 28 interiorCells: 11446
Rank 29 interiorCells: 12211
Rank 30 interiorCells: 11181
Rank 31 interiorCells: 10442

MeasComm+1 32: 0.000699332 0.000524202 0.000606221 0.000727762 0.000562482 0.000501761 0.000523261 0.000891302 0.000521782 0.000424191 0.000471242 0.000403151 0.000587702 0.000503811 0.000758312 0.000820803 0.000670452 0.000741912 0.000604082 0.000585352 0.000478491 0.000471882 0.000480911 0.000475512 0.000494441 0.000485441 0.000508201 0.000229771 0.000213981 0.000265561 0.000262341 0.000475152 
MeasComm+1 32: 0.000699502 0.000526661 0.000662942 0.000727962 0.000558731 0.000494101 0.000513341 0.000888413 0.000519641 0.000422081 0.000465731 0.000403341 0.000586972 0.000500401 0.000762781 0.000817262 0.000612871 0.000738202 0.000603561 0.000582271 0.000480401 0.000470251 0.000484291 0.000476202 0.000493001 0.000483511 0.000509861 0.000229591 0.000211431 0.00024487 0.00023716 0.000472761 
MeasComm+1 32: 0.000672632 0.000528771 0.000606872 0.000717092 0.000538401 0.000500551 0.000520891 0.000887762 0.000514632 0.000422051 0.000467891 0.000401251 0.000558461 0.000499401 0.000748932 0.000815952 0.000636762 0.000717592 0.000601172 0.000556631 0.000482341 0.000471871 0.000485631 0.000476021 0.000494061 0.000484811 0.000506961 0.000229391 0.000212151 0.000262241 0.000256281 0.000473751 
MeasComm+1 32: 0.000658932 0.000523051 0.000611672 0.000697821 0.000524901 0.000497941 0.000521162 0.000888922 0.000516161 0.000410031 0.000465581 0.000402011 0.000549251 0.000502362 0.000744342 0.000817382 0.000653102 0.000716192 0.000586562 0.000542162 0.000482711 0.000472421 0.000486011 0.000476081 0.000495071 0.000484641 0.000503201 0.000229061 0.0002097 0.00023854 0.0002376 0.000470091 
MeasComm+1 32: 0.000687811 0.000520611 0.000599692 0.000723662 0.000561722 0.000486562 0.000498652 0.000886372 0.000513872 0.000421422 0.000478062 0.000391371 0.000585662 0.000502791 0.000652092 0.000799602 0.000664542 0.000739352 0.000602191 0.000578841 0.000482961 0.000461582 0.000486601 0.000475401 0.000492891 0.000483061 0.000507892 0.000223991 0.000211891 0.000261941 0.00018969 0.000475221 
MeasComm+1 32: 0.000668231 0.000520601 0.000604032 0.000709351 0.000563962 0.000499262 0.000513602 0.000893242 0.000517922 0.000419331 0.000461382 0.000398961 0.000588141 0.000505652 0.000777412 0.000815252 0.000655622 0.000740652 0.000597661 0.000553331 0.000485292 0.000475171 0.000488752 0.000479072 0.000496501 0.000487971 0.000508472 0.000229871 0.00021144 0.000244591 0.000237571 0.000477282 
MeasComm+1 32: 0.00036967 0.000513621 0.000654311 0.000706702 0.00028533 0.000499101 0.000519071 0.000887462 0.000388561 0.000416581 0.000463611 0.000402301 0.000480011 0.000499621 0.000749882 0.000785972 0.000395431 0.000738962 0.000606242 0.000543011 0.000386241 0.000472041 0.000486271 0.000475631 0.00018465 0.000485301 0.000504411 0.000229911 0.00014938 0.000262951 0.000249771 0.000474701 
MeasComm+1 32: 0.000636072 0.000497102 0.000608191 0.000675162 0.000565081 0.000488512 0.000513632 0.000888033 0.000515251 0.000424041 0.000455452 0.000397291 0.000563782 0.000503492 0.000746812 0.000806262 0.000630031 0.000737472 0.000564312 0.000506602 0.000482931 0.000469152 0.000479922 0.000472892 0.000483242 0.000479522 0.000494082 0.000227561 0.000212721 0.00025978 0.000256071 0.000472862 
MeasComm+1 32: 0.000580121 0.000528492 0.000618931 0.000728262 0.000563842 0.000502981 0.000522821 0.000886033 0.000507641 0.000419991 0.000462181 0.000404481 0.000587982 0.000503481 0.000765162 0.000815063 0.000557521 0.000738622 0.000605061 0.000583301 0.000482382 0.000474012 0.000487701 0.000479952 0.00018876 0.000487891 0.000509652 0.00023039 0.000212221 0.000261481 0.000262091 0.000474182 
MeasComm+1 32: 0.000630752 0.000518762 0.000617592 0.000669682 0.000557652 0.000499751 0.000520701 0.000888122 0.000516212 0.000420231 0.000461491 0.000399441 0.000556952 0.000501881 0.000763052 0.000807213 0.000647892 0.000726262 0.000558032 0.000534512 0.000481451 0.000471421 0.000485481 0.000476661 0.000495041 0.000479271 0.000508782 0.000228201 0.00021235 0.000262331 0.000256961 0.000473601 

MeasCopy 32: 0.000269831 0.00016699 0.00018575 0.000288991 0.000158921 0.00011433 0.000130861 0.000691262 0.000173041 0.00016351 0.000214 0.00012959 0.00019967 0.000119961 0.000348401 0.000377151 0.000270251 0.000545652 0.000260161 0.00024427 7.898e-05 7.137e-05 0.00010102 7.046e-05 0.00011163 6.734e-05 0.00011758 7.662e-05 6.889e-05 0.000131891 0.0001289 6.2101e-05 
MeasCopy 32: 0.000269671 0.000167 0.000185811 0.000289071 0.00015888 0.0001143 0.00013093 0.000691382 0.00017296 0.00016351 0.000213971 0.00012959 0.00019953 0.00011999 0.000348281 0.000377171 0.000270251 0.000545641 0.00026016 0.00024435 7.9e-05 7.134e-05 0.00010106 7.049e-05 0.000111601 6.731e-05 0.000117571 7.653e-05 6.892e-05 0.000131851 0.00012898 6.21e-05 
MeasCopy 32: 0.000269651 0.000167021 0.00018581 0.00028898 0.000158921 0.00011432 0.0001309 0.000691332 0.00017308 0.000163331 0.000214031 0.00012959 0.000199691 0.00012003 0.000348471 0.00037727 0.000270301 0.000545701 0.000260171 0.00024424 7.901e-05 7.134e-05 0.00010106 7.043e-05 0.00011155 6.726e-05 0.00011757 7.656e-05 6.884e-05 0.00013183 0.00012903 6.215e-05 
MeasCopy 32: 0.00026734 0.00016585 0.0001843 0.0002866 0.00015768 0.00011344 0.0001299 0.000685181 0.00017171 0.00016205 0.00021226 0.00012849 0.00019786 0.00011919 0.00034528 0.000373981 0.00026799 0.000540801 0.0002579 0.00024221 7.848e-05 7.083e-05 0.00010012 6.994e-05 0.0001106 6.68e-05 0.0001167 7.601e-05 6.835e-05 0.00013067 0.00012804 6.163e-05 
MeasCopy 32: 0.00026973 0.00016697 0.00018581 0.00028899 0.00015885 0.00011431 0.00013093 0.000691282 0.000173 0.000163211 0.000214021 0.00012955 0.00019961 0.00012002 0.000348361 0.000377301 0.00027028 0.000545561 0.000260201 0.000244251 7.901e-05 7.132e-05 0.00010103 7.053e-05 0.000111521 6.7371e-05 0.00011759 7.658e-05 6.891e-05 0.00013175 0.00012897 6.21e-05 
MeasCopy 32: 0.000269601 0.000166891 0.000185841 0.00028904 0.0001589 0.00011438 0.00013098 0.000691182 0.000173061 0.00016352 0.000214041 0.00012956 0.00019958 0.00012003 0.000348351 0.000377211 0.000270341 0.000545391 0.00026012 0.000244231 7.895e-05 7.1361e-05 0.00010094 7.047e-05 0.00011159 6.7381e-05 0.000117641 7.6531e-05 6.893e-05 0.00013182 0.00012902 6.209e-05 
MeasCopy 32: 0.000267521 0.00016567 0.00018439 0.000286431 0.0001576 0.00011351 0.00012981 0.000685482 0.000171581 0.00016211 0.00021234 0.00012859 0.00019807 0.00011905 0.000345451 0.000374071 0.000267851 0.000540831 0.000257901 0.00024212 7.839e-05 7.089e-05 0.00010009 6.994e-05 0.00011071 6.685e-05 0.00011662 7.609e-05 6.843e-05 0.00013059 0.00012782 6.159e-05 
MeasCopy 32: 0.000269691 0.000167031 0.00018578 0.000288981 0.00015892 0.00011432 0.00013095 0.000691292 0.000173001 0.00016351 0.00021397 0.00012955 0.000199521 0.000120031 0.000348281 0.000377161 0.00027033 0.000545612 0.000260221 0.000244281 7.902e-05 7.137e-05 0.00010107 7.049e-05 0.000111571 6.729e-05 0.0001176 7.6531e-05 6.893e-05 0.00013184 0.00012899 6.213e-05 
MeasCopy 32: 0.000269581 0.000167 0.00018582 0.00028897 0.000158891 0.000114371 0.000130871 0.000691221 0.000173061 0.000163571 0.00021399 0.000129611 0.000199641 0.00011998 0.000348311 0.000377051 0.000270261 0.000545681 0.000260221 0.00024423 7.9021e-05 7.1371e-05 0.000100991 7.049e-05 0.00011163 6.7331e-05 0.000117571 7.656e-05 6.891e-05 0.000131851 0.000128901 6.213e-05 
MeasCopy 32: 0.00026978 0.000167031 0.000185811 0.000289041 0.00015888 0.000114291 0.00013097 0.000691262 0.00017306 0.00016355 0.00021403 0.00012956 0.000199711 0.000120031 0.000348361 0.000377111 0.000270221 0.000545711 0.000260131 0.000244321 7.901e-05 7.1351e-05 0.00010104 7.044e-05 0.00011161 6.737e-05 0.00011756 7.654e-05 6.89e-05 0.00013181 0.00012899 6.208e-05 

ComTab rank 0: 0 952 1085 2865 152 142 337 1100 159 106 591 0 0 0 138 71 215 117 0 0 0 3 2 85 0 0 0 0 0 0 0 23 
ComTab rank 1: 930 0 430 1110 287 1058 38 112 0 0 0 0 0 0 0 19 0 0 0 0 93 135 322 21 0 0 0 0 0 0 0 0 
ComTab rank 2: 775 371 0 1744 82 0 161 1444 0 0 0 0 212 0 94 22 0 0 0 0 231 15 118 0 0 275 93 0 0 0 0 163 
ComTab rank 3: 2697 1059 1821 0 513 316 312 1827 21 0 113 0 168 0 366 49 264 183 0 0 104 15 3 28 0 0 0 0 0 0 0 15 
ComTab rank 4: 133 333 81 456 0 659 125 507 382 172 423 0 0 284 204 155 409 55 0 0 24 54 0 5 0 0 0 0 0 0 0 267 
ComTab rank 5: 121 877 0 267 664 0 370 566 0 0 0 0 0 0 0 426 0 0 0 0 0 109 0 0 0 0 0 0 0 0 0 28 
ComTab rank 6: 340 34 221 348 159 361 0 1774 0 0 0 0 16 0 0 753 0 0 0 0 0 143 33 0 0 0 0 0 0 0 0 109 
ComTab rank 7: 1086 90 1640 1977 534 632 1810 0 29 0 0 0 3373 485 2080 3483 37 108 185 431 110 24 25 4 43 31 109 0 0 0 0 611 
ComTab rank 8: 186 0 0 22 383 0 0 32 0 1211 1009 509 34 29 67 0 718 529 57 0 0 0 30 34 0 0 0 0 0 0 0 0 
ComTab rank 9: 131 0 0 0 181 0 0 0 1218 0 131 144 0 674 340 166 239 647 322 0 0 0 31 10 0 0 0 0 0 0 0 0 
ComTab rank 10: 698 0 0 114 414 0 0 0 978 126 0 753 0 0 232 0 1387 690 0 0 0 0 112 103 0 0 158 0 0 0 0 0 
ComTab rank 11: 0 0 0 0 0 0 0 0 523 130 806 0 41 0 3 0 528 631 591 0 0 0 18 0 0 0 269 0 0 0 0 0 
ComTab rank 12: 0 0 189 187 0 0 16 3395 23 0 0 132 0 247 1836 1438 38 62 72 0 13 0 37 8 0 0 234 0 0 0 0 0 
ComTab rank 13: 0 0 0 0 293 0 0 521 29 667 0 0 254 0 811 735 0 0 13 0 0 0 0 13 0 0 0 0 0 0 0 0 
ComTab rank 14: 144 0 94 473 196 0 0 2067 55 331 241 3 1832 795 0 590 2306 3051 140 3 19 0 48 34 0 0 192 0 0 0 0 0 
ComTab rank 15: 71 18 33 50 145 439 766 3329 0 185 0 0 1438 746 571 0 616 2171 623 634 0 17 20 45 155 0 76 0 0 0 0 464 
ComTab rank 16: 175 0 0 216 393 0 0 40 690 218 1376 523 23 0 2107 616 0 4367 54 24 0 0 23 28 0 0 169 0 0 0 0 0 
ComTab rank 17: 162 0 0 237 52 0 0 108 523 619 723 631 58 0 2949 1981 4545 0 760 144 0 0 0 0 51 25 565 0 0 0 0 0 
ComTab rank 18: 0 0 0 0 0 0 0 183 22 336 0 598 82 13 112 594 63 666 0 2033 62 113 64 9 348 125 754 686 250 342 944 0 
ComTab rank 19: 0 0 0 0 0 0 0 420 0 0 0 0 0 0 3 646 35 138 2087 0 23 0 0 0 651 700 67 366 198 356 1001 0 
ComTab rank 20: 0 45 232 108 6 0 0 88 0 0 0 0 9 0 23 0 0 0 50 18 0 349 46 295 257 118 156 0 136 6 67 0 
ComTab rank 21: 3 300 38 20 61 184 84 16 0 0 0 0 0 0 0 12 0 0 96 0 324 0 203 215 0 0 64 0 0 0 0 51 
ComTab rank 22: 2 759 166 3 0 0 27 19 25 53 231 27 10 0 36 15 6 0 62 0 51 180 0 540 0 0 10 0 0 0 0 96 
ComTab rank 23: 68 52 0 40 9 0 0 4 30 11 177 0 7 17 46 72 33 0 14 0 291 202 540 0 0 0 42 0 0 0 0 0 
ComTab rank 24: 0 0 0 0 0 0 0 39 0 0 0 0 0 0 0 153 0 41 356 614 116 0 0 0 0 594 347 0 15 360 305 0 
ComTab rank 25: 0 0 64 0 0 0 0 27 0 0 0 0 0 0 0 0 0 25 60 588 59 0 0 0 523 0 273 0 0 0 18 0 
ComTab rank 26: 0 0 31 0 0 0 0 47 0 0 109 269 76 0 144 40 167 500 732 57 78 31 10 26 407 279 0 200 11 202 0 0 
ComTab rank 27: 0 0 0 0 0 0 0 0 0 0 0 0 0 0 0 0 0 0 667 366 0 0 0 0 0 0 190 0 409 207 0 0 
ComTab rank 28: 0 0 0 0 0 0 0 0 0 0 0 0 0 0 0 0 0 0 224 199 138 0 0 0 37 0 22 427 0 462 299 0 
ComTab rank 29: 0 0 0 0 0 0 0 0 0 0 0 0 0 0 0 0 0 0 287 332 6 0 0 0 357 0 175 190 365 0 1411 228 
ComTab rank 30: 0 0 0 0 0 0 0 0 0 0 0 0 0 0 0 0 0 0 833 925 49 0 0 0 307 19 0 0 258 1401 0 68 
ComTab rank 31: 20 0 175 11 253 28 88 592 0 0 0 0 0 0 0 464 0 0 0 0 0 31 60 0 0 0 0 0 0 254 70 0 

Edge-cut: 92373

Wgt-cut: 1.9077e-08

[1579609821.716430] [n004:19476:0]          mpool.c:38   UCX  WARN  object 0x55555bae3840 was not returned to mpool ucp_am_bufs
[1579609821.736356] [n004:19489:0]          mpool.c:38   UCX  WARN  object 0x1555394fade0 was not returned to mpool mm_recv_desc
[1579609821.743032] [n004:19473:0]          mpool.c:38   UCX  WARN  object 0x1555394d64e0 was not returned to mpool mm_recv_desc
[1579609821.865385] [n004:19480:0]          mpool.c:38   UCX  WARN  object 0x155544110ae0 was not returned to mpool mm_recv_desc
[1579609821.869908] [n004:19472:0]          mpool.c:38   UCX  WARN  object 0x1555394d4460 was not returned to mpool mm_recv_desc
