 Data for JOB [43487,1] offset 0 Total slots allocated 2

 ========================   JOB MAP   ========================

 Data for node: n001	Num slots: 2	Max slots: 0	Num procs: 2
 	Process OMPI jobid: [43487,1] App: 0 Process rank: 0 Bound: socket 0[core 17[hwt 0-1]]:[../../../../../../../../../../../../../../../../../BB/../../../../../../../../../../../../../..][../../../../../../../../../../../../../../../../../../../../../../../../../../../../../../../..]
 	Process OMPI jobid: [43487,1] App: 0 Process rank: 1 Bound: socket 1[core 58[hwt 0-1]]:[../../../../../../../../../../../../../../../../../../../../../../../../../../../../../../../..][../../../../../../../../../../../../../../../../../../../../../../../../../../BB/../../../../..]

 =============================================================
dune-size 1 6.93628e-06 6.93468e-06 
dune-size 2 5.20069e-06 5.20629e-06 
dune-size 4 5.40599e-06 5.40189e-06 
dune-size 8 5.61648e-06 5.61448e-06 
dune-size 16 6.01049e-06 6.00949e-06 
dune-size 32 6.94528e-06 6.94958e-06 
dune-size 64 8.75308e-06 8.75428e-06 
dune-size 128 1.28114e-05 1.2808e-05 
dune-size 256 1.98255e-05 1.98291e-05 
dune-size 512 3.39308e-05 3.39348e-05 
dune-size 1024 0.000105325 0.000105316 
dune-size 2048 0.000194099 0.000194115 
dune-size 4096 0.000381621 0.000381597 
dune-size 8192 0.000627955 0.000627963 
dune-size 16384 0.000944647 0.000944628 
dune-size 32768 0.00167824 0.00167836 
dune-size 65536 0.00334324 0.00334213 
dune-size 131072 0.00651054 0.00651782 
dune-size 262144 0.0130468 0.0130521 
dune-size 524288 0.0259916 0.0259866 
dune-size 1048576 0.0514773 0.0515138 
