 Data for JOB [59994,1] offset 0 Total slots allocated 2

 ========================   JOB MAP   ========================

 Data for node: n001	Num slots: 2	Max slots: 0	Num procs: 2
 	Process OMPI jobid: [59994,1] App: 0 Process rank: 0 Bound: socket 0[core 25[hwt 0-1]]:[../../../../../../../../../../../../../../../../../../../../../../../../../BB/../../../../../..][../../../../../../../../../../../../../../../../../../../../../../../../../../../../../../../..]
 	Process OMPI jobid: [59994,1] App: 0 Process rank: 1 Bound: socket 1[core 34[hwt 0-1]]:[../../../../../../../../../../../../../../../../../../../../../../../../../../../../../../../..][../../BB/../../../../../../../../../../../../../../../../../../../../../../../../../../../../..]

 =============================================================
dune-size 1 5.53598e-06 5.53168e-06 
dune-size 2 5.40778e-06 5.40498e-06 
dune-size 4 6.76808e-06 6.76258e-06 
dune-size 8 5.79508e-06 5.79348e-06 
dune-size 16 6.24898e-06 6.24208e-06 
dune-size 32 7.05388e-06 7.05158e-06 
dune-size 64 8.92398e-06 8.92028e-06 
dune-size 128 1.2477e-05 1.24814e-05 
dune-size 256 2.10339e-05 2.10325e-05 
dune-size 512 3.3889e-05 3.39027e-05 
dune-size 1024 0.000108599 0.000108601 
dune-size 2048 0.000197551 0.000197554 
dune-size 4096 0.000388528 0.000388505 
dune-size 8192 0.000684269 0.000684267 
dune-size 16384 0.000945048 0.000944972 
dune-size 32768 0.00168854 0.00168861 
dune-size 65536 0.00338148 0.00338005 
dune-size 131072 0.00651423 0.00651756 
dune-size 262144 0.0131205 0.0131167 
dune-size 524288 0.0259786 0.0260061 
dune-size 1048576 0.0515251 0.0515671 
