 Data for JOB [4416,1] offset 0 Total slots allocated 16

 ========================   JOB MAP   ========================

 Data for node: srl-login1	Num slots: 16	Max slots: 0	Num procs: 16
 	Process OMPI jobid: [4416,1] App: 0 Process rank: 0 Bound: socket 0[core 0[hwt 0-1]]:[BB/../../../../../../../../../../../../../../..][../../../../../../../../../../../../../../../..]
 	Process OMPI jobid: [4416,1] App: 0 Process rank: 1 Bound: socket 0[core 1[hwt 0-1]]:[../BB/../../../../../../../../../../../../../..][../../../../../../../../../../../../../../../..]
 	Process OMPI jobid: [4416,1] App: 0 Process rank: 2 Bound: socket 0[core 2[hwt 0-1]]:[../../BB/../../../../../../../../../../../../..][../../../../../../../../../../../../../../../..]
 	Process OMPI jobid: [4416,1] App: 0 Process rank: 3 Bound: socket 0[core 3[hwt 0-1]]:[../../../BB/../../../../../../../../../../../..][../../../../../../../../../../../../../../../..]
 	Process OMPI jobid: [4416,1] App: 0 Process rank: 4 Bound: socket 0[core 4[hwt 0-1]]:[../../../../BB/../../../../../../../../../../..][../../../../../../../../../../../../../../../..]
 	Process OMPI jobid: [4416,1] App: 0 Process rank: 5 Bound: socket 0[core 5[hwt 0-1]]:[../../../../../BB/../../../../../../../../../..][../../../../../../../../../../../../../../../..]
 	Process OMPI jobid: [4416,1] App: 0 Process rank: 6 Bound: socket 0[core 6[hwt 0-1]]:[../../../../../../BB/../../../../../../../../..][../../../../../../../../../../../../../../../..]
 	Process OMPI jobid: [4416,1] App: 0 Process rank: 7 Bound: socket 0[core 7[hwt 0-1]]:[../../../../../../../BB/../../../../../../../..][../../../../../../../../../../../../../../../..]
 	Process OMPI jobid: [4416,1] App: 0 Process rank: 8 Bound: socket 1[core 16[hwt 0-1]]:[../../../../../../../../../../../../../../../..][BB/../../../../../../../../../../../../../../..]
 	Process OMPI jobid: [4416,1] App: 0 Process rank: 9 Bound: socket 1[core 17[hwt 0-1]]:[../../../../../../../../../../../../../../../..][../BB/../../../../../../../../../../../../../..]
 	Process OMPI jobid: [4416,1] App: 0 Process rank: 10 Bound: socket 1[core 18[hwt 0-1]]:[../../../../../../../../../../../../../../../..][../../BB/../../../../../../../../../../../../..]
 	Process OMPI jobid: [4416,1] App: 0 Process rank: 11 Bound: socket 1[core 19[hwt 0-1]]:[../../../../../../../../../../../../../../../..][../../../BB/../../../../../../../../../../../..]
 	Process OMPI jobid: [4416,1] App: 0 Process rank: 12 Bound: socket 1[core 20[hwt 0-1]]:[../../../../../../../../../../../../../../../..][../../../../BB/../../../../../../../../../../..]
 	Process OMPI jobid: [4416,1] App: 0 Process rank: 13 Bound: socket 1[core 21[hwt 0-1]]:[../../../../../../../../../../../../../../../..][../../../../../BB/../../../../../../../../../..]
 	Process OMPI jobid: [4416,1] App: 0 Process rank: 14 Bound: socket 1[core 22[hwt 0-1]]:[../../../../../../../../../../../../../../../..][../../../../../../BB/../../../../../../../../..]
 	Process OMPI jobid: [4416,1] App: 0 Process rank: 15 Bound: socket 1[core 23[hwt 0-1]]:[../../../../../../../../../../../../../../../..][../../../../../../../BB/../../../../../../../..]

 =============================================================
[1578657467.354040] [srl-login1:18732:0]         mxm.c:196  MXM  WARN  The 'ulimit -s' on the system is set to 'unlimited'. This may have negative performance implications. Please set the stack size to the default value (10240) 
[1578657467.354134] [srl-login1:18733:0]         mxm.c:196  MXM  WARN  The 'ulimit -s' on the system is set to 'unlimited'. This may have negative performance implications. Please set the stack size to the default value (10240) 
[1578657467.366592] [srl-login1:18745:0]         mxm.c:196  MXM  WARN  The 'ulimit -s' on the system is set to 'unlimited'. This may have negative performance implications. Please set the stack size to the default value (10240) 
[1578657467.366710] [srl-login1:18735:0]         mxm.c:196  MXM  WARN  The 'ulimit -s' on the system is set to 'unlimited'. This may have negative performance implications. Please set the stack size to the default value (10240) 
[1578657467.368352] [srl-login1:18728:0]         mxm.c:196  MXM  WARN  The 'ulimit -s' on the system is set to 'unlimited'. This may have negative performance implications. Please set the stack size to the default value (10240) 
[1578657467.368857] [srl-login1:18727:0]         mxm.c:196  MXM  WARN  The 'ulimit -s' on the system is set to 'unlimited'. This may have negative performance implications. Please set the stack size to the default value (10240) 
[1578657467.369054] [srl-login1:18726:0]         mxm.c:196  MXM  WARN  The 'ulimit -s' on the system is set to 'unlimited'. This may have negative performance implications. Please set the stack size to the default value (10240) 
[1578657467.369955] [srl-login1:18754:0]         mxm.c:196  MXM  WARN  The 'ulimit -s' on the system is set to 'unlimited'. This may have negative performance implications. Please set the stack size to the default value (10240) 
[1578657467.370542] [srl-login1:18731:0]         mxm.c:196  MXM  WARN  The 'ulimit -s' on the system is set to 'unlimited'. This may have negative performance implications. Please set the stack size to the default value (10240) 
[1578657467.371682] [srl-login1:18730:0]         mxm.c:196  MXM  WARN  The 'ulimit -s' on the system is set to 'unlimited'. This may have negative performance implications. Please set the stack size to the default value (10240) 
[1578657467.371694] [srl-login1:18749:0]         mxm.c:196  MXM  WARN  The 'ulimit -s' on the system is set to 'unlimited'. This may have negative performance implications. Please set the stack size to the default value (10240) 
[1578657467.372812] [srl-login1:18752:0]         mxm.c:196  MXM  WARN  The 'ulimit -s' on the system is set to 'unlimited'. This may have negative performance implications. Please set the stack size to the default value (10240) 
[1578657467.373131] [srl-login1:18729:0]         mxm.c:196  MXM  WARN  The 'ulimit -s' on the system is set to 'unlimited'. This may have negative performance implications. Please set the stack size to the default value (10240) 
[1578657467.373132] [srl-login1:18742:0]         mxm.c:196  MXM  WARN  The 'ulimit -s' on the system is set to 'unlimited'. This may have negative performance implications. Please set the stack size to the default value (10240) 
[1578657467.373984] [srl-login1:18739:0]         mxm.c:196  MXM  WARN  The 'ulimit -s' on the system is set to 'unlimited'. This may have negative performance implications. Please set the stack size to the default value (10240) 
[1578657467.377435] [srl-login1:18756:0]         mxm.c:196  MXM  WARN  The 'ulimit -s' on the system is set to 'unlimited'. This may have negative performance implications. Please set the stack size to the default value (10240) 
0: 11 
Edge Weight Method: 11
Cell on rank 0: 2524
Cell on rank 1: 3054
Cell on rank 2: 2643
Cell on rank 3: 2787
Cell on rank 4: 2655
Cell on rank 5: 3054
Cell on rank 6: 2524
Cell on rank 7: 2900
Cell on rank 8: 2553
Cell on rank 9: 2954
Cell on rank 10: 2847
Cell on rank 11: 2524
Cell on rank 12: 2987
Cell on rank 13: 3042
Cell on rank 14: 2524
Cell on rank 15: 2859
Edge-cut: 70725962
Manually moving well D-3AH to partition 13
