 Data for JOB [44188,1] offset 0 Total slots allocated 8

 ========================   JOB MAP   ========================

 Data for node: srl-mds1	Num slots: 8	Max slots: 0	Num procs: 8
 	Process OMPI jobid: [44188,1] App: 0 Process rank: 0 Bound: socket 0[core 0[hwt 0-1]]:[BB/../../../../../../../../../../../../../../..][../../../../../../../../../../../../../../../..]
 	Process OMPI jobid: [44188,1] App: 0 Process rank: 1 Bound: socket 0[core 1[hwt 0-1]]:[../BB/../../../../../../../../../../../../../..][../../../../../../../../../../../../../../../..]
 	Process OMPI jobid: [44188,1] App: 0 Process rank: 2 Bound: socket 0[core 2[hwt 0-1]]:[../../BB/../../../../../../../../../../../../..][../../../../../../../../../../../../../../../..]
 	Process OMPI jobid: [44188,1] App: 0 Process rank: 3 Bound: socket 0[core 3[hwt 0-1]]:[../../../BB/../../../../../../../../../../../..][../../../../../../../../../../../../../../../..]
 	Process OMPI jobid: [44188,1] App: 0 Process rank: 4 Bound: socket 1[core 16[hwt 0-1]]:[../../../../../../../../../../../../../../../..][BB/../../../../../../../../../../../../../../..]
 	Process OMPI jobid: [44188,1] App: 0 Process rank: 5 Bound: socket 1[core 17[hwt 0-1]]:[../../../../../../../../../../../../../../../..][../BB/../../../../../../../../../../../../../..]
 	Process OMPI jobid: [44188,1] App: 0 Process rank: 6 Bound: socket 1[core 18[hwt 0-1]]:[../../../../../../../../../../../../../../../..][../../BB/../../../../../../../../../../../../..]
 	Process OMPI jobid: [44188,1] App: 0 Process rank: 7 Bound: socket 1[core 19[hwt 0-1]]:[../../../../../../../../../../../../../../../..][../../../BB/../../../../../../../../../../../..]

 =============================================================
[1578657461.923829] [srl-mds1:1979 :0]         mxm.c:196  MXM  WARN  The 'ulimit -s' on the system is set to 'unlimited'. This may have negative performance implications. Please set the stack size to the default value (10240) 
[1578657461.923829] [srl-mds1:1982 :0]         mxm.c:196  MXM  WARN  The 'ulimit -s' on the system is set to 'unlimited'. This may have negative performance implications. Please set the stack size to the default value (10240) 
[1578657461.923952] [srl-mds1:1980 :0]         mxm.c:196  MXM  WARN  The 'ulimit -s' on the system is set to 'unlimited'. This may have negative performance implications. Please set the stack size to the default value (10240) 
[1578657461.923964] [srl-mds1:1978 :0]         mxm.c:196  MXM  WARN  The 'ulimit -s' on the system is set to 'unlimited'. This may have negative performance implications. Please set the stack size to the default value (10240) 
[1578657461.924954] [srl-mds1:1977 :0]         mxm.c:196  MXM  WARN  The 'ulimit -s' on the system is set to 'unlimited'. This may have negative performance implications. Please set the stack size to the default value (10240) 
[1578657461.927208] [srl-mds1:1976 :0]         mxm.c:196  MXM  WARN  The 'ulimit -s' on the system is set to 'unlimited'. This may have negative performance implications. Please set the stack size to the default value (10240) 
[1578657461.927309] [srl-mds1:1975 :0]         mxm.c:196  MXM  WARN  The 'ulimit -s' on the system is set to 'unlimited'. This may have negative performance implications. Please set the stack size to the default value (10240) 
[1578657461.927326] [srl-mds1:1981 :0]         mxm.c:196  MXM  WARN  The 'ulimit -s' on the system is set to 'unlimited'. This may have negative performance implications. Please set the stack size to the default value (10240) 
0: 11 
Edge Weight Method: 11
Cell on rank 0: 5123
Cell on rank 1: 5170
Cell on rank 2: 5721
Cell on rank 3: 5739
Cell on rank 4: 5739
Cell on rank 5: 6109
Cell on rank 6: 5260
Cell on rank 7: 5570
Edge-cut: 52822751

Rank 0 ghostCells: 1552
Rank 1 ghostCells: 1458
Rank 2 ghostCells: 813
Rank 3 ghostCells: 760
Rank 4 ghostCells: 657
Rank 5 ghostCells: 1367
Rank 6 ghostCells: 266
Rank 7 ghostCells: 484

Rank 0 numCells: 6675
Rank 1 numCells: 6628
Rank 2 numCells: 6534
Rank 3 numCells: 6499
Rank 4 numCells: 6396
Rank 5 numCells: 7476
Rank 6 numCells: 5526
Rank 7 numCells: 6054

Rank 0 interiorCells: 5123
Rank 1 interiorCells: 5170
Rank 2 interiorCells: 5721
Rank 3 interiorCells: 5739
Rank 4 interiorCells: 5739
Rank 5 interiorCells: 6109
Rank 6 interiorCells: 5260
Rank 7 interiorCells: 5570

MeasComm+1 8: 7.6888e-05 7.0341e-05 4.8662e-05 5.0048e-05 5.3834e-05 6.9649e-05 3.1119e-05 4.3564e-05 
MeasComm+1 8: 7.5931e-05 7.004e-05 4.8812e-05 4.9449e-05 5.3364e-05 6.9586e-05 3.0648e-05 4.3414e-05 
MeasComm+1 8: 7.4924e-05 6.8834e-05 4.7503e-05 4.855e-05 4.2877e-05 6.9437e-05 1.9081e-05 4.3327e-05 
MeasComm+1 8: 7.4184e-05 6.8552e-05 4.7664e-05 4.8696e-05 5.3421e-05 6.9311e-05 2.9988e-05 4.2566e-05 
MeasComm+1 8: 7.4381e-05 6.889e-05 4.7566e-05 4.8262e-05 5.347e-05 6.9749e-05 3.0248e-05 4.2834e-05 
MeasComm+1 8: 7.4574e-05 6.8801e-05 4.7147e-05 4.5525e-05 5.3725e-05 7.1075e-05 3.0765e-05 4.3352e-05 
MeasComm+1 8: 7.4456e-05 6.858e-05 4.4631e-05 4.2872e-05 4.3994e-05 6.9645e-05 1.8973e-05 4.3152e-05 
MeasComm+1 8: 7.4663e-05 6.8936e-05 4.7807e-05 4.8534e-05 5.3475e-05 6.99e-05 3.0167e-05 4.316e-05 
MeasComm+1 8: 7.4686e-05 6.8747e-05 4.7319e-05 4.857e-05 5.3542e-05 6.961e-05 3.0128e-05 4.3043e-05 
MeasComm+1 8: 7.4679e-05 6.8551e-05 4.7719e-05 4.863e-05 5.3411e-05 6.8655e-05 3.0318e-05 4.311e-05 

ComTab rank 0: 0 837 0 369 0 453 0 15 
ComTab rank 1: 803 0 415 61 0 297 0 0 
ComTab rank 2: 0 389 0 135 0 0 0 299 
ComTab rank 3: 352 62 133 0 0 0 258 0 
ComTab rank 4: 0 0 0 0 0 616 0 47 
ComTab rank 5: 450 276 0 0 629 0 0 110 
ComTab rank 6: 0 0 0 245 0 0 0 21 
ComTab rank 7: 15 0 297 0 46 122 21 0 

Edge-cut: 6220

Wgt-cut: 6.20087e-08

[1578657466.430745] [srl-mds1:1979 :0]          mpool.c:38   UCX  WARN  object 0x55555d908ac0 was not returned to mpool ucp_am_bufs
[1578657466.444609] [srl-mds1:1978 :0]          mpool.c:38   UCX  WARN  object 0x155544c70f60 was not returned to mpool mm_recv_desc
[1578657466.445374] [srl-mds1:1980 :0]          mpool.c:38   UCX  WARN  object 0x155544c6ce60 was not returned to mpool mm_recv_desc
[1578657466.446300] [srl-mds1:1976 :0]          mpool.c:38   UCX  WARN  object 0x55555ca3c880 was not returned to mpool ucp_am_bufs
[1578657466.446423] [srl-mds1:1981 :0]          mpool.c:38   UCX  WARN  object 0x55555d9083c0 was not returned to mpool ucp_am_bufs
[1578657466.446645] [srl-mds1:1982 :0]          mpool.c:38   UCX  WARN  object 0x155544c6eee0 was not returned to mpool mm_recv_desc
[1578657466.446974] [srl-mds1:1977 :0]          mpool.c:38   UCX  WARN  object 0x155544c6ade0 was not returned to mpool mm_recv_desc
