 Data for JOB [21198,1] offset 0 Total slots allocated 2

 ========================   JOB MAP   ========================

 Data for node: n004	Num slots: 2	Max slots: 0	Num procs: 2
 	Process OMPI jobid: [21198,1] App: 0 Process rank: 0 Bound: socket 1[core 33[hwt 0-1]]:[../../../../../../../../../../../../../../../../../../../../../../../../../../../../../../../..][../BB/../../../../../../../../../../../../../../../../../../../../../../../../../../../../../..]
 	Process OMPI jobid: [21198,1] App: 0 Process rank: 1 Bound: socket 1[core 34[hwt 0-1]]:[../../../../../../../../../../../../../../../../../../../../../../../../../../../../../../../..][../../BB/../../../../../../../../../../../../../../../../../../../../../../../../../../../../..]

 =============================================================
dune-size 1 5.927e-06 5.9248e-06 
dune-size 2 5.56041e-06 5.55911e-06 
dune-size 4 5.86911e-06 5.86901e-06 
dune-size 8 6.51611e-06 6.51481e-06 
dune-size 16 7.2433e-06 7.2451e-06 
dune-size 32 9.02541e-06 9.02461e-06 
dune-size 64 9.04861e-06 9.04861e-06 
dune-size 128 9.01891e-06 9.01971e-06 
dune-size 256 1.50279e-05 1.50276e-05 
dune-size 512 2.77549e-05 2.77555e-05 
dune-size 1024 5.6159e-05 5.61556e-05 
dune-size 2048 0.000107308 0.000107307 
dune-size 4096 0.000209506 0.000209503 
dune-size 8192 0.000409515 0.000409529 
dune-size 16384 0.000792265 0.0007922 
dune-size 32768 0.00155319 0.00155312 
dune-size 65536 0.00312994 0.00312941 
dune-size 131072 0.00628737 0.00628716 
dune-size 262144 0.0126038 0.0126048 
dune-size 524288 0.0252462 0.0252461 
dune-size 1048576 0.0506329 0.0506331 
