 Data for JOB [21171,1] offset 0 Total slots allocated 4

 ========================   JOB MAP   ========================

 Data for node: n004	Num slots: 4	Max slots: 0	Num procs: 4
 	Process OMPI jobid: [21171,1] App: 0 Process rank: 0 Bound: socket 1[core 32[hwt 0-1]]:[../../../../../../../../../../../../../../../../../../../../../../../../../../../../../../../..][BB/../../../../../../../../../../../../../../../../../../../../../../../../../../../../../../..]
 	Process OMPI jobid: [21171,1] App: 0 Process rank: 1 Bound: socket 1[core 40[hwt 0-1]]:[../../../../../../../../../../../../../../../../../../../../../../../../../../../../../../../..][../../../../../../../../BB/../../../../../../../../../../../../../../../../../../../../../../..]
 	Process OMPI jobid: [21171,1] App: 0 Process rank: 2 Bound: socket 1[core 48[hwt 0-1]]:[../../../../../../../../../../../../../../../../../../../../../../../../../../../../../../../..][../../../../../../../../../../../../../../../../BB/../../../../../../../../../../../../../../..]
 	Process OMPI jobid: [21171,1] App: 0 Process rank: 3 Bound: socket 1[core 56[hwt 0-1]]:[../../../../../../../../../../../../../../../../../../../../../../../../../../../../../../../..][../../../../../../../../../../../../../../../../../../../../../../../../BB/../../../../../../..]

 =============================================================
[1579610193.382846] [n004:21439:0]         mxm.c:196  MXM  WARN  The 'ulimit -s' on the system is set to 'unlimited'. This may have negative performance implications. Please set the stack size to the default value (10240) 
[1579610193.382963] [n004:21442:0]         mxm.c:196  MXM  WARN  The 'ulimit -s' on the system is set to 'unlimited'. This may have negative performance implications. Please set the stack size to the default value (10240) 
[1579610193.383305] [n004:21441:0]         mxm.c:196  MXM  WARN  The 'ulimit -s' on the system is set to 'unlimited'. This may have negative performance implications. Please set the stack size to the default value (10240) 
[1579610193.383463] [n004:21440:0]         mxm.c:196  MXM  WARN  The 'ulimit -s' on the system is set to 'unlimited'. This may have negative performance implications. Please set the stack size to the default value (10240) 
0: 1 

Rank 0 ghostCells: 21015
Rank 1 ghostCells: 12650
Rank 2 ghostCells: 7285
Rank 3 ghostCells: 15733

Rank 0 numCells: 108160
Rank 1 numCells: 109869
Rank 2 numCells: 99270
Rank 3 numCells: 94791

Rank 0 interiorCells: 87145
Rank 1 interiorCells: 97219
Rank 2 interiorCells: 91985
Rank 3 interiorCells: 79058

MeasComm+1 4: 0.00116162 0.000900453 0.000725942 0.000886153 
MeasComm+1 4: 0.00116231 0.000901583 0.000729592 0.000985814 
MeasComm+1 4: 0.00116584 0.000910523 0.000727413 0.000962213 
MeasComm+1 4: 0.00116394 0.000913004 0.000726953 0.000985374 
MeasComm+1 4: 0.00116685 0.000959073 0.000729793 0.000936713 
MeasComm+1 4: 0.00116481 0.000960033 0.000729273 0.000985044 
MeasComm+1 4: 0.00116559 0.000903953 0.000728282 0.000893213 
MeasComm+1 4: 0.00116534 0.000945993 0.000728602 0.000985583 
MeasComm+1 4: 0.00116356 0.000908623 0.000728613 0.000984234 
MeasComm+1 4: 0.00116363 0.000943863 0.000728453 0.000902113 

MeasCopy 4: 0.000986183 0.000593532 0.000341791 0.000738202 
MeasCopy 4: 0.000986333 0.000593122 0.000341701 0.000738213 
MeasCopy 4: 0.000986594 0.000593712 0.000341641 0.000738102 
MeasCopy 4: 0.000986153 0.000593242 0.000341671 0.000738193 
MeasCopy 4: 0.000986163 0.000593262 0.000341711 0.000737732 
MeasCopy 4: 0.000986093 0.000593102 0.000341641 0.000738053 
MeasCopy 4: 0.000986254 0.000593532 0.000341621 0.000738292 
MeasCopy 4: 0.000986143 0.000593482 0.000341571 0.000738152 
MeasCopy 4: 0.000986153 0.000593292 0.000341602 0.000738243 
MeasCopy 4: 0.000986323 0.000593382 0.000341781 0.000738382 

ComTab rank 0: 0 9642 3459 8842 
ComTab rank 1: 9952 0 502 6390 
ComTab rank 2: 3025 660 0 3745 
ComTab rank 3: 9461 6413 4046 0 

Edge-cut: 43990

Wgt-cut: 4.17767e-09

[1579610248.630471] [n004:21442:0]          mpool.c:38   UCX  WARN  object 0x55555c192d80 was not returned to mpool ucp_am_bufs
[1579610248.632597] [n004:21440:0]          mpool.c:38   UCX  WARN  object 0x5555628d7f40 was not returned to mpool ucp_am_bufs
[1579610248.632957] [n004:21441:0]          mpool.c:38   UCX  WARN  object 0x55555d560b00 was not returned to mpool ucp_am_bufs
