 Data for JOB [41813,1] offset 0 Total slots allocated 32

 ========================   JOB MAP   ========================

 Data for node: n004	Num slots: 32	Max slots: 0	Num procs: 32
 	Process OMPI jobid: [41813,1] App: 0 Process rank: 0 Bound: socket 1[core 32[hwt 0-1]]:[../../../../../../../../../../../../../../../../../../../../../../../../../../../../../../../..][BB/../../../../../../../../../../../../../../../../../../../../../../../../../../../../../../..]
 	Process OMPI jobid: [41813,1] App: 0 Process rank: 1 Bound: socket 1[core 33[hwt 0-1]]:[../../../../../../../../../../../../../../../../../../../../../../../../../../../../../../../..][../BB/../../../../../../../../../../../../../../../../../../../../../../../../../../../../../..]
 	Process OMPI jobid: [41813,1] App: 0 Process rank: 2 Bound: socket 1[core 34[hwt 0-1]]:[../../../../../../../../../../../../../../../../../../../../../../../../../../../../../../../..][../../BB/../../../../../../../../../../../../../../../../../../../../../../../../../../../../..]
 	Process OMPI jobid: [41813,1] App: 0 Process rank: 3 Bound: socket 1[core 35[hwt 0-1]]:[../../../../../../../../../../../../../../../../../../../../../../../../../../../../../../../..][../../../BB/../../../../../../../../../../../../../../../../../../../../../../../../../../../..]
 	Process OMPI jobid: [41813,1] App: 0 Process rank: 4 Bound: socket 1[core 36[hwt 0-1]]:[../../../../../../../../../../../../../../../../../../../../../../../../../../../../../../../..][../../../../BB/../../../../../../../../../../../../../../../../../../../../../../../../../../..]
 	Process OMPI jobid: [41813,1] App: 0 Process rank: 5 Bound: socket 1[core 37[hwt 0-1]]:[../../../../../../../../../../../../../../../../../../../../../../../../../../../../../../../..][../../../../../BB/../../../../../../../../../../../../../../../../../../../../../../../../../..]
 	Process OMPI jobid: [41813,1] App: 0 Process rank: 6 Bound: socket 1[core 38[hwt 0-1]]:[../../../../../../../../../../../../../../../../../../../../../../../../../../../../../../../..][../../../../../../BB/../../../../../../../../../../../../../../../../../../../../../../../../..]
 	Process OMPI jobid: [41813,1] App: 0 Process rank: 7 Bound: socket 1[core 39[hwt 0-1]]:[../../../../../../../../../../../../../../../../../../../../../../../../../../../../../../../..][../../../../../../../BB/../../../../../../../../../../../../../../../../../../../../../../../..]
 	Process OMPI jobid: [41813,1] App: 0 Process rank: 8 Bound: socket 1[core 40[hwt 0-1]]:[../../../../../../../../../../../../../../../../../../../../../../../../../../../../../../../..][../../../../../../../../BB/../../../../../../../../../../../../../../../../../../../../../../..]
 	Process OMPI jobid: [41813,1] App: 0 Process rank: 9 Bound: socket 1[core 41[hwt 0-1]]:[../../../../../../../../../../../../../../../../../../../../../../../../../../../../../../../..][../../../../../../../../../BB/../../../../../../../../../../../../../../../../../../../../../..]
 	Process OMPI jobid: [41813,1] App: 0 Process rank: 10 Bound: socket 1[core 42[hwt 0-1]]:[../../../../../../../../../../../../../../../../../../../../../../../../../../../../../../../..][../../../../../../../../../../BB/../../../../../../../../../../../../../../../../../../../../..]
 	Process OMPI jobid: [41813,1] App: 0 Process rank: 11 Bound: socket 1[core 43[hwt 0-1]]:[../../../../../../../../../../../../../../../../../../../../../../../../../../../../../../../..][../../../../../../../../../../../BB/../../../../../../../../../../../../../../../../../../../..]
 	Process OMPI jobid: [41813,1] App: 0 Process rank: 12 Bound: socket 1[core 44[hwt 0-1]]:[../../../../../../../../../../../../../../../../../../../../../../../../../../../../../../../..][../../../../../../../../../../../../BB/../../../../../../../../../../../../../../../../../../..]
 	Process OMPI jobid: [41813,1] App: 0 Process rank: 13 Bound: socket 1[core 45[hwt 0-1]]:[../../../../../../../../../../../../../../../../../../../../../../../../../../../../../../../..][../../../../../../../../../../../../../BB/../../../../../../../../../../../../../../../../../..]
 	Process OMPI jobid: [41813,1] App: 0 Process rank: 14 Bound: socket 1[core 46[hwt 0-1]]:[../../../../../../../../../../../../../../../../../../../../../../../../../../../../../../../..][../../../../../../../../../../../../../../BB/../../../../../../../../../../../../../../../../..]
 	Process OMPI jobid: [41813,1] App: 0 Process rank: 15 Bound: socket 1[core 47[hwt 0-1]]:[../../../../../../../../../../../../../../../../../../../../../../../../../../../../../../../..][../../../../../../../../../../../../../../../BB/../../../../../../../../../../../../../../../..]
 	Process OMPI jobid: [41813,1] App: 0 Process rank: 16 Bound: socket 1[core 48[hwt 0-1]]:[../../../../../../../../../../../../../../../../../../../../../../../../../../../../../../../..][../../../../../../../../../../../../../../../../BB/../../../../../../../../../../../../../../..]
 	Process OMPI jobid: [41813,1] App: 0 Process rank: 17 Bound: socket 1[core 49[hwt 0-1]]:[../../../../../../../../../../../../../../../../../../../../../../../../../../../../../../../..][../../../../../../../../../../../../../../../../../BB/../../../../../../../../../../../../../..]
 	Process OMPI jobid: [41813,1] App: 0 Process rank: 18 Bound: socket 1[core 50[hwt 0-1]]:[../../../../../../../../../../../../../../../../../../../../../../../../../../../../../../../..][../../../../../../../../../../../../../../../../../../BB/../../../../../../../../../../../../..]
 	Process OMPI jobid: [41813,1] App: 0 Process rank: 19 Bound: socket 1[core 51[hwt 0-1]]:[../../../../../../../../../../../../../../../../../../../../../../../../../../../../../../../..][../../../../../../../../../../../../../../../../../../../BB/../../../../../../../../../../../..]
 	Process OMPI jobid: [41813,1] App: 0 Process rank: 20 Bound: socket 1[core 52[hwt 0-1]]:[../../../../../../../../../../../../../../../../../../../../../../../../../../../../../../../..][../../../../../../../../../../../../../../../../../../../../BB/../../../../../../../../../../..]
 	Process OMPI jobid: [41813,1] App: 0 Process rank: 21 Bound: socket 1[core 53[hwt 0-1]]:[../../../../../../../../../../../../../../../../../../../../../../../../../../../../../../../..][../../../../../../../../../../../../../../../../../../../../../BB/../../../../../../../../../..]
 	Process OMPI jobid: [41813,1] App: 0 Process rank: 22 Bound: socket 1[core 54[hwt 0-1]]:[../../../../../../../../../../../../../../../../../../../../../../../../../../../../../../../..][../../../../../../../../../../../../../../../../../../../../../../BB/../../../../../../../../..]
 	Process OMPI jobid: [41813,1] App: 0 Process rank: 23 Bound: socket 1[core 55[hwt 0-1]]:[../../../../../../../../../../../../../../../../../../../../../../../../../../../../../../../..][../../../../../../../../../../../../../../../../../../../../../../../BB/../../../../../../../..]
 	Process OMPI jobid: [41813,1] App: 0 Process rank: 24 Bound: socket 1[core 56[hwt 0-1]]:[../../../../../../../../../../../../../../../../../../../../../../../../../../../../../../../..][../../../../../../../../../../../../../../../../../../../../../../../../BB/../../../../../../..]
 	Process OMPI jobid: [41813,1] App: 0 Process rank: 25 Bound: socket 1[core 57[hwt 0-1]]:[../../../../../../../../../../../../../../../../../../../../../../../../../../../../../../../..][../../../../../../../../../../../../../../../../../../../../../../../../../BB/../../../../../..]
 	Process OMPI jobid: [41813,1] App: 0 Process rank: 26 Bound: socket 1[core 58[hwt 0-1]]:[../../../../../../../../../../../../../../../../../../../../../../../../../../../../../../../..][../../../../../../../../../../../../../../../../../../../../../../../../../../BB/../../../../..]
 	Process OMPI jobid: [41813,1] App: 0 Process rank: 27 Bound: socket 1[core 59[hwt 0-1]]:[../../../../../../../../../../../../../../../../../../../../../../../../../../../../../../../..][../../../../../../../../../../../../../../../../../../../../../../../../../../../BB/../../../..]
 	Process OMPI jobid: [41813,1] App: 0 Process rank: 28 Bound: socket 1[core 60[hwt 0-1]]:[../../../../../../../../../../../../../../../../../../../../../../../../../../../../../../../..][../../../../../../../../../../../../../../../../../../../../../../../../../../../../BB/../../..]
 	Process OMPI jobid: [41813,1] App: 0 Process rank: 29 Bound: socket 1[core 61[hwt 0-1]]:[../../../../../../../../../../../../../../../../../../../../../../../../../../../../../../../..][../../../../../../../../../../../../../../../../../../../../../../../../../../../../../BB/../..]
 	Process OMPI jobid: [41813,1] App: 0 Process rank: 30 Bound: socket 1[core 62[hwt 0-1]]:[../../../../../../../../../../../../../../../../../../../../../../../../../../../../../../../..][../../../../../../../../../../../../../../../../../../../../../../../../../../../../../../BB/..]
 	Process OMPI jobid: [41813,1] App: 0 Process rank: 31 Bound: socket 1[core 63[hwt 0-1]]:[../../../../../../../../../../../../../../../../../../../../../../../../../../../../../../../..][../../../../../../../../../../../../../../../../../../../../../../../../../../../../../../../BB]

 =============================================================
Single Size change topo

ComTab Ring rank 0: 0 59520 0 0 0 0 0 0 0 0 0 0 0 0 0 0 0 0 0 0 0 0 0 0 0 0 0 0 0 0 0 0 
ComTab Ring rank 1: 0 0 59520 0 0 0 0 0 0 0 0 0 0 0 0 0 0 0 0 0 0 0 0 0 0 0 0 0 0 0 0 0 
ComTab Ring rank 2: 0 0 0 59520 0 0 0 0 0 0 0 0 0 0 0 0 0 0 0 0 0 0 0 0 0 0 0 0 0 0 0 0 
ComTab Ring rank 3: 0 0 0 0 59520 0 0 0 0 0 0 0 0 0 0 0 0 0 0 0 0 0 0 0 0 0 0 0 0 0 0 0 
ComTab Ring rank 4: 0 0 0 0 0 59520 0 0 0 0 0 0 0 0 0 0 0 0 0 0 0 0 0 0 0 0 0 0 0 0 0 0 
ComTab Ring rank 5: 0 0 0 0 0 0 59520 0 0 0 0 0 0 0 0 0 0 0 0 0 0 0 0 0 0 0 0 0 0 0 0 0 
ComTab Ring rank 6: 0 0 0 0 0 0 0 59520 0 0 0 0 0 0 0 0 0 0 0 0 0 0 0 0 0 0 0 0 0 0 0 0 
ComTab Ring rank 7: 0 0 0 0 0 0 0 0 59520 0 0 0 0 0 0 0 0 0 0 0 0 0 0 0 0 0 0 0 0 0 0 0 
ComTab Ring rank 8: 0 0 0 0 0 0 0 0 0 59520 0 0 0 0 0 0 0 0 0 0 0 0 0 0 0 0 0 0 0 0 0 0 
ComTab Ring rank 9: 0 0 0 0 0 0 0 0 0 0 59520 0 0 0 0 0 0 0 0 0 0 0 0 0 0 0 0 0 0 0 0 0 
ComTab Ring rank 10: 0 0 0 0 0 0 0 0 0 0 0 59520 0 0 0 0 0 0 0 0 0 0 0 0 0 0 0 0 0 0 0 0 
ComTab Ring rank 11: 0 0 0 0 0 0 0 0 0 0 0 0 59520 0 0 0 0 0 0 0 0 0 0 0 0 0 0 0 0 0 0 0 
ComTab Ring rank 12: 0 0 0 0 0 0 0 0 0 0 0 0 0 59520 0 0 0 0 0 0 0 0 0 0 0 0 0 0 0 0 0 0 
ComTab Ring rank 13: 0 0 0 0 0 0 0 0 0 0 0 0 0 0 59520 0 0 0 0 0 0 0 0 0 0 0 0 0 0 0 0 0 
ComTab Ring rank 14: 0 0 0 0 0 0 0 0 0 0 0 0 0 0 0 59520 0 0 0 0 0 0 0 0 0 0 0 0 0 0 0 0 
ComTab Ring rank 15: 0 0 0 0 0 0 0 0 0 0 0 0 0 0 0 0 59520 0 0 0 0 0 0 0 0 0 0 0 0 0 0 0 
ComTab Ring rank 16: 0 0 0 0 0 0 0 0 0 0 0 0 0 0 0 0 0 59520 0 0 0 0 0 0 0 0 0 0 0 0 0 0 
ComTab Ring rank 17: 0 0 0 0 0 0 0 0 0 0 0 0 0 0 0 0 0 0 59520 0 0 0 0 0 0 0 0 0 0 0 0 0 
ComTab Ring rank 18: 0 0 0 0 0 0 0 0 0 0 0 0 0 0 0 0 0 0 0 59520 0 0 0 0 0 0 0 0 0 0 0 0 
ComTab Ring rank 19: 0 0 0 0 0 0 0 0 0 0 0 0 0 0 0 0 0 0 0 0 59520 0 0 0 0 0 0 0 0 0 0 0 
ComTab Ring rank 20: 0 0 0 0 0 0 0 0 0 0 0 0 0 0 0 0 0 0 0 0 0 59520 0 0 0 0 0 0 0 0 0 0 
ComTab Ring rank 21: 0 0 0 0 0 0 0 0 0 0 0 0 0 0 0 0 0 0 0 0 0 0 59520 0 0 0 0 0 0 0 0 0 
ComTab Ring rank 22: 0 0 0 0 0 0 0 0 0 0 0 0 0 0 0 0 0 0 0 0 0 0 0 59520 0 0 0 0 0 0 0 0 
ComTab Ring rank 23: 0 0 0 0 0 0 0 0 0 0 0 0 0 0 0 0 0 0 0 0 0 0 0 0 59520 0 0 0 0 0 0 0 
ComTab Ring rank 24: 0 0 0 0 0 0 0 0 0 0 0 0 0 0 0 0 0 0 0 0 0 0 0 0 0 59520 0 0 0 0 0 0 
ComTab Ring rank 25: 0 0 0 0 0 0 0 0 0 0 0 0 0 0 0 0 0 0 0 0 0 0 0 0 0 0 59520 0 0 0 0 0 
ComTab Ring rank 26: 0 0 0 0 0 0 0 0 0 0 0 0 0 0 0 0 0 0 0 0 0 0 0 0 0 0 0 59520 0 0 0 0 
ComTab Ring rank 27: 0 0 0 0 0 0 0 0 0 0 0 0 0 0 0 0 0 0 0 0 0 0 0 0 0 0 0 0 59520 0 0 0 
ComTab Ring rank 28: 0 0 0 0 0 0 0 0 0 0 0 0 0 0 0 0 0 0 0 0 0 0 0 0 0 0 0 0 0 59520 0 0 
ComTab Ring rank 29: 0 0 0 0 0 0 0 0 0 0 0 0 0 0 0 0 0 0 0 0 0 0 0 0 0 0 0 0 0 0 59520 0 
ComTab Ring rank 30: 0 0 0 0 0 0 0 0 0 0 0 0 0 0 0 0 0 0 0 0 0 0 0 0 0 0 0 0 0 0 0 59520 
ComTab Ring rank 31: 59520 0 0 0 0 0 0 0 0 0 0 0 0 0 0 0 0 0 0 0 0 0 0 0 0 0 0 0 0 0 0 0 


ComTab Pair1 rank 0: 0 59520 0 0 0 0 0 0 0 0 0 0 0 0 0 0 0 0 0 0 0 0 0 0 0 0 0 0 0 0 0 0 
ComTab Pair1 rank 1: 59520 0 0 0 0 0 0 0 0 0 0 0 0 0 0 0 0 0 0 0 0 0 0 0 0 0 0 0 0 0 0 0 
ComTab Pair1 rank 2: 0 0 0 59520 0 0 0 0 0 0 0 0 0 0 0 0 0 0 0 0 0 0 0 0 0 0 0 0 0 0 0 0 
ComTab Pair1 rank 3: 0 0 59520 0 0 0 0 0 0 0 0 0 0 0 0 0 0 0 0 0 0 0 0 0 0 0 0 0 0 0 0 0 
ComTab Pair1 rank 4: 0 0 0 0 0 59520 0 0 0 0 0 0 0 0 0 0 0 0 0 0 0 0 0 0 0 0 0 0 0 0 0 0 
ComTab Pair1 rank 5: 0 0 0 0 59520 0 0 0 0 0 0 0 0 0 0 0 0 0 0 0 0 0 0 0 0 0 0 0 0 0 0 0 
ComTab Pair1 rank 6: 0 0 0 0 0 0 0 59520 0 0 0 0 0 0 0 0 0 0 0 0 0 0 0 0 0 0 0 0 0 0 0 0 
ComTab Pair1 rank 7: 0 0 0 0 0 0 59520 0 0 0 0 0 0 0 0 0 0 0 0 0 0 0 0 0 0 0 0 0 0 0 0 0 
ComTab Pair1 rank 8: 0 0 0 0 0 0 0 0 0 59520 0 0 0 0 0 0 0 0 0 0 0 0 0 0 0 0 0 0 0 0 0 0 
ComTab Pair1 rank 9: 0 0 0 0 0 0 0 0 59520 0 0 0 0 0 0 0 0 0 0 0 0 0 0 0 0 0 0 0 0 0 0 0 
ComTab Pair1 rank 10: 0 0 0 0 0 0 0 0 0 0 0 59520 0 0 0 0 0 0 0 0 0 0 0 0 0 0 0 0 0 0 0 0 
ComTab Pair1 rank 11: 0 0 0 0 0 0 0 0 0 0 59520 0 0 0 0 0 0 0 0 0 0 0 0 0 0 0 0 0 0 0 0 0 
ComTab Pair1 rank 12: 0 0 0 0 0 0 0 0 0 0 0 0 0 59520 0 0 0 0 0 0 0 0 0 0 0 0 0 0 0 0 0 0 
ComTab Pair1 rank 13: 0 0 0 0 0 0 0 0 0 0 0 0 59520 0 0 0 0 0 0 0 0 0 0 0 0 0 0 0 0 0 0 0 
ComTab Pair1 rank 14: 0 0 0 0 0 0 0 0 0 0 0 0 0 0 0 59520 0 0 0 0 0 0 0 0 0 0 0 0 0 0 0 0 
ComTab Pair1 rank 15: 0 0 0 0 0 0 0 0 0 0 0 0 0 0 59520 0 0 0 0 0 0 0 0 0 0 0 0 0 0 0 0 0 
ComTab Pair1 rank 16: 0 0 0 0 0 0 0 0 0 0 0 0 0 0 0 0 0 59520 0 0 0 0 0 0 0 0 0 0 0 0 0 0 
ComTab Pair1 rank 17: 0 0 0 0 0 0 0 0 0 0 0 0 0 0 0 0 59520 0 0 0 0 0 0 0 0 0 0 0 0 0 0 0 
ComTab Pair1 rank 18: 0 0 0 0 0 0 0 0 0 0 0 0 0 0 0 0 0 0 0 59520 0 0 0 0 0 0 0 0 0 0 0 0 
ComTab Pair1 rank 19: 0 0 0 0 0 0 0 0 0 0 0 0 0 0 0 0 0 0 59520 0 0 0 0 0 0 0 0 0 0 0 0 0 
ComTab Pair1 rank 20: 0 0 0 0 0 0 0 0 0 0 0 0 0 0 0 0 0 0 0 0 0 59520 0 0 0 0 0 0 0 0 0 0 
ComTab Pair1 rank 21: 0 0 0 0 0 0 0 0 0 0 0 0 0 0 0 0 0 0 0 0 59520 0 0 0 0 0 0 0 0 0 0 0 
ComTab Pair1 rank 22: 0 0 0 0 0 0 0 0 0 0 0 0 0 0 0 0 0 0 0 0 0 0 0 59520 0 0 0 0 0 0 0 0 
ComTab Pair1 rank 23: 0 0 0 0 0 0 0 0 0 0 0 0 0 0 0 0 0 0 0 0 0 0 59520 0 0 0 0 0 0 0 0 0 
ComTab Pair1 rank 24: 0 0 0 0 0 0 0 0 0 0 0 0 0 0 0 0 0 0 0 0 0 0 0 0 0 59520 0 0 0 0 0 0 
ComTab Pair1 rank 25: 0 0 0 0 0 0 0 0 0 0 0 0 0 0 0 0 0 0 0 0 0 0 0 0 59520 0 0 0 0 0 0 0 
ComTab Pair1 rank 26: 0 0 0 0 0 0 0 0 0 0 0 0 0 0 0 0 0 0 0 0 0 0 0 0 0 0 0 59520 0 0 0 0 
ComTab Pair1 rank 27: 0 0 0 0 0 0 0 0 0 0 0 0 0 0 0 0 0 0 0 0 0 0 0 0 0 0 59520 0 0 0 0 0 
ComTab Pair1 rank 28: 0 0 0 0 0 0 0 0 0 0 0 0 0 0 0 0 0 0 0 0 0 0 0 0 0 0 0 0 0 59520 0 0 
ComTab Pair1 rank 29: 0 0 0 0 0 0 0 0 0 0 0 0 0 0 0 0 0 0 0 0 0 0 0 0 0 0 0 0 59520 0 0 0 
ComTab Pair1 rank 30: 0 0 0 0 0 0 0 0 0 0 0 0 0 0 0 0 0 0 0 0 0 0 0 0 0 0 0 0 0 0 0 59520 
ComTab Pair1 rank 31: 0 0 0 0 0 0 0 0 0 0 0 0 0 0 0 0 0 0 0 0 0 0 0 0 0 0 0 0 0 0 59520 0 


ComTab Pair2 rank 0: 0 0 0 0 0 0 0 0 0 0 0 0 0 0 0 0 59520 0 0 0 0 0 0 0 0 0 0 0 0 0 0 0 
ComTab Pair2 rank 1: 0 0 0 0 0 0 0 0 0 0 0 0 0 0 0 0 0 59520 0 0 0 0 0 0 0 0 0 0 0 0 0 0 
ComTab Pair2 rank 2: 0 0 0 0 0 0 0 0 0 0 0 0 0 0 0 0 0 0 59520 0 0 0 0 0 0 0 0 0 0 0 0 0 
ComTab Pair2 rank 3: 0 0 0 0 0 0 0 0 0 0 0 0 0 0 0 0 0 0 0 59520 0 0 0 0 0 0 0 0 0 0 0 0 
ComTab Pair2 rank 4: 0 0 0 0 0 0 0 0 0 0 0 0 0 0 0 0 0 0 0 0 59520 0 0 0 0 0 0 0 0 0 0 0 
ComTab Pair2 rank 5: 0 0 0 0 0 0 0 0 0 0 0 0 0 0 0 0 0 0 0 0 0 59520 0 0 0 0 0 0 0 0 0 0 
ComTab Pair2 rank 6: 0 0 0 0 0 0 0 0 0 0 0 0 0 0 0 0 0 0 0 0 0 0 59520 0 0 0 0 0 0 0 0 0 
ComTab Pair2 rank 7: 0 0 0 0 0 0 0 0 0 0 0 0 0 0 0 0 0 0 0 0 0 0 0 59520 0 0 0 0 0 0 0 0 
ComTab Pair2 rank 8: 0 0 0 0 0 0 0 0 0 0 0 0 0 0 0 0 0 0 0 0 0 0 0 0 59520 0 0 0 0 0 0 0 
ComTab Pair2 rank 9: 0 0 0 0 0 0 0 0 0 0 0 0 0 0 0 0 0 0 0 0 0 0 0 0 0 59520 0 0 0 0 0 0 
ComTab Pair2 rank 10: 0 0 0 0 0 0 0 0 0 0 0 0 0 0 0 0 0 0 0 0 0 0 0 0 0 0 59520 0 0 0 0 0 
ComTab Pair2 rank 11: 0 0 0 0 0 0 0 0 0 0 0 0 0 0 0 0 0 0 0 0 0 0 0 0 0 0 0 59520 0 0 0 0 
ComTab Pair2 rank 12: 0 0 0 0 0 0 0 0 0 0 0 0 0 0 0 0 0 0 0 0 0 0 0 0 0 0 0 0 59520 0 0 0 
ComTab Pair2 rank 13: 0 0 0 0 0 0 0 0 0 0 0 0 0 0 0 0 0 0 0 0 0 0 0 0 0 0 0 0 0 59520 0 0 
ComTab Pair2 rank 14: 0 0 0 0 0 0 0 0 0 0 0 0 0 0 0 0 0 0 0 0 0 0 0 0 0 0 0 0 0 0 59520 0 
ComTab Pair2 rank 15: 0 0 0 0 0 0 0 0 0 0 0 0 0 0 0 0 0 0 0 0 0 0 0 0 0 0 0 0 0 0 0 59520 
ComTab Pair2 rank 16: 59520 0 0 0 0 0 0 0 0 0 0 0 0 0 0 0 0 0 0 0 0 0 0 0 0 0 0 0 0 0 0 0 
ComTab Pair2 rank 17: 0 59520 0 0 0 0 0 0 0 0 0 0 0 0 0 0 0 0 0 0 0 0 0 0 0 0 0 0 0 0 0 0 
ComTab Pair2 rank 18: 0 0 59520 0 0 0 0 0 0 0 0 0 0 0 0 0 0 0 0 0 0 0 0 0 0 0 0 0 0 0 0 0 
ComTab Pair2 rank 19: 0 0 0 59520 0 0 0 0 0 0 0 0 0 0 0 0 0 0 0 0 0 0 0 0 0 0 0 0 0 0 0 0 
ComTab Pair2 rank 20: 0 0 0 0 59520 0 0 0 0 0 0 0 0 0 0 0 0 0 0 0 0 0 0 0 0 0 0 0 0 0 0 0 
ComTab Pair2 rank 21: 0 0 0 0 0 59520 0 0 0 0 0 0 0 0 0 0 0 0 0 0 0 0 0 0 0 0 0 0 0 0 0 0 
ComTab Pair2 rank 22: 0 0 0 0 0 0 59520 0 0 0 0 0 0 0 0 0 0 0 0 0 0 0 0 0 0 0 0 0 0 0 0 0 
ComTab Pair2 rank 23: 0 0 0 0 0 0 0 59520 0 0 0 0 0 0 0 0 0 0 0 0 0 0 0 0 0 0 0 0 0 0 0 0 
ComTab Pair2 rank 24: 0 0 0 0 0 0 0 0 59520 0 0 0 0 0 0 0 0 0 0 0 0 0 0 0 0 0 0 0 0 0 0 0 
ComTab Pair2 rank 25: 0 0 0 0 0 0 0 0 0 59520 0 0 0 0 0 0 0 0 0 0 0 0 0 0 0 0 0 0 0 0 0 0 
ComTab Pair2 rank 26: 0 0 0 0 0 0 0 0 0 0 59520 0 0 0 0 0 0 0 0 0 0 0 0 0 0 0 0 0 0 0 0 0 
ComTab Pair2 rank 27: 0 0 0 0 0 0 0 0 0 0 0 59520 0 0 0 0 0 0 0 0 0 0 0 0 0 0 0 0 0 0 0 0 
ComTab Pair2 rank 28: 0 0 0 0 0 0 0 0 0 0 0 0 59520 0 0 0 0 0 0 0 0 0 0 0 0 0 0 0 0 0 0 0 
ComTab Pair2 rank 29: 0 0 0 0 0 0 0 0 0 0 0 0 0 59520 0 0 0 0 0 0 0 0 0 0 0 0 0 0 0 0 0 0 
ComTab Pair2 rank 30: 0 0 0 0 0 0 0 0 0 0 0 0 0 0 59520 0 0 0 0 0 0 0 0 0 0 0 0 0 0 0 0 0 
ComTab Pair2 rank 31: 0 0 0 0 0 0 0 0 0 0 0 0 0 0 0 59520 0 0 0 0 0 0 0 0 0 0 0 0 0 0 0 0 


ComTab h1 rank 0: 0 3968 3968 3968 3968 3968 3968 3968 3968 3968 3968 3968 3968 3968 3968 3968 0 0 0 0 0 0 0 0 0 0 0 0 0 0 0 0 
ComTab h1 rank 1: 3968 0 3968 3968 3968 3968 3968 3968 3968 3968 3968 3968 3968 3968 3968 3968 0 0 0 0 0 0 0 0 0 0 0 0 0 0 0 0 
ComTab h1 rank 2: 3968 3968 0 3968 3968 3968 3968 3968 3968 3968 3968 3968 3968 3968 3968 3968 0 0 0 0 0 0 0 0 0 0 0 0 0 0 0 0 
ComTab h1 rank 3: 3968 3968 3968 0 3968 3968 3968 3968 3968 3968 3968 3968 3968 3968 3968 3968 0 0 0 0 0 0 0 0 0 0 0 0 0 0 0 0 
ComTab h1 rank 4: 3968 3968 3968 3968 0 3968 3968 3968 3968 3968 3968 3968 3968 3968 3968 3968 0 0 0 0 0 0 0 0 0 0 0 0 0 0 0 0 
ComTab h1 rank 5: 3968 3968 3968 3968 3968 0 3968 3968 3968 3968 3968 3968 3968 3968 3968 3968 0 0 0 0 0 0 0 0 0 0 0 0 0 0 0 0 
ComTab h1 rank 6: 3968 3968 3968 3968 3968 3968 0 3968 3968 3968 3968 3968 3968 3968 3968 3968 0 0 0 0 0 0 0 0 0 0 0 0 0 0 0 0 
ComTab h1 rank 7: 3968 3968 3968 3968 3968 3968 3968 0 3968 3968 3968 3968 3968 3968 3968 3968 0 0 0 0 0 0 0 0 0 0 0 0 0 0 0 0 
ComTab h1 rank 8: 3968 3968 3968 3968 3968 3968 3968 3968 0 3968 3968 3968 3968 3968 3968 3968 0 0 0 0 0 0 0 0 0 0 0 0 0 0 0 0 
ComTab h1 rank 9: 3968 3968 3968 3968 3968 3968 3968 3968 3968 0 3968 3968 3968 3968 3968 3968 0 0 0 0 0 0 0 0 0 0 0 0 0 0 0 0 
ComTab h1 rank 10: 3968 3968 3968 3968 3968 3968 3968 3968 3968 3968 0 3968 3968 3968 3968 3968 0 0 0 0 0 0 0 0 0 0 0 0 0 0 0 0 
ComTab h1 rank 11: 3968 3968 3968 3968 3968 3968 3968 3968 3968 3968 3968 0 3968 3968 3968 3968 0 0 0 0 0 0 0 0 0 0 0 0 0 0 0 0 
ComTab h1 rank 12: 3968 3968 3968 3968 3968 3968 3968 3968 3968 3968 3968 3968 0 3968 3968 3968 0 0 0 0 0 0 0 0 0 0 0 0 0 0 0 0 
ComTab h1 rank 13: 3968 3968 3968 3968 3968 3968 3968 3968 3968 3968 3968 3968 3968 0 3968 3968 0 0 0 0 0 0 0 0 0 0 0 0 0 0 0 0 
ComTab h1 rank 14: 3968 3968 3968 3968 3968 3968 3968 3968 3968 3968 3968 3968 3968 3968 0 3968 0 0 0 0 0 0 0 0 0 0 0 0 0 0 0 0 
ComTab h1 rank 15: 3968 3968 3968 3968 3968 3968 3968 3968 3968 3968 3968 3968 3968 3968 3968 0 0 0 0 0 0 0 0 0 0 0 0 0 0 0 0 0 
ComTab h1 rank 16: 0 0 0 0 0 0 0 0 0 0 0 0 0 0 0 0 0 3968 3968 3968 3968 3968 3968 3968 3968 3968 3968 3968 3968 3968 3968 3968 
ComTab h1 rank 17: 0 0 0 0 0 0 0 0 0 0 0 0 0 0 0 0 3968 0 3968 3968 3968 3968 3968 3968 3968 3968 3968 3968 3968 3968 3968 3968 
ComTab h1 rank 18: 0 0 0 0 0 0 0 0 0 0 0 0 0 0 0 0 3968 3968 0 3968 3968 3968 3968 3968 3968 3968 3968 3968 3968 3968 3968 3968 
ComTab h1 rank 19: 0 0 0 0 0 0 0 0 0 0 0 0 0 0 0 0 3968 3968 3968 0 3968 3968 3968 3968 3968 3968 3968 3968 3968 3968 3968 3968 
ComTab h1 rank 20: 0 0 0 0 0 0 0 0 0 0 0 0 0 0 0 0 3968 3968 3968 3968 0 3968 3968 3968 3968 3968 3968 3968 3968 3968 3968 3968 
ComTab h1 rank 21: 0 0 0 0 0 0 0 0 0 0 0 0 0 0 0 0 3968 3968 3968 3968 3968 0 3968 3968 3968 3968 3968 3968 3968 3968 3968 3968 
ComTab h1 rank 22: 0 0 0 0 0 0 0 0 0 0 0 0 0 0 0 0 3968 3968 3968 3968 3968 3968 0 3968 3968 3968 3968 3968 3968 3968 3968 3968 
ComTab h1 rank 23: 0 0 0 0 0 0 0 0 0 0 0 0 0 0 0 0 3968 3968 3968 3968 3968 3968 3968 0 3968 3968 3968 3968 3968 3968 3968 3968 
ComTab h1 rank 24: 0 0 0 0 0 0 0 0 0 0 0 0 0 0 0 0 3968 3968 3968 3968 3968 3968 3968 3968 0 3968 3968 3968 3968 3968 3968 3968 
ComTab h1 rank 25: 0 0 0 0 0 0 0 0 0 0 0 0 0 0 0 0 3968 3968 3968 3968 3968 3968 3968 3968 3968 0 3968 3968 3968 3968 3968 3968 
ComTab h1 rank 26: 0 0 0 0 0 0 0 0 0 0 0 0 0 0 0 0 3968 3968 3968 3968 3968 3968 3968 3968 3968 3968 0 3968 3968 3968 3968 3968 
ComTab h1 rank 27: 0 0 0 0 0 0 0 0 0 0 0 0 0 0 0 0 3968 3968 3968 3968 3968 3968 3968 3968 3968 3968 3968 0 3968 3968 3968 3968 
ComTab h1 rank 28: 0 0 0 0 0 0 0 0 0 0 0 0 0 0 0 0 3968 3968 3968 3968 3968 3968 3968 3968 3968 3968 3968 3968 0 3968 3968 3968 
ComTab h1 rank 29: 0 0 0 0 0 0 0 0 0 0 0 0 0 0 0 0 3968 3968 3968 3968 3968 3968 3968 3968 3968 3968 3968 3968 3968 0 3968 3968 
ComTab h1 rank 30: 0 0 0 0 0 0 0 0 0 0 0 0 0 0 0 0 3968 3968 3968 3968 3968 3968 3968 3968 3968 3968 3968 3968 3968 3968 0 3968 
ComTab h1 rank 31: 0 0 0 0 0 0 0 0 0 0 0 0 0 0 0 0 3968 3968 3968 3968 3968 3968 3968 3968 3968 3968 3968 3968 3968 3968 3968 0 


ComTab h2 rank 0: 0 0 0 0 0 0 0 0 0 0 0 0 0 0 0 0 3968 3968 3968 3968 3968 3968 3968 3968 3968 3968 3968 3968 3968 3968 3968 0 
ComTab h2 rank 1: 0 0 0 0 0 0 0 0 0 0 0 0 0 0 0 0 0 3968 3968 3968 3968 3968 3968 3968 3968 3968 3968 3968 3968 3968 3968 3968 
ComTab h2 rank 2: 3968 0 0 0 0 0 0 0 0 0 0 0 0 0 0 0 0 0 3968 3968 3968 3968 3968 3968 3968 3968 3968 3968 3968 3968 3968 3968 
ComTab h2 rank 3: 3968 3968 0 0 0 0 0 0 0 0 0 0 0 0 0 0 0 0 0 3968 3968 3968 3968 3968 3968 3968 3968 3968 3968 3968 3968 3968 
ComTab h2 rank 4: 3968 3968 3968 0 0 0 0 0 0 0 0 0 0 0 0 0 0 0 0 0 3968 3968 3968 3968 3968 3968 3968 3968 3968 3968 3968 3968 
ComTab h2 rank 5: 3968 3968 3968 3968 0 0 0 0 0 0 0 0 0 0 0 0 0 0 0 0 0 3968 3968 3968 3968 3968 3968 3968 3968 3968 3968 3968 
ComTab h2 rank 6: 3968 3968 3968 3968 3968 0 0 0 0 0 0 0 0 0 0 0 0 0 0 0 0 0 3968 3968 3968 3968 3968 3968 3968 3968 3968 3968 
ComTab h2 rank 7: 3968 3968 3968 3968 3968 3968 0 0 0 0 0 0 0 0 0 0 0 0 0 0 0 0 0 3968 3968 3968 3968 3968 3968 3968 3968 3968 
ComTab h2 rank 8: 3968 3968 3968 3968 3968 3968 3968 0 0 0 0 0 0 0 0 0 0 0 0 0 0 0 0 0 3968 3968 3968 3968 3968 3968 3968 3968 
ComTab h2 rank 9: 3968 3968 3968 3968 3968 3968 3968 3968 0 0 0 0 0 0 0 0 0 0 0 0 0 0 0 0 0 3968 3968 3968 3968 3968 3968 3968 
ComTab h2 rank 10: 3968 3968 3968 3968 3968 3968 3968 3968 3968 0 0 0 0 0 0 0 0 0 0 0 0 0 0 0 0 0 3968 3968 3968 3968 3968 3968 
ComTab h2 rank 11: 3968 3968 3968 3968 3968 3968 3968 3968 3968 3968 0 0 0 0 0 0 0 0 0 0 0 0 0 0 0 0 0 3968 3968 3968 3968 3968 
ComTab h2 rank 12: 3968 3968 3968 3968 3968 3968 3968 3968 3968 3968 3968 0 0 0 0 0 0 0 0 0 0 0 0 0 0 0 0 0 3968 3968 3968 3968 
ComTab h2 rank 13: 3968 3968 3968 3968 3968 3968 3968 3968 3968 3968 3968 3968 0 0 0 0 0 0 0 0 0 0 0 0 0 0 0 0 0 3968 3968 3968 
ComTab h2 rank 14: 3968 3968 3968 3968 3968 3968 3968 3968 3968 3968 3968 3968 3968 0 0 0 0 0 0 0 0 0 0 0 0 0 0 0 0 0 3968 3968 
ComTab h2 rank 15: 3968 3968 3968 3968 3968 3968 3968 3968 3968 3968 3968 3968 3968 3968 0 0 0 0 0 0 0 0 0 0 0 0 0 0 0 0 0 3968 
ComTab h2 rank 16: 3968 3968 3968 3968 3968 3968 3968 3968 3968 3968 3968 3968 3968 3968 3968 0 0 0 0 0 0 0 0 0 0 0 0 0 0 0 0 0 
ComTab h2 rank 17: 0 3968 3968 3968 3968 3968 3968 3968 3968 3968 3968 3968 3968 3968 3968 3968 0 0 0 0 0 0 0 0 0 0 0 0 0 0 0 0 
ComTab h2 rank 18: 0 0 3968 3968 3968 3968 3968 3968 3968 3968 3968 3968 3968 3968 3968 3968 3968 0 0 0 0 0 0 0 0 0 0 0 0 0 0 0 
ComTab h2 rank 19: 0 0 0 3968 3968 3968 3968 3968 3968 3968 3968 3968 3968 3968 3968 3968 3968 3968 0 0 0 0 0 0 0 0 0 0 0 0 0 0 
ComTab h2 rank 20: 0 0 0 0 3968 3968 3968 3968 3968 3968 3968 3968 3968 3968 3968 3968 3968 3968 3968 0 0 0 0 0 0 0 0 0 0 0 0 0 
ComTab h2 rank 21: 0 0 0 0 0 3968 3968 3968 3968 3968 3968 3968 3968 3968 3968 3968 3968 3968 3968 3968 0 0 0 0 0 0 0 0 0 0 0 0 
ComTab h2 rank 22: 0 0 0 0 0 0 3968 3968 3968 3968 3968 3968 3968 3968 3968 3968 3968 3968 3968 3968 3968 0 0 0 0 0 0 0 0 0 0 0 
ComTab h2 rank 23: 0 0 0 0 0 0 0 3968 3968 3968 3968 3968 3968 3968 3968 3968 3968 3968 3968 3968 3968 3968 0 0 0 0 0 0 0 0 0 0 
ComTab h2 rank 24: 0 0 0 0 0 0 0 0 3968 3968 3968 3968 3968 3968 3968 3968 3968 3968 3968 3968 3968 3968 3968 0 0 0 0 0 0 0 0 0 
ComTab h2 rank 25: 0 0 0 0 0 0 0 0 0 3968 3968 3968 3968 3968 3968 3968 3968 3968 3968 3968 3968 3968 3968 3968 0 0 0 0 0 0 0 0 
ComTab h2 rank 26: 0 0 0 0 0 0 0 0 0 0 3968 3968 3968 3968 3968 3968 3968 3968 3968 3968 3968 3968 3968 3968 3968 0 0 0 0 0 0 0 
ComTab h2 rank 27: 0 0 0 0 0 0 0 0 0 0 0 3968 3968 3968 3968 3968 3968 3968 3968 3968 3968 3968 3968 3968 3968 3968 0 0 0 0 0 0 
ComTab h2 rank 28: 0 0 0 0 0 0 0 0 0 0 0 0 3968 3968 3968 3968 3968 3968 3968 3968 3968 3968 3968 3968 3968 3968 3968 0 0 0 0 0 
ComTab h2 rank 29: 0 0 0 0 0 0 0 0 0 0 0 0 0 3968 3968 3968 3968 3968 3968 3968 3968 3968 3968 3968 3968 3968 3968 3968 0 0 0 0 
ComTab h2 rank 30: 0 0 0 0 0 0 0 0 0 0 0 0 0 0 3968 3968 3968 3968 3968 3968 3968 3968 3968 3968 3968 3968 3968 3968 3968 0 0 0 
ComTab h2 rank 31: 0 0 0 0 0 0 0 0 0 0 0 0 0 0 0 3968 3968 3968 3968 3968 3968 3968 3968 3968 3968 3968 3968 3968 3968 3968 0 0 


ComTab a2a rank 0: 0 1920 1920 1920 1920 1920 1920 1920 1920 1920 1920 1920 1920 1920 1920 1920 1920 1920 1920 1920 1920 1920 1920 1920 1920 1920 1920 1920 1920 1920 1920 1920 
ComTab a2a rank 1: 1920 0 1920 1920 1920 1920 1920 1920 1920 1920 1920 1920 1920 1920 1920 1920 1920 1920 1920 1920 1920 1920 1920 1920 1920 1920 1920 1920 1920 1920 1920 1920 
ComTab a2a rank 2: 1920 1920 0 1920 1920 1920 1920 1920 1920 1920 1920 1920 1920 1920 1920 1920 1920 1920 1920 1920 1920 1920 1920 1920 1920 1920 1920 1920 1920 1920 1920 1920 
ComTab a2a rank 3: 1920 1920 1920 0 1920 1920 1920 1920 1920 1920 1920 1920 1920 1920 1920 1920 1920 1920 1920 1920 1920 1920 1920 1920 1920 1920 1920 1920 1920 1920 1920 1920 
ComTab a2a rank 4: 1920 1920 1920 1920 0 1920 1920 1920 1920 1920 1920 1920 1920 1920 1920 1920 1920 1920 1920 1920 1920 1920 1920 1920 1920 1920 1920 1920 1920 1920 1920 1920 
ComTab a2a rank 5: 1920 1920 1920 1920 1920 0 1920 1920 1920 1920 1920 1920 1920 1920 1920 1920 1920 1920 1920 1920 1920 1920 1920 1920 1920 1920 1920 1920 1920 1920 1920 1920 
ComTab a2a rank 6: 1920 1920 1920 1920 1920 1920 0 1920 1920 1920 1920 1920 1920 1920 1920 1920 1920 1920 1920 1920 1920 1920 1920 1920 1920 1920 1920 1920 1920 1920 1920 1920 
ComTab a2a rank 7: 1920 1920 1920 1920 1920 1920 1920 0 1920 1920 1920 1920 1920 1920 1920 1920 1920 1920 1920 1920 1920 1920 1920 1920 1920 1920 1920 1920 1920 1920 1920 1920 
ComTab a2a rank 8: 1920 1920 1920 1920 1920 1920 1920 1920 0 1920 1920 1920 1920 1920 1920 1920 1920 1920 1920 1920 1920 1920 1920 1920 1920 1920 1920 1920 1920 1920 1920 1920 
ComTab a2a rank 9: 1920 1920 1920 1920 1920 1920 1920 1920 1920 0 1920 1920 1920 1920 1920 1920 1920 1920 1920 1920 1920 1920 1920 1920 1920 1920 1920 1920 1920 1920 1920 1920 
ComTab a2a rank 10: 1920 1920 1920 1920 1920 1920 1920 1920 1920 1920 0 1920 1920 1920 1920 1920 1920 1920 1920 1920 1920 1920 1920 1920 1920 1920 1920 1920 1920 1920 1920 1920 
ComTab a2a rank 11: 1920 1920 1920 1920 1920 1920 1920 1920 1920 1920 1920 0 1920 1920 1920 1920 1920 1920 1920 1920 1920 1920 1920 1920 1920 1920 1920 1920 1920 1920 1920 1920 
ComTab a2a rank 12: 1920 1920 1920 1920 1920 1920 1920 1920 1920 1920 1920 1920 0 1920 1920 1920 1920 1920 1920 1920 1920 1920 1920 1920 1920 1920 1920 1920 1920 1920 1920 1920 
ComTab a2a rank 13: 1920 1920 1920 1920 1920 1920 1920 1920 1920 1920 1920 1920 1920 0 1920 1920 1920 1920 1920 1920 1920 1920 1920 1920 1920 1920 1920 1920 1920 1920 1920 1920 
ComTab a2a rank 14: 1920 1920 1920 1920 1920 1920 1920 1920 1920 1920 1920 1920 1920 1920 0 1920 1920 1920 1920 1920 1920 1920 1920 1920 1920 1920 1920 1920 1920 1920 1920 1920 
ComTab a2a rank 15: 1920 1920 1920 1920 1920 1920 1920 1920 1920 1920 1920 1920 1920 1920 1920 0 1920 1920 1920 1920 1920 1920 1920 1920 1920 1920 1920 1920 1920 1920 1920 1920 
ComTab a2a rank 16: 1920 1920 1920 1920 1920 1920 1920 1920 1920 1920 1920 1920 1920 1920 1920 1920 0 1920 1920 1920 1920 1920 1920 1920 1920 1920 1920 1920 1920 1920 1920 1920 
ComTab a2a rank 17: 1920 1920 1920 1920 1920 1920 1920 1920 1920 1920 1920 1920 1920 1920 1920 1920 1920 0 1920 1920 1920 1920 1920 1920 1920 1920 1920 1920 1920 1920 1920 1920 
ComTab a2a rank 18: 1920 1920 1920 1920 1920 1920 1920 1920 1920 1920 1920 1920 1920 1920 1920 1920 1920 1920 0 1920 1920 1920 1920 1920 1920 1920 1920 1920 1920 1920 1920 1920 
ComTab a2a rank 19: 1920 1920 1920 1920 1920 1920 1920 1920 1920 1920 1920 1920 1920 1920 1920 1920 1920 1920 1920 0 1920 1920 1920 1920 1920 1920 1920 1920 1920 1920 1920 1920 
ComTab a2a rank 20: 1920 1920 1920 1920 1920 1920 1920 1920 1920 1920 1920 1920 1920 1920 1920 1920 1920 1920 1920 1920 0 1920 1920 1920 1920 1920 1920 1920 1920 1920 1920 1920 
ComTab a2a rank 21: 1920 1920 1920 1920 1920 1920 1920 1920 1920 1920 1920 1920 1920 1920 1920 1920 1920 1920 1920 1920 1920 0 1920 1920 1920 1920 1920 1920 1920 1920 1920 1920 
ComTab a2a rank 22: 1920 1920 1920 1920 1920 1920 1920 1920 1920 1920 1920 1920 1920 1920 1920 1920 1920 1920 1920 1920 1920 1920 0 1920 1920 1920 1920 1920 1920 1920 1920 1920 
ComTab a2a rank 23: 1920 1920 1920 1920 1920 1920 1920 1920 1920 1920 1920 1920 1920 1920 1920 1920 1920 1920 1920 1920 1920 1920 1920 0 1920 1920 1920 1920 1920 1920 1920 1920 
ComTab a2a rank 24: 1920 1920 1920 1920 1920 1920 1920 1920 1920 1920 1920 1920 1920 1920 1920 1920 1920 1920 1920 1920 1920 1920 1920 1920 0 1920 1920 1920 1920 1920 1920 1920 
ComTab a2a rank 25: 1920 1920 1920 1920 1920 1920 1920 1920 1920 1920 1920 1920 1920 1920 1920 1920 1920 1920 1920 1920 1920 1920 1920 1920 1920 0 1920 1920 1920 1920 1920 1920 
ComTab a2a rank 26: 1920 1920 1920 1920 1920 1920 1920 1920 1920 1920 1920 1920 1920 1920 1920 1920 1920 1920 1920 1920 1920 1920 1920 1920 1920 1920 0 1920 1920 1920 1920 1920 
ComTab a2a rank 27: 1920 1920 1920 1920 1920 1920 1920 1920 1920 1920 1920 1920 1920 1920 1920 1920 1920 1920 1920 1920 1920 1920 1920 1920 1920 1920 1920 0 1920 1920 1920 1920 
ComTab a2a rank 28: 1920 1920 1920 1920 1920 1920 1920 1920 1920 1920 1920 1920 1920 1920 1920 1920 1920 1920 1920 1920 1920 1920 1920 1920 1920 1920 1920 1920 0 1920 1920 1920 
ComTab a2a rank 29: 1920 1920 1920 1920 1920 1920 1920 1920 1920 1920 1920 1920 1920 1920 1920 1920 1920 1920 1920 1920 1920 1920 1920 1920 1920 1920 1920 1920 1920 0 1920 1920 
ComTab a2a rank 30: 1920 1920 1920 1920 1920 1920 1920 1920 1920 1920 1920 1920 1920 1920 1920 1920 1920 1920 1920 1920 1920 1920 1920 1920 1920 1920 1920 1920 1920 1920 0 1920 
ComTab a2a rank 31: 1920 1920 1920 1920 1920 1920 1920 1920 1920 1920 1920 1920 1920 1920 1920 1920 1920 1920 1920 1920 1920 1920 1920 1920 1920 1920 1920 1920 1920 1920 1920 0 

dune-size 59520-1.1 0.00389619 0.00384389 0.00383955 0.00371563 0.00376322 0.00385897 0.00403352 0.0041743 0.00427158 0.00430718 0.00437747 0.00447623 0.00457353 0.00457698 0.00429825 0.00383316 0.00383106 0.00377786 0.00382244 0.00386784 0.0039667 0.00417683 0.00421936 0.00398885 0.00420238 0.00430748 0.0044158 0.00433425 0.0043368 0.00420828 0.00380007 0.00404908 
dune-size 59520-1.2 0.0030891 0.00308802 0.00308785 0.00308788 0.00291518 0.00291522 0.00307408 0.00307441 0.00297333 0.00297279 0.00298631 0.00298547 0.00293857 0.00293857 0.00298136 0.00298016 0.00297521 0.00297493 0.00298959 0.00298974 0.00298194 0.00298143 0.00308286 0.00308305 0.00295517 0.00295511 0.00320755 0.00320622 0.00293269 0.0029318 0.00300928 0.00300914 
dune-size 59520-1.3 0.00303172 0.00315456 0.00308476 0.00314825 0.00315321 0.00318386 0.00305205 0.00316667 0.00318998 0.00312974 0.00309617 0.00301736 0.00316973 0.0031474 0.00311683 0.00312605 0.00303134 0.00315441 0.00308523 0.00314781 0.00315329 0.00318393 0.00305213 0.00316788 0.0031751 0.00312676 0.00309225 0.00301765 0.00316257 0.00314932 0.00311187 0.00311901 
dune-size 3968-15 0.00319497 0.00318695 0.00319848 0.00318809 0.00319588 0.00318724 0.00318898 0.0031976 0.0031907 0.00319931 0.00318985 0.00319155 0.00319242 0.00319674 0.0031941 0.00319327 0.00320037 0.00319857 0.0031966 0.00319682 0.00319658 0.00320447 0.00320199 0.00319749 0.00320201 0.00319936 0.00320275 0.00320673 0.0032058 0.00320786 0.003207 0.00320398 
dune-size 3968-15.5 0.00316915 0.00316476 0.00316826 0.00317179 0.00317267 0.00317047 0.00316624 0.00316895 0.00317532 0.00317307 0.0031696 0.00316537 0.00317681 0.00316539 0.00316539 0.00317334 0.00316718 0.00316542 0.00317156 0.00316927 0.00317804 0.00316807 0.00317089 0.00316737 0.00317529 0.00316653 0.00317004 0.00317705 0.00317355 0.00316565 0.00317444 0.00317619 
dune-size 1920-31 0.003347 0.0033365 0.00333964 0.00334097 0.00333697 0.00333742 0.0033426 0.00334346 0.0033439 0.00333874 0.00333833 0.00334215 0.00334302 0.00334477 0.00334173 0.00335064 0.0033452 0.00333919 0.00334432 0.00335016 0.00334789 0.00334877 0.00334609 0.00333786 0.00334835 0.00334655 0.00334567 0.00334973 0.00334924 0.00334054 0.0033401 0.00334746 

ComTab Ring rank 0: 0 238080 0 0 0 0 0 0 0 0 0 0 0 0 0 0 0 0 0 0 0 0 0 0 0 0 0 0 0 0 0 0 
ComTab Ring rank 1: 0 0 238080 0 0 0 0 0 0 0 0 0 0 0 0 0 0 0 0 0 0 0 0 0 0 0 0 0 0 0 0 0 
ComTab Ring rank 2: 0 0 0 238080 0 0 0 0 0 0 0 0 0 0 0 0 0 0 0 0 0 0 0 0 0 0 0 0 0 0 0 0 
ComTab Ring rank 3: 0 0 0 0 238080 0 0 0 0 0 0 0 0 0 0 0 0 0 0 0 0 0 0 0 0 0 0 0 0 0 0 0 
ComTab Ring rank 4: 0 0 0 0 0 238080 0 0 0 0 0 0 0 0 0 0 0 0 0 0 0 0 0 0 0 0 0 0 0 0 0 0 
ComTab Ring rank 5: 0 0 0 0 0 0 238080 0 0 0 0 0 0 0 0 0 0 0 0 0 0 0 0 0 0 0 0 0 0 0 0 0 
ComTab Ring rank 6: 0 0 0 0 0 0 0 238080 0 0 0 0 0 0 0 0 0 0 0 0 0 0 0 0 0 0 0 0 0 0 0 0 
ComTab Ring rank 7: 0 0 0 0 0 0 0 0 238080 0 0 0 0 0 0 0 0 0 0 0 0 0 0 0 0 0 0 0 0 0 0 0 
ComTab Ring rank 8: 0 0 0 0 0 0 0 0 0 238080 0 0 0 0 0 0 0 0 0 0 0 0 0 0 0 0 0 0 0 0 0 0 
ComTab Ring rank 9: 0 0 0 0 0 0 0 0 0 0 238080 0 0 0 0 0 0 0 0 0 0 0 0 0 0 0 0 0 0 0 0 0 
ComTab Ring rank 10: 0 0 0 0 0 0 0 0 0 0 0 238080 0 0 0 0 0 0 0 0 0 0 0 0 0 0 0 0 0 0 0 0 
ComTab Ring rank 11: 0 0 0 0 0 0 0 0 0 0 0 0 238080 0 0 0 0 0 0 0 0 0 0 0 0 0 0 0 0 0 0 0 
ComTab Ring rank 12: 0 0 0 0 0 0 0 0 0 0 0 0 0 238080 0 0 0 0 0 0 0 0 0 0 0 0 0 0 0 0 0 0 
ComTab Ring rank 13: 0 0 0 0 0 0 0 0 0 0 0 0 0 0 238080 0 0 0 0 0 0 0 0 0 0 0 0 0 0 0 0 0 
ComTab Ring rank 14: 0 0 0 0 0 0 0 0 0 0 0 0 0 0 0 238080 0 0 0 0 0 0 0 0 0 0 0 0 0 0 0 0 
ComTab Ring rank 15: 0 0 0 0 0 0 0 0 0 0 0 0 0 0 0 0 238080 0 0 0 0 0 0 0 0 0 0 0 0 0 0 0 
ComTab Ring rank 16: 0 0 0 0 0 0 0 0 0 0 0 0 0 0 0 0 0 238080 0 0 0 0 0 0 0 0 0 0 0 0 0 0 
ComTab Ring rank 17: 0 0 0 0 0 0 0 0 0 0 0 0 0 0 0 0 0 0 238080 0 0 0 0 0 0 0 0 0 0 0 0 0 
ComTab Ring rank 18: 0 0 0 0 0 0 0 0 0 0 0 0 0 0 0 0 0 0 0 238080 0 0 0 0 0 0 0 0 0 0 0 0 
ComTab Ring rank 19: 0 0 0 0 0 0 0 0 0 0 0 0 0 0 0 0 0 0 0 0 238080 0 0 0 0 0 0 0 0 0 0 0 
ComTab Ring rank 20: 0 0 0 0 0 0 0 0 0 0 0 0 0 0 0 0 0 0 0 0 0 238080 0 0 0 0 0 0 0 0 0 0 
ComTab Ring rank 21: 0 0 0 0 0 0 0 0 0 0 0 0 0 0 0 0 0 0 0 0 0 0 238080 0 0 0 0 0 0 0 0 0 
ComTab Ring rank 22: 0 0 0 0 0 0 0 0 0 0 0 0 0 0 0 0 0 0 0 0 0 0 0 238080 0 0 0 0 0 0 0 0 
ComTab Ring rank 23: 0 0 0 0 0 0 0 0 0 0 0 0 0 0 0 0 0 0 0 0 0 0 0 0 238080 0 0 0 0 0 0 0 
ComTab Ring rank 24: 0 0 0 0 0 0 0 0 0 0 0 0 0 0 0 0 0 0 0 0 0 0 0 0 0 238080 0 0 0 0 0 0 
ComTab Ring rank 25: 0 0 0 0 0 0 0 0 0 0 0 0 0 0 0 0 0 0 0 0 0 0 0 0 0 0 238080 0 0 0 0 0 
ComTab Ring rank 26: 0 0 0 0 0 0 0 0 0 0 0 0 0 0 0 0 0 0 0 0 0 0 0 0 0 0 0 238080 0 0 0 0 
ComTab Ring rank 27: 0 0 0 0 0 0 0 0 0 0 0 0 0 0 0 0 0 0 0 0 0 0 0 0 0 0 0 0 238080 0 0 0 
ComTab Ring rank 28: 0 0 0 0 0 0 0 0 0 0 0 0 0 0 0 0 0 0 0 0 0 0 0 0 0 0 0 0 0 238080 0 0 
ComTab Ring rank 29: 0 0 0 0 0 0 0 0 0 0 0 0 0 0 0 0 0 0 0 0 0 0 0 0 0 0 0 0 0 0 238080 0 
ComTab Ring rank 30: 0 0 0 0 0 0 0 0 0 0 0 0 0 0 0 0 0 0 0 0 0 0 0 0 0 0 0 0 0 0 0 238080 
ComTab Ring rank 31: 238080 0 0 0 0 0 0 0 0 0 0 0 0 0 0 0 0 0 0 0 0 0 0 0 0 0 0 0 0 0 0 0 


ComTab Pair1 rank 0: 0 238080 0 0 0 0 0 0 0 0 0 0 0 0 0 0 0 0 0 0 0 0 0 0 0 0 0 0 0 0 0 0 
ComTab Pair1 rank 1: 238080 0 0 0 0 0 0 0 0 0 0 0 0 0 0 0 0 0 0 0 0 0 0 0 0 0 0 0 0 0 0 0 
ComTab Pair1 rank 2: 0 0 0 238080 0 0 0 0 0 0 0 0 0 0 0 0 0 0 0 0 0 0 0 0 0 0 0 0 0 0 0 0 
ComTab Pair1 rank 3: 0 0 238080 0 0 0 0 0 0 0 0 0 0 0 0 0 0 0 0 0 0 0 0 0 0 0 0 0 0 0 0 0 
ComTab Pair1 rank 4: 0 0 0 0 0 238080 0 0 0 0 0 0 0 0 0 0 0 0 0 0 0 0 0 0 0 0 0 0 0 0 0 0 
ComTab Pair1 rank 5: 0 0 0 0 238080 0 0 0 0 0 0 0 0 0 0 0 0 0 0 0 0 0 0 0 0 0 0 0 0 0 0 0 
ComTab Pair1 rank 6: 0 0 0 0 0 0 0 238080 0 0 0 0 0 0 0 0 0 0 0 0 0 0 0 0 0 0 0 0 0 0 0 0 
ComTab Pair1 rank 7: 0 0 0 0 0 0 238080 0 0 0 0 0 0 0 0 0 0 0 0 0 0 0 0 0 0 0 0 0 0 0 0 0 
ComTab Pair1 rank 8: 0 0 0 0 0 0 0 0 0 238080 0 0 0 0 0 0 0 0 0 0 0 0 0 0 0 0 0 0 0 0 0 0 
ComTab Pair1 rank 9: 0 0 0 0 0 0 0 0 238080 0 0 0 0 0 0 0 0 0 0 0 0 0 0 0 0 0 0 0 0 0 0 0 
ComTab Pair1 rank 10: 0 0 0 0 0 0 0 0 0 0 0 238080 0 0 0 0 0 0 0 0 0 0 0 0 0 0 0 0 0 0 0 0 
ComTab Pair1 rank 11: 0 0 0 0 0 0 0 0 0 0 238080 0 0 0 0 0 0 0 0 0 0 0 0 0 0 0 0 0 0 0 0 0 
ComTab Pair1 rank 12: 0 0 0 0 0 0 0 0 0 0 0 0 0 238080 0 0 0 0 0 0 0 0 0 0 0 0 0 0 0 0 0 0 
ComTab Pair1 rank 13: 0 0 0 0 0 0 0 0 0 0 0 0 238080 0 0 0 0 0 0 0 0 0 0 0 0 0 0 0 0 0 0 0 
ComTab Pair1 rank 14: 0 0 0 0 0 0 0 0 0 0 0 0 0 0 0 238080 0 0 0 0 0 0 0 0 0 0 0 0 0 0 0 0 
ComTab Pair1 rank 15: 0 0 0 0 0 0 0 0 0 0 0 0 0 0 238080 0 0 0 0 0 0 0 0 0 0 0 0 0 0 0 0 0 
ComTab Pair1 rank 16: 0 0 0 0 0 0 0 0 0 0 0 0 0 0 0 0 0 238080 0 0 0 0 0 0 0 0 0 0 0 0 0 0 
ComTab Pair1 rank 17: 0 0 0 0 0 0 0 0 0 0 0 0 0 0 0 0 238080 0 0 0 0 0 0 0 0 0 0 0 0 0 0 0 
ComTab Pair1 rank 18: 0 0 0 0 0 0 0 0 0 0 0 0 0 0 0 0 0 0 0 238080 0 0 0 0 0 0 0 0 0 0 0 0 
ComTab Pair1 rank 19: 0 0 0 0 0 0 0 0 0 0 0 0 0 0 0 0 0 0 238080 0 0 0 0 0 0 0 0 0 0 0 0 0 
ComTab Pair1 rank 20: 0 0 0 0 0 0 0 0 0 0 0 0 0 0 0 0 0 0 0 0 0 238080 0 0 0 0 0 0 0 0 0 0 
ComTab Pair1 rank 21: 0 0 0 0 0 0 0 0 0 0 0 0 0 0 0 0 0 0 0 0 238080 0 0 0 0 0 0 0 0 0 0 0 
ComTab Pair1 rank 22: 0 0 0 0 0 0 0 0 0 0 0 0 0 0 0 0 0 0 0 0 0 0 0 238080 0 0 0 0 0 0 0 0 
ComTab Pair1 rank 23: 0 0 0 0 0 0 0 0 0 0 0 0 0 0 0 0 0 0 0 0 0 0 238080 0 0 0 0 0 0 0 0 0 
ComTab Pair1 rank 24: 0 0 0 0 0 0 0 0 0 0 0 0 0 0 0 0 0 0 0 0 0 0 0 0 0 238080 0 0 0 0 0 0 
ComTab Pair1 rank 25: 0 0 0 0 0 0 0 0 0 0 0 0 0 0 0 0 0 0 0 0 0 0 0 0 238080 0 0 0 0 0 0 0 
ComTab Pair1 rank 26: 0 0 0 0 0 0 0 0 0 0 0 0 0 0 0 0 0 0 0 0 0 0 0 0 0 0 0 238080 0 0 0 0 
ComTab Pair1 rank 27: 0 0 0 0 0 0 0 0 0 0 0 0 0 0 0 0 0 0 0 0 0 0 0 0 0 0 238080 0 0 0 0 0 
ComTab Pair1 rank 28: 0 0 0 0 0 0 0 0 0 0 0 0 0 0 0 0 0 0 0 0 0 0 0 0 0 0 0 0 0 238080 0 0 
ComTab Pair1 rank 29: 0 0 0 0 0 0 0 0 0 0 0 0 0 0 0 0 0 0 0 0 0 0 0 0 0 0 0 0 238080 0 0 0 
ComTab Pair1 rank 30: 0 0 0 0 0 0 0 0 0 0 0 0 0 0 0 0 0 0 0 0 0 0 0 0 0 0 0 0 0 0 0 238080 
ComTab Pair1 rank 31: 0 0 0 0 0 0 0 0 0 0 0 0 0 0 0 0 0 0 0 0 0 0 0 0 0 0 0 0 0 0 238080 0 


ComTab Pair2 rank 0: 0 0 0 0 0 0 0 0 0 0 0 0 0 0 0 0 238080 0 0 0 0 0 0 0 0 0 0 0 0 0 0 0 
ComTab Pair2 rank 1: 0 0 0 0 0 0 0 0 0 0 0 0 0 0 0 0 0 238080 0 0 0 0 0 0 0 0 0 0 0 0 0 0 
ComTab Pair2 rank 2: 0 0 0 0 0 0 0 0 0 0 0 0 0 0 0 0 0 0 238080 0 0 0 0 0 0 0 0 0 0 0 0 0 
ComTab Pair2 rank 3: 0 0 0 0 0 0 0 0 0 0 0 0 0 0 0 0 0 0 0 238080 0 0 0 0 0 0 0 0 0 0 0 0 
ComTab Pair2 rank 4: 0 0 0 0 0 0 0 0 0 0 0 0 0 0 0 0 0 0 0 0 238080 0 0 0 0 0 0 0 0 0 0 0 
ComTab Pair2 rank 5: 0 0 0 0 0 0 0 0 0 0 0 0 0 0 0 0 0 0 0 0 0 238080 0 0 0 0 0 0 0 0 0 0 
ComTab Pair2 rank 6: 0 0 0 0 0 0 0 0 0 0 0 0 0 0 0 0 0 0 0 0 0 0 238080 0 0 0 0 0 0 0 0 0 
ComTab Pair2 rank 7: 0 0 0 0 0 0 0 0 0 0 0 0 0 0 0 0 0 0 0 0 0 0 0 238080 0 0 0 0 0 0 0 0 
ComTab Pair2 rank 8: 0 0 0 0 0 0 0 0 0 0 0 0 0 0 0 0 0 0 0 0 0 0 0 0 238080 0 0 0 0 0 0 0 
ComTab Pair2 rank 9: 0 0 0 0 0 0 0 0 0 0 0 0 0 0 0 0 0 0 0 0 0 0 0 0 0 238080 0 0 0 0 0 0 
ComTab Pair2 rank 10: 0 0 0 0 0 0 0 0 0 0 0 0 0 0 0 0 0 0 0 0 0 0 0 0 0 0 238080 0 0 0 0 0 
ComTab Pair2 rank 11: 0 0 0 0 0 0 0 0 0 0 0 0 0 0 0 0 0 0 0 0 0 0 0 0 0 0 0 238080 0 0 0 0 
ComTab Pair2 rank 12: 0 0 0 0 0 0 0 0 0 0 0 0 0 0 0 0 0 0 0 0 0 0 0 0 0 0 0 0 238080 0 0 0 
ComTab Pair2 rank 13: 0 0 0 0 0 0 0 0 0 0 0 0 0 0 0 0 0 0 0 0 0 0 0 0 0 0 0 0 0 238080 0 0 
ComTab Pair2 rank 14: 0 0 0 0 0 0 0 0 0 0 0 0 0 0 0 0 0 0 0 0 0 0 0 0 0 0 0 0 0 0 238080 0 
ComTab Pair2 rank 15: 0 0 0 0 0 0 0 0 0 0 0 0 0 0 0 0 0 0 0 0 0 0 0 0 0 0 0 0 0 0 0 238080 
ComTab Pair2 rank 16: 238080 0 0 0 0 0 0 0 0 0 0 0 0 0 0 0 0 0 0 0 0 0 0 0 0 0 0 0 0 0 0 0 
ComTab Pair2 rank 17: 0 238080 0 0 0 0 0 0 0 0 0 0 0 0 0 0 0 0 0 0 0 0 0 0 0 0 0 0 0 0 0 0 
ComTab Pair2 rank 18: 0 0 238080 0 0 0 0 0 0 0 0 0 0 0 0 0 0 0 0 0 0 0 0 0 0 0 0 0 0 0 0 0 
ComTab Pair2 rank 19: 0 0 0 238080 0 0 0 0 0 0 0 0 0 0 0 0 0 0 0 0 0 0 0 0 0 0 0 0 0 0 0 0 
ComTab Pair2 rank 20: 0 0 0 0 238080 0 0 0 0 0 0 0 0 0 0 0 0 0 0 0 0 0 0 0 0 0 0 0 0 0 0 0 
ComTab Pair2 rank 21: 0 0 0 0 0 238080 0 0 0 0 0 0 0 0 0 0 0 0 0 0 0 0 0 0 0 0 0 0 0 0 0 0 
ComTab Pair2 rank 22: 0 0 0 0 0 0 238080 0 0 0 0 0 0 0 0 0 0 0 0 0 0 0 0 0 0 0 0 0 0 0 0 0 
ComTab Pair2 rank 23: 0 0 0 0 0 0 0 238080 0 0 0 0 0 0 0 0 0 0 0 0 0 0 0 0 0 0 0 0 0 0 0 0 
ComTab Pair2 rank 24: 0 0 0 0 0 0 0 0 238080 0 0 0 0 0 0 0 0 0 0 0 0 0 0 0 0 0 0 0 0 0 0 0 
ComTab Pair2 rank 25: 0 0 0 0 0 0 0 0 0 238080 0 0 0 0 0 0 0 0 0 0 0 0 0 0 0 0 0 0 0 0 0 0 
ComTab Pair2 rank 26: 0 0 0 0 0 0 0 0 0 0 238080 0 0 0 0 0 0 0 0 0 0 0 0 0 0 0 0 0 0 0 0 0 
ComTab Pair2 rank 27: 0 0 0 0 0 0 0 0 0 0 0 238080 0 0 0 0 0 0 0 0 0 0 0 0 0 0 0 0 0 0 0 0 
ComTab Pair2 rank 28: 0 0 0 0 0 0 0 0 0 0 0 0 238080 0 0 0 0 0 0 0 0 0 0 0 0 0 0 0 0 0 0 0 
ComTab Pair2 rank 29: 0 0 0 0 0 0 0 0 0 0 0 0 0 238080 0 0 0 0 0 0 0 0 0 0 0 0 0 0 0 0 0 0 
ComTab Pair2 rank 30: 0 0 0 0 0 0 0 0 0 0 0 0 0 0 238080 0 0 0 0 0 0 0 0 0 0 0 0 0 0 0 0 0 
ComTab Pair2 rank 31: 0 0 0 0 0 0 0 0 0 0 0 0 0 0 0 238080 0 0 0 0 0 0 0 0 0 0 0 0 0 0 0 0 


ComTab h1 rank 0: 0 15872 15872 15872 15872 15872 15872 15872 15872 15872 15872 15872 15872 15872 15872 15872 0 0 0 0 0 0 0 0 0 0 0 0 0 0 0 0 
ComTab h1 rank 1: 15872 0 15872 15872 15872 15872 15872 15872 15872 15872 15872 15872 15872 15872 15872 15872 0 0 0 0 0 0 0 0 0 0 0 0 0 0 0 0 
ComTab h1 rank 2: 15872 15872 0 15872 15872 15872 15872 15872 15872 15872 15872 15872 15872 15872 15872 15872 0 0 0 0 0 0 0 0 0 0 0 0 0 0 0 0 
ComTab h1 rank 3: 15872 15872 15872 0 15872 15872 15872 15872 15872 15872 15872 15872 15872 15872 15872 15872 0 0 0 0 0 0 0 0 0 0 0 0 0 0 0 0 
ComTab h1 rank 4: 15872 15872 15872 15872 0 15872 15872 15872 15872 15872 15872 15872 15872 15872 15872 15872 0 0 0 0 0 0 0 0 0 0 0 0 0 0 0 0 
ComTab h1 rank 5: 15872 15872 15872 15872 15872 0 15872 15872 15872 15872 15872 15872 15872 15872 15872 15872 0 0 0 0 0 0 0 0 0 0 0 0 0 0 0 0 
ComTab h1 rank 6: 15872 15872 15872 15872 15872 15872 0 15872 15872 15872 15872 15872 15872 15872 15872 15872 0 0 0 0 0 0 0 0 0 0 0 0 0 0 0 0 
ComTab h1 rank 7: 15872 15872 15872 15872 15872 15872 15872 0 15872 15872 15872 15872 15872 15872 15872 15872 0 0 0 0 0 0 0 0 0 0 0 0 0 0 0 0 
ComTab h1 rank 8: 15872 15872 15872 15872 15872 15872 15872 15872 0 15872 15872 15872 15872 15872 15872 15872 0 0 0 0 0 0 0 0 0 0 0 0 0 0 0 0 
ComTab h1 rank 9: 15872 15872 15872 15872 15872 15872 15872 15872 15872 0 15872 15872 15872 15872 15872 15872 0 0 0 0 0 0 0 0 0 0 0 0 0 0 0 0 
ComTab h1 rank 10: 15872 15872 15872 15872 15872 15872 15872 15872 15872 15872 0 15872 15872 15872 15872 15872 0 0 0 0 0 0 0 0 0 0 0 0 0 0 0 0 
ComTab h1 rank 11: 15872 15872 15872 15872 15872 15872 15872 15872 15872 15872 15872 0 15872 15872 15872 15872 0 0 0 0 0 0 0 0 0 0 0 0 0 0 0 0 
ComTab h1 rank 12: 15872 15872 15872 15872 15872 15872 15872 15872 15872 15872 15872 15872 0 15872 15872 15872 0 0 0 0 0 0 0 0 0 0 0 0 0 0 0 0 
ComTab h1 rank 13: 15872 15872 15872 15872 15872 15872 15872 15872 15872 15872 15872 15872 15872 0 15872 15872 0 0 0 0 0 0 0 0 0 0 0 0 0 0 0 0 
ComTab h1 rank 14: 15872 15872 15872 15872 15872 15872 15872 15872 15872 15872 15872 15872 15872 15872 0 15872 0 0 0 0 0 0 0 0 0 0 0 0 0 0 0 0 
ComTab h1 rank 15: 15872 15872 15872 15872 15872 15872 15872 15872 15872 15872 15872 15872 15872 15872 15872 0 0 0 0 0 0 0 0 0 0 0 0 0 0 0 0 0 
ComTab h1 rank 16: 0 0 0 0 0 0 0 0 0 0 0 0 0 0 0 0 0 15872 15872 15872 15872 15872 15872 15872 15872 15872 15872 15872 15872 15872 15872 15872 
ComTab h1 rank 17: 0 0 0 0 0 0 0 0 0 0 0 0 0 0 0 0 15872 0 15872 15872 15872 15872 15872 15872 15872 15872 15872 15872 15872 15872 15872 15872 
ComTab h1 rank 18: 0 0 0 0 0 0 0 0 0 0 0 0 0 0 0 0 15872 15872 0 15872 15872 15872 15872 15872 15872 15872 15872 15872 15872 15872 15872 15872 
ComTab h1 rank 19: 0 0 0 0 0 0 0 0 0 0 0 0 0 0 0 0 15872 15872 15872 0 15872 15872 15872 15872 15872 15872 15872 15872 15872 15872 15872 15872 
ComTab h1 rank 20: 0 0 0 0 0 0 0 0 0 0 0 0 0 0 0 0 15872 15872 15872 15872 0 15872 15872 15872 15872 15872 15872 15872 15872 15872 15872 15872 
ComTab h1 rank 21: 0 0 0 0 0 0 0 0 0 0 0 0 0 0 0 0 15872 15872 15872 15872 15872 0 15872 15872 15872 15872 15872 15872 15872 15872 15872 15872 
ComTab h1 rank 22: 0 0 0 0 0 0 0 0 0 0 0 0 0 0 0 0 15872 15872 15872 15872 15872 15872 0 15872 15872 15872 15872 15872 15872 15872 15872 15872 
ComTab h1 rank 23: 0 0 0 0 0 0 0 0 0 0 0 0 0 0 0 0 15872 15872 15872 15872 15872 15872 15872 0 15872 15872 15872 15872 15872 15872 15872 15872 
ComTab h1 rank 24: 0 0 0 0 0 0 0 0 0 0 0 0 0 0 0 0 15872 15872 15872 15872 15872 15872 15872 15872 0 15872 15872 15872 15872 15872 15872 15872 
ComTab h1 rank 25: 0 0 0 0 0 0 0 0 0 0 0 0 0 0 0 0 15872 15872 15872 15872 15872 15872 15872 15872 15872 0 15872 15872 15872 15872 15872 15872 
ComTab h1 rank 26: 0 0 0 0 0 0 0 0 0 0 0 0 0 0 0 0 15872 15872 15872 15872 15872 15872 15872 15872 15872 15872 0 15872 15872 15872 15872 15872 
ComTab h1 rank 27: 0 0 0 0 0 0 0 0 0 0 0 0 0 0 0 0 15872 15872 15872 15872 15872 15872 15872 15872 15872 15872 15872 0 15872 15872 15872 15872 
ComTab h1 rank 28: 0 0 0 0 0 0 0 0 0 0 0 0 0 0 0 0 15872 15872 15872 15872 15872 15872 15872 15872 15872 15872 15872 15872 0 15872 15872 15872 
ComTab h1 rank 29: 0 0 0 0 0 0 0 0 0 0 0 0 0 0 0 0 15872 15872 15872 15872 15872 15872 15872 15872 15872 15872 15872 15872 15872 0 15872 15872 
ComTab h1 rank 30: 0 0 0 0 0 0 0 0 0 0 0 0 0 0 0 0 15872 15872 15872 15872 15872 15872 15872 15872 15872 15872 15872 15872 15872 15872 0 15872 
ComTab h1 rank 31: 0 0 0 0 0 0 0 0 0 0 0 0 0 0 0 0 15872 15872 15872 15872 15872 15872 15872 15872 15872 15872 15872 15872 15872 15872 15872 0 


ComTab h2 rank 0: 0 0 0 0 0 0 0 0 0 0 0 0 0 0 0 0 15872 15872 15872 15872 15872 15872 15872 15872 15872 15872 15872 15872 15872 15872 15872 0 
ComTab h2 rank 1: 0 0 0 0 0 0 0 0 0 0 0 0 0 0 0 0 0 15872 15872 15872 15872 15872 15872 15872 15872 15872 15872 15872 15872 15872 15872 15872 
ComTab h2 rank 2: 15872 0 0 0 0 0 0 0 0 0 0 0 0 0 0 0 0 0 15872 15872 15872 15872 15872 15872 15872 15872 15872 15872 15872 15872 15872 15872 
ComTab h2 rank 3: 15872 15872 0 0 0 0 0 0 0 0 0 0 0 0 0 0 0 0 0 15872 15872 15872 15872 15872 15872 15872 15872 15872 15872 15872 15872 15872 
ComTab h2 rank 4: 15872 15872 15872 0 0 0 0 0 0 0 0 0 0 0 0 0 0 0 0 0 15872 15872 15872 15872 15872 15872 15872 15872 15872 15872 15872 15872 
ComTab h2 rank 5: 15872 15872 15872 15872 0 0 0 0 0 0 0 0 0 0 0 0 0 0 0 0 0 15872 15872 15872 15872 15872 15872 15872 15872 15872 15872 15872 
ComTab h2 rank 6: 15872 15872 15872 15872 15872 0 0 0 0 0 0 0 0 0 0 0 0 0 0 0 0 0 15872 15872 15872 15872 15872 15872 15872 15872 15872 15872 
ComTab h2 rank 7: 15872 15872 15872 15872 15872 15872 0 0 0 0 0 0 0 0 0 0 0 0 0 0 0 0 0 15872 15872 15872 15872 15872 15872 15872 15872 15872 
ComTab h2 rank 8: 15872 15872 15872 15872 15872 15872 15872 0 0 0 0 0 0 0 0 0 0 0 0 0 0 0 0 0 15872 15872 15872 15872 15872 15872 15872 15872 
ComTab h2 rank 9: 15872 15872 15872 15872 15872 15872 15872 15872 0 0 0 0 0 0 0 0 0 0 0 0 0 0 0 0 0 15872 15872 15872 15872 15872 15872 15872 
ComTab h2 rank 10: 15872 15872 15872 15872 15872 15872 15872 15872 15872 0 0 0 0 0 0 0 0 0 0 0 0 0 0 0 0 0 15872 15872 15872 15872 15872 15872 
ComTab h2 rank 11: 15872 15872 15872 15872 15872 15872 15872 15872 15872 15872 0 0 0 0 0 0 0 0 0 0 0 0 0 0 0 0 0 15872 15872 15872 15872 15872 
ComTab h2 rank 12: 15872 15872 15872 15872 15872 15872 15872 15872 15872 15872 15872 0 0 0 0 0 0 0 0 0 0 0 0 0 0 0 0 0 15872 15872 15872 15872 
ComTab h2 rank 13: 15872 15872 15872 15872 15872 15872 15872 15872 15872 15872 15872 15872 0 0 0 0 0 0 0 0 0 0 0 0 0 0 0 0 0 15872 15872 15872 
ComTab h2 rank 14: 15872 15872 15872 15872 15872 15872 15872 15872 15872 15872 15872 15872 15872 0 0 0 0 0 0 0 0 0 0 0 0 0 0 0 0 0 15872 15872 
ComTab h2 rank 15: 15872 15872 15872 15872 15872 15872 15872 15872 15872 15872 15872 15872 15872 15872 0 0 0 0 0 0 0 0 0 0 0 0 0 0 0 0 0 15872 
ComTab h2 rank 16: 15872 15872 15872 15872 15872 15872 15872 15872 15872 15872 15872 15872 15872 15872 15872 0 0 0 0 0 0 0 0 0 0 0 0 0 0 0 0 0 
ComTab h2 rank 17: 0 15872 15872 15872 15872 15872 15872 15872 15872 15872 15872 15872 15872 15872 15872 15872 0 0 0 0 0 0 0 0 0 0 0 0 0 0 0 0 
ComTab h2 rank 18: 0 0 15872 15872 15872 15872 15872 15872 15872 15872 15872 15872 15872 15872 15872 15872 15872 0 0 0 0 0 0 0 0 0 0 0 0 0 0 0 
ComTab h2 rank 19: 0 0 0 15872 15872 15872 15872 15872 15872 15872 15872 15872 15872 15872 15872 15872 15872 15872 0 0 0 0 0 0 0 0 0 0 0 0 0 0 
ComTab h2 rank 20: 0 0 0 0 15872 15872 15872 15872 15872 15872 15872 15872 15872 15872 15872 15872 15872 15872 15872 0 0 0 0 0 0 0 0 0 0 0 0 0 
ComTab h2 rank 21: 0 0 0 0 0 15872 15872 15872 15872 15872 15872 15872 15872 15872 15872 15872 15872 15872 15872 15872 0 0 0 0 0 0 0 0 0 0 0 0 
ComTab h2 rank 22: 0 0 0 0 0 0 15872 15872 15872 15872 15872 15872 15872 15872 15872 15872 15872 15872 15872 15872 15872 0 0 0 0 0 0 0 0 0 0 0 
ComTab h2 rank 23: 0 0 0 0 0 0 0 15872 15872 15872 15872 15872 15872 15872 15872 15872 15872 15872 15872 15872 15872 15872 0 0 0 0 0 0 0 0 0 0 
ComTab h2 rank 24: 0 0 0 0 0 0 0 0 15872 15872 15872 15872 15872 15872 15872 15872 15872 15872 15872 15872 15872 15872 15872 0 0 0 0 0 0 0 0 0 
ComTab h2 rank 25: 0 0 0 0 0 0 0 0 0 15872 15872 15872 15872 15872 15872 15872 15872 15872 15872 15872 15872 15872 15872 15872 0 0 0 0 0 0 0 0 
ComTab h2 rank 26: 0 0 0 0 0 0 0 0 0 0 15872 15872 15872 15872 15872 15872 15872 15872 15872 15872 15872 15872 15872 15872 15872 0 0 0 0 0 0 0 
ComTab h2 rank 27: 0 0 0 0 0 0 0 0 0 0 0 15872 15872 15872 15872 15872 15872 15872 15872 15872 15872 15872 15872 15872 15872 15872 0 0 0 0 0 0 
ComTab h2 rank 28: 0 0 0 0 0 0 0 0 0 0 0 0 15872 15872 15872 15872 15872 15872 15872 15872 15872 15872 15872 15872 15872 15872 15872 0 0 0 0 0 
ComTab h2 rank 29: 0 0 0 0 0 0 0 0 0 0 0 0 0 15872 15872 15872 15872 15872 15872 15872 15872 15872 15872 15872 15872 15872 15872 15872 0 0 0 0 
ComTab h2 rank 30: 0 0 0 0 0 0 0 0 0 0 0 0 0 0 15872 15872 15872 15872 15872 15872 15872 15872 15872 15872 15872 15872 15872 15872 15872 0 0 0 
ComTab h2 rank 31: 0 0 0 0 0 0 0 0 0 0 0 0 0 0 0 15872 15872 15872 15872 15872 15872 15872 15872 15872 15872 15872 15872 15872 15872 15872 0 0 


ComTab a2a rank 0: 0 7680 7680 7680 7680 7680 7680 7680 7680 7680 7680 7680 7680 7680 7680 7680 7680 7680 7680 7680 7680 7680 7680 7680 7680 7680 7680 7680 7680 7680 7680 7680 
ComTab a2a rank 1: 7680 0 7680 7680 7680 7680 7680 7680 7680 7680 7680 7680 7680 7680 7680 7680 7680 7680 7680 7680 7680 7680 7680 7680 7680 7680 7680 7680 7680 7680 7680 7680 
ComTab a2a rank 2: 7680 7680 0 7680 7680 7680 7680 7680 7680 7680 7680 7680 7680 7680 7680 7680 7680 7680 7680 7680 7680 7680 7680 7680 7680 7680 7680 7680 7680 7680 7680 7680 
ComTab a2a rank 3: 7680 7680 7680 0 7680 7680 7680 7680 7680 7680 7680 7680 7680 7680 7680 7680 7680 7680 7680 7680 7680 7680 7680 7680 7680 7680 7680 7680 7680 7680 7680 7680 
ComTab a2a rank 4: 7680 7680 7680 7680 0 7680 7680 7680 7680 7680 7680 7680 7680 7680 7680 7680 7680 7680 7680 7680 7680 7680 7680 7680 7680 7680 7680 7680 7680 7680 7680 7680 
ComTab a2a rank 5: 7680 7680 7680 7680 7680 0 7680 7680 7680 7680 7680 7680 7680 7680 7680 7680 7680 7680 7680 7680 7680 7680 7680 7680 7680 7680 7680 7680 7680 7680 7680 7680 
ComTab a2a rank 6: 7680 7680 7680 7680 7680 7680 0 7680 7680 7680 7680 7680 7680 7680 7680 7680 7680 7680 7680 7680 7680 7680 7680 7680 7680 7680 7680 7680 7680 7680 7680 7680 
ComTab a2a rank 7: 7680 7680 7680 7680 7680 7680 7680 0 7680 7680 7680 7680 7680 7680 7680 7680 7680 7680 7680 7680 7680 7680 7680 7680 7680 7680 7680 7680 7680 7680 7680 7680 
ComTab a2a rank 8: 7680 7680 7680 7680 7680 7680 7680 7680 0 7680 7680 7680 7680 7680 7680 7680 7680 7680 7680 7680 7680 7680 7680 7680 7680 7680 7680 7680 7680 7680 7680 7680 
ComTab a2a rank 9: 7680 7680 7680 7680 7680 7680 7680 7680 7680 0 7680 7680 7680 7680 7680 7680 7680 7680 7680 7680 7680 7680 7680 7680 7680 7680 7680 7680 7680 7680 7680 7680 
ComTab a2a rank 10: 7680 7680 7680 7680 7680 7680 7680 7680 7680 7680 0 7680 7680 7680 7680 7680 7680 7680 7680 7680 7680 7680 7680 7680 7680 7680 7680 7680 7680 7680 7680 7680 
ComTab a2a rank 11: 7680 7680 7680 7680 7680 7680 7680 7680 7680 7680 7680 0 7680 7680 7680 7680 7680 7680 7680 7680 7680 7680 7680 7680 7680 7680 7680 7680 7680 7680 7680 7680 
ComTab a2a rank 12: 7680 7680 7680 7680 7680 7680 7680 7680 7680 7680 7680 7680 0 7680 7680 7680 7680 7680 7680 7680 7680 7680 7680 7680 7680 7680 7680 7680 7680 7680 7680 7680 
ComTab a2a rank 13: 7680 7680 7680 7680 7680 7680 7680 7680 7680 7680 7680 7680 7680 0 7680 7680 7680 7680 7680 7680 7680 7680 7680 7680 7680 7680 7680 7680 7680 7680 7680 7680 
ComTab a2a rank 14: 7680 7680 7680 7680 7680 7680 7680 7680 7680 7680 7680 7680 7680 7680 0 7680 7680 7680 7680 7680 7680 7680 7680 7680 7680 7680 7680 7680 7680 7680 7680 7680 
ComTab a2a rank 15: 7680 7680 7680 7680 7680 7680 7680 7680 7680 7680 7680 7680 7680 7680 7680 0 7680 7680 7680 7680 7680 7680 7680 7680 7680 7680 7680 7680 7680 7680 7680 7680 
ComTab a2a rank 16: 7680 7680 7680 7680 7680 7680 7680 7680 7680 7680 7680 7680 7680 7680 7680 7680 0 7680 7680 7680 7680 7680 7680 7680 7680 7680 7680 7680 7680 7680 7680 7680 
ComTab a2a rank 17: 7680 7680 7680 7680 7680 7680 7680 7680 7680 7680 7680 7680 7680 7680 7680 7680 7680 0 7680 7680 7680 7680 7680 7680 7680 7680 7680 7680 7680 7680 7680 7680 
ComTab a2a rank 18: 7680 7680 7680 7680 7680 7680 7680 7680 7680 7680 7680 7680 7680 7680 7680 7680 7680 7680 0 7680 7680 7680 7680 7680 7680 7680 7680 7680 7680 7680 7680 7680 
ComTab a2a rank 19: 7680 7680 7680 7680 7680 7680 7680 7680 7680 7680 7680 7680 7680 7680 7680 7680 7680 7680 7680 0 7680 7680 7680 7680 7680 7680 7680 7680 7680 7680 7680 7680 
ComTab a2a rank 20: 7680 7680 7680 7680 7680 7680 7680 7680 7680 7680 7680 7680 7680 7680 7680 7680 7680 7680 7680 7680 0 7680 7680 7680 7680 7680 7680 7680 7680 7680 7680 7680 
ComTab a2a rank 21: 7680 7680 7680 7680 7680 7680 7680 7680 7680 7680 7680 7680 7680 7680 7680 7680 7680 7680 7680 7680 7680 0 7680 7680 7680 7680 7680 7680 7680 7680 7680 7680 
ComTab a2a rank 22: 7680 7680 7680 7680 7680 7680 7680 7680 7680 7680 7680 7680 7680 7680 7680 7680 7680 7680 7680 7680 7680 7680 0 7680 7680 7680 7680 7680 7680 7680 7680 7680 
ComTab a2a rank 23: 7680 7680 7680 7680 7680 7680 7680 7680 7680 7680 7680 7680 7680 7680 7680 7680 7680 7680 7680 7680 7680 7680 7680 0 7680 7680 7680 7680 7680 7680 7680 7680 
ComTab a2a rank 24: 7680 7680 7680 7680 7680 7680 7680 7680 7680 7680 7680 7680 7680 7680 7680 7680 7680 7680 7680 7680 7680 7680 7680 7680 0 7680 7680 7680 7680 7680 7680 7680 
ComTab a2a rank 25: 7680 7680 7680 7680 7680 7680 7680 7680 7680 7680 7680 7680 7680 7680 7680 7680 7680 7680 7680 7680 7680 7680 7680 7680 7680 0 7680 7680 7680 7680 7680 7680 
ComTab a2a rank 26: 7680 7680 7680 7680 7680 7680 7680 7680 7680 7680 7680 7680 7680 7680 7680 7680 7680 7680 7680 7680 7680 7680 7680 7680 7680 7680 0 7680 7680 7680 7680 7680 
ComTab a2a rank 27: 7680 7680 7680 7680 7680 7680 7680 7680 7680 7680 7680 7680 7680 7680 7680 7680 7680 7680 7680 7680 7680 7680 7680 7680 7680 7680 7680 0 7680 7680 7680 7680 
ComTab a2a rank 28: 7680 7680 7680 7680 7680 7680 7680 7680 7680 7680 7680 7680 7680 7680 7680 7680 7680 7680 7680 7680 7680 7680 7680 7680 7680 7680 7680 7680 0 7680 7680 7680 
ComTab a2a rank 29: 7680 7680 7680 7680 7680 7680 7680 7680 7680 7680 7680 7680 7680 7680 7680 7680 7680 7680 7680 7680 7680 7680 7680 7680 7680 7680 7680 7680 7680 0 7680 7680 
ComTab a2a rank 30: 7680 7680 7680 7680 7680 7680 7680 7680 7680 7680 7680 7680 7680 7680 7680 7680 7680 7680 7680 7680 7680 7680 7680 7680 7680 7680 7680 7680 7680 7680 0 7680 
ComTab a2a rank 31: 7680 7680 7680 7680 7680 7680 7680 7680 7680 7680 7680 7680 7680 7680 7680 7680 7680 7680 7680 7680 7680 7680 7680 7680 7680 7680 7680 7680 7680 7680 7680 0 

dune-size 238080-1.1 0.0157667 0.0160433 0.01565 0.0158202 0.0159025 0.0157678 0.0153628 0.0153627 0.0155462 0.0158366 0.015746 0.0159541 0.0159567 0.0153577 0.0152398 0.0152958 0.0154554 0.015428 0.0154404 0.0154077 0.015401 0.0152438 0.0152844 0.0153025 0.015428 0.0156768 0.0160184 0.0160735 0.0159347 0.0153726 0.0156005 0.0157527 
dune-size 238080-1.2 0.012142 0.0121434 0.0121234 0.0121257 0.0119982 0.0119941 0.0119988 0.0119986 0.0123887 0.0124022 0.0123895 0.0123911 0.0123388 0.0123394 0.012307 0.0123105 0.0121934 0.0121942 0.0121921 0.0121933 0.01185 0.0118494 0.0119287 0.0119295 0.0118573 0.0118578 0.0119339 0.0119343 0.0117815 0.0117821 0.0120178 0.0120179 
dune-size 238080-1.3 0.0121365 0.0121634 0.0119895 0.0119065 0.012365 0.0122193 0.0123131 0.0123759 0.0123602 0.0124025 0.0123975 0.012046 0.0121583 0.012076 0.0122381 0.011967 0.0121398 0.0121659 0.0119904 0.0119043 0.0123654 0.0122223 0.0123141 0.0123763 0.0123575 0.0123987 0.0123939 0.0120322 0.012149 0.0120618 0.0122321 0.0119584 
dune-size 15872-15 0.0118508 0.0118474 0.0118428 0.0118458 0.0118619 0.0118648 0.0118685 0.0118593 0.0118448 0.0118458 0.0118458 0.0118456 0.0118782 0.0118787 0.0118783 0.0118787 0.0118774 0.0118759 0.0118749 0.0118737 0.0118642 0.0118635 0.0118639 0.0118662 0.0118518 0.0118493 0.0118523 0.0118512 0.0118521 0.0118521 0.0118521 0.0118522 
dune-size 15872-15.5 0.0118585 0.0118896 0.0118582 0.0118856 0.0118611 0.0118628 0.0118608 0.0118584 0.0118772 0.0118851 0.0118786 0.0118778 0.0118581 0.0118583 0.0118598 0.0118592 0.0118891 0.0118859 0.0118868 0.0118878 0.0118598 0.0118589 0.0118617 0.011863 0.0118828 0.0118889 0.0118828 0.0118863 0.0118777 0.0118569 0.0118795 0.0118866 
dune-size 7680-31 0.0121572 0.0121572 0.0121572 0.0121572 0.0121745 0.0121745 0.0121743 0.0121738 0.0121517 0.0121544 0.0121593 0.0121609 0.0121461 0.0121561 0.0121577 0.0121461 0.0121485 0.0121416 0.0121416 0.0121416 0.0121722 0.0121676 0.0121699 0.012168 0.0121807 0.0121789 0.0121789 0.0121791 0.0121394 0.0121395 0.0121389 0.012139 
