 Data for JOB [11233,1] offset 0 Total slots allocated 4

 ========================   JOB MAP   ========================

 Data for node: n003	Num slots: 4	Max slots: 0	Num procs: 4
 	Process OMPI jobid: [11233,1] App: 0 Process rank: 0 Bound: socket 0[core 25[hwt 0-1]]:[../../../../../../../../../../../../../../../../../../../../../../../../../BB/../../../../../..][../../../../../../../../../../../../../../../../../../../../../../../../../../../../../../../..]
 	Process OMPI jobid: [11233,1] App: 0 Process rank: 1 Bound: socket 1[core 35[hwt 0-1]]:[../../../../../../../../../../../../../../../../../../../../../../../../../../../../../../../..][../../../BB/../../../../../../../../../../../../../../../../../../../../../../../../../../../..]
 	Process OMPI jobid: [11233,1] App: 0 Process rank: 2 Bound: socket 1[core 36[hwt 0-1]]:[../../../../../../../../../../../../../../../../../../../../../../../../../../../../../../../..][../../../../BB/../../../../../../../../../../../../../../../../../../../../../../../../../../..]
 	Process OMPI jobid: [11233,1] App: 0 Process rank: 3 Bound: socket 0[core 26[hwt 0-1]]:[../../../../../../../../../../../../../../../../../../../../../../../../../../BB/../../../../..][../../../../../../../../../../../../../../../../../../../../../../../../../../../../../../../..]

 =============================================================
2 3 3
1 0 0
3 2 2
Two group cota
0 1 1
dune-size 1 5.86789e-06 5.58269e-06 5.94539e-06 5.66079e-06 
dune-size 2 5.35869e-06 5.69399e-06 5.38339e-06 5.72159e-06 
dune-size 4 5.49628e-06 5.48739e-06 5.52649e-06 5.51759e-06 
dune-size 8 8.08919e-06 8.09239e-06 8.16189e-06 8.16369e-06 
dune-size 16 6.09899e-06 6.09599e-06 6.15859e-06 6.15429e-06 
dune-size 32 6.87769e-06 6.88269e-06 6.94069e-06 6.94739e-06 
dune-size 64 8.76049e-06 8.75299e-06 8.80849e-06 8.80329e-06 
dune-size 128 1.19896e-05 1.20032e-05 1.19334e-05 1.19357e-05 
dune-size 256 1.91936e-05 1.91853e-05 1.92196e-05 1.92092e-05 
dune-size 512 3.29363e-05 3.29377e-05 3.29485e-05 3.29537e-05 
dune-size 1024 0.000105331 0.000105306 0.00010359 0.000103596 
dune-size 2048 0.000199218 0.000199208 0.000198252 0.000198252 
dune-size 4096 0.000382245 0.000382222 0.000384511 0.000384539 
dune-size 8192 0.000679371 0.000679268 0.000630199 0.000630265 
dune-size 16384 0.00100012 0.00100001 0.000943444 0.000943548 
dune-size 32768 0.00165825 0.00165813 0.00166955 0.00166966 
dune-size 65536 0.00330449 0.00330158 0.00328889 0.00329191 
dune-size 131072 0.00667698 0.00666703 0.00666008 0.00667487 
