 Data for JOB [17561,1] offset 0 Total slots allocated 2

 ========================   JOB MAP   ========================

 Data for node: n004	Num slots: 2	Max slots: 0	Num procs: 2
 	Process OMPI jobid: [17561,1] App: 0 Process rank: 0 Bound: socket 0[core 17[hwt 0-1]]:[../../../../../../../../../../../../../../../../../BB/../../../../../../../../../../../../../..][../../../../../../../../../../../../../../../../../../../../../../../../../../../../../../../..]
 	Process OMPI jobid: [17561,1] App: 0 Process rank: 1 Bound: socket 0[core 2[hwt 0-1]]:[../../BB/../../../../../../../../../../../../../../../../../../../../../../../../../../../../..][../../../../../../../../../../../../../../../../../../../../../../../../../../../../../../../..]

 =============================================================
dune-size 1 8.13611e-06 8.14761e-06 
dune-size 2 7.25201e-06 7.25851e-06 
dune-size 4 7.55831e-06 7.56491e-06 
dune-size 8 8.03591e-06 8.04291e-06 
dune-size 16 8.88631e-06 8.89571e-06 
dune-size 32 7.78011e-06 7.77811e-06 
dune-size 64 1.12152e-05 1.1217e-05 
dune-size 128 1.55278e-05 1.55547e-05 
dune-size 256 1.77735e-05 1.77761e-05 
dune-size 512 3.0556e-05 3.05642e-05 
dune-size 1024 8.60874e-05 8.60576e-05 
dune-size 2048 0.000163024 0.000163 
dune-size 4096 0.000310327 0.000310303 
dune-size 8192 0.000558866 0.00055886 
dune-size 16384 0.000883247 0.000883216 
dune-size 32768 0.0016535 0.00165335 
dune-size 65536 0.00323212 0.00323112 
dune-size 131072 0.00641102 0.00640492 
dune-size 262144 0.0127134 0.0127066 
dune-size 524288 0.0253446 0.0253306 
dune-size 1048576 0.0504039 0.0503815 
