 Data for JOB [11592,1] offset 0 Total slots allocated 4

 ========================   JOB MAP   ========================

 Data for node: n003	Num slots: 4	Max slots: 0	Num procs: 4
 	Process OMPI jobid: [11592,1] App: 0 Process rank: 0 Bound: socket 0[core 25[hwt 0-1]]:[../../../../../../../../../../../../../../../../../../../../../../../../../BB/../../../../../..][../../../../../../../../../../../../../../../../../../../../../../../../../../../../../../../..]
 	Process OMPI jobid: [11592,1] App: 0 Process rank: 1 Bound: socket 0[core 11[hwt 0-1]]:[../../../../../../../../../../../BB/../../../../../../../../../../../../../../../../../../../..][../../../../../../../../../../../../../../../../../../../../../../../../../../../../../../../..]
 	Process OMPI jobid: [11592,1] App: 0 Process rank: 2 Bound: socket 0[core 12[hwt 0-1]]:[../../../../../../../../../../../../BB/../../../../../../../../../../../../../../../../../../..][../../../../../../../../../../../../../../../../../../../../../../../../../../../../../../../..]
 	Process OMPI jobid: [11592,1] App: 0 Process rank: 3 Bound: socket 0[core 26[hwt 0-1]]:[../../../../../../../../../../../../../../../../../../../../../../../../../../BB/../../../../..][../../../../../../../../../../../../../../../../../../../../../../../../../../../../../../../..]

 =============================================================
1 0 0
3 2 2
Two group cota
0 1 1
2 3 3
dune-size 1 4.17209e-06 4.17179e-06 4.20819e-06 4.21029e-06 
dune-size 2 4.02469e-06 4.02709e-06 3.98799e-06 3.99139e-06 
dune-size 4 4.06519e-06 4.06989e-06 4.12879e-06 4.13059e-06 
dune-size 8 4.36009e-06 4.36449e-06 4.38009e-06 4.38559e-06 
dune-size 16 8.61329e-06 8.62049e-06 6.04509e-06 6.03729e-06 
dune-size 32 5.52819e-06 5.52599e-06 5.55489e-06 5.55499e-06 
dune-size 64 7.10939e-06 7.11219e-06 7.16819e-06 7.17009e-06 
dune-size 128 1.03195e-05 1.0317e-05 1.02884e-05 1.02883e-05 
dune-size 256 1.712e-05 1.71207e-05 2.04897e-05 2.04925e-05 
dune-size 512 3.11834e-05 3.11823e-05 3.13775e-05 3.13773e-05 
dune-size 1024 8.54518e-05 8.54427e-05 9.39778e-05 9.41046e-05 
dune-size 2048 0.00017038 0.000170364 0.000193894 0.000193865 
dune-size 4096 0.000303537 0.000303536 0.000315089 0.000315144 
dune-size 8192 0.000532511 0.000532476 0.000534879 0.000534896 
dune-size 16384 0.000907816 0.000907755 0.000877965 0.000878078 
dune-size 32768 0.00162512 0.00162501 0.00161939 0.0016195 
dune-size 65536 0.00323068 0.00322932 0.00322176 0.00322512 
dune-size 131072 0.00669334 0.00668807 0.00645873 0.00646385 
