 Data for JOB [35825,1] offset 0 Total slots allocated 4

 ========================   JOB MAP   ========================

 Data for node: n004	Num slots: 4	Max slots: 0	Num procs: 4
 	Process OMPI jobid: [35825,1] App: 0 Process rank: 0 Bound: socket 1[core 57[hwt 0-1]]:[../../../../../../../../../../../../../../../../../../../../../../../../../../../../../../../..][../../../../../../../../../../../../../../../../../../../../../../../../../BB/../../../../../..]
 	Process OMPI jobid: [35825,1] App: 0 Process rank: 1 Bound: socket 0[core 27[hwt 0-1]]:[../../../../../../../../../../../../../../../../../../../../../../../../../../../BB/../../../..][../../../../../../../../../../../../../../../../../../../../../../../../../../../../../../../..]
 	Process OMPI jobid: [35825,1] App: 0 Process rank: 2 Bound: socket 1[core 58[hwt 0-1]]:[../../../../../../../../../../../../../../../../../../../../../../../../../../../../../../../..][../../../../../../../../../../../../../../../../../../../../../../../../../../BB/../../../../..]
 	Process OMPI jobid: [35825,1] App: 0 Process rank: 3 Bound: socket 0[core 28[hwt 0-1]]:[../../../../../../../../../../../../../../../../../../../../../../../../../../../../BB/../../..][../../../../../../../../../../../../../../../../../../../../../../../../../../../../../../../..]

 =============================================================
2 3 3
Two group cota
0 1 1
1 0 0
3 2 2
dune-size 1 7.32781e-06 7.32521e-06 9.21301e-06 9.20941e-06 
dune-size 2 6.57181e-06 6.57171e-06 6.61871e-06 6.61671e-06 
dune-size 4 6.77601e-06 6.77481e-06 6.83521e-06 6.83181e-06 
dune-size 8 7.51551e-06 7.51071e-06 7.42241e-06 7.41831e-06 
dune-size 16 7.8329e-06 7.8302e-06 7.9086e-06 7.9031e-06 
dune-size 32 9.22291e-06 9.22371e-06 9.14931e-06 9.14931e-06 
dune-size 64 1.18924e-05 1.18773e-05 1.1818e-05 1.18059e-05 
dune-size 128 1.66966e-05 1.6693e-05 1.67479e-05 1.67503e-05 
dune-size 256 1.92709e-05 1.92618e-05 1.95e-05 1.94929e-05 
dune-size 512 3.33159e-05 3.33156e-05 3.37148e-05 3.37093e-05 
dune-size 1024 0.000108656 0.000108648 0.000109551 0.000109553 
dune-size 2048 0.000207663 0.00020767 0.00020599 0.000205972 
dune-size 4096 0.000394206 0.000394193 0.00039198 0.00039197 
dune-size 8192 0.000642392 0.00064237 0.000660097 0.000660061 
dune-size 16384 0.000930133 0.000930064 0.000931467 0.00093147 
dune-size 32768 0.00162331 0.0016232 0.00165501 0.00165494 
dune-size 65536 0.00324371 0.00324178 0.00322494 0.00322366 
dune-size 131072 0.00659415 0.0065839 0.00660601 0.00659484 
