 Data for JOB [7646,1] offset 0 Total slots allocated 4

 ========================   JOB MAP   ========================

 Data for node: n003	Num slots: 4	Max slots: 0	Num procs: 4
 	Process OMPI jobid: [7646,1] App: 0 Process rank: 0 Bound: socket 1[core 57[hwt 0-1]]:[../../../../../../../../../../../../../../../../../../../../../../../../../../../../../../../..][../../../../../../../../../../../../../../../../../../../../../../../../../BB/../../../../../..]
 	Process OMPI jobid: [7646,1] App: 0 Process rank: 1 Bound: socket 1[core 51[hwt 0-1]]:[../../../../../../../../../../../../../../../../../../../../../../../../../../../../../../../..][../../../../../../../../../../../../../../../../../../../BB/../../../../../../../../../../../..]
 	Process OMPI jobid: [7646,1] App: 0 Process rank: 2 Bound: socket 1[core 52[hwt 0-1]]:[../../../../../../../../../../../../../../../../../../../../../../../../../../../../../../../..][../../../../../../../../../../../../../../../../../../../../BB/../../../../../../../../../../..]
 	Process OMPI jobid: [7646,1] App: 0 Process rank: 3 Bound: socket 1[core 58[hwt 0-1]]:[../../../../../../../../../../../../../../../../../../../../../../../../../../../../../../../..][../../../../../../../../../../../../../../../../../../../../../../../../../../BB/../../../../..]

 =============================================================
2 3 3
1 0 0
Two group cota
0 1 1
3 2 2
dune-size 1 4.19869e-06 4.20099e-06 4.20789e-06 4.20509e-06 
dune-size 2 4.05139e-06 4.05239e-06 4.10679e-06 4.10879e-06 
dune-size 4 4.212e-06 4.2679e-06 4.2122e-06 4.2675e-06 
dune-size 8 4.49939e-06 4.50219e-06 4.51909e-06 4.52039e-06 
dune-size 16 6.97299e-06 6.97729e-06 6.89619e-06 6.90089e-06 
dune-size 32 5.57599e-06 5.57919e-06 5.63559e-06 5.63999e-06 
dune-size 64 7.21229e-06 7.20869e-06 7.28439e-06 7.28169e-06 
dune-size 128 1.0391e-05 1.03937e-05 1.0426e-05 1.04265e-05 
dune-size 256 1.72407e-05 1.7242e-05 1.73978e-05 1.73846e-05 
dune-size 512 3.02666e-05 3.02689e-05 3.06428e-05 3.06384e-05 
dune-size 1024 8.64587e-05 8.64582e-05 8.58495e-05 8.58687e-05 
dune-size 2048 0.000159088 0.000159096 0.000159672 0.00015968 
dune-size 4096 0.000309996 0.000310016 0.000310665 0.000310657 
dune-size 8192 0.000564959 0.000564955 0.000552616 0.000552594 
dune-size 16384 0.000861241 0.000861245 0.000863203 0.000863216 
dune-size 32768 0.00161271 0.00161269 0.00162556 0.0016256 
dune-size 65536 0.00327818 0.00327739 0.00327014 0.00327125 
dune-size 131072 0.00658407 0.00658634 0.00658389 0.00658724 
