[1578471122.952249] [srl-mds1:15284:0]         mxm.c:196  MXM  WARN  The 'ulimit -s' on the system is set to 'unlimited'. This may have negative performance implications. Please set the stack size to the default value (10240) 
[1578471122.952247] [srl-mds1:15285:0]         mxm.c:196  MXM  WARN  The 'ulimit -s' on the system is set to 'unlimited'. This may have negative performance implications. Please set the stack size to the default value (10240) 
[1578471122.952540] [srl-mds1:15282:0]         mxm.c:196  MXM  WARN  The 'ulimit -s' on the system is set to 'unlimited'. This may have negative performance implications. Please set the stack size to the default value (10240) 
[1578471122.952549] [srl-mds1:15283:0]         mxm.c:196  MXM  WARN  The 'ulimit -s' on the system is set to 'unlimited'. This may have negative performance implications. Please set the stack size to the default value (10240) 
0: 4 
After loadbalancing process 3 has 11991 cells.
After loadbalancing process 2 has 14089 cells.
After loadbalancing process 0 has 15015 cells.
After loadbalancing process 1 has 13817 cells.

Rank 0 ghostCells: 2800
Rank 1 ghostCells: 3841
Rank 2 ghostCells: 2044
Rank 3 ghostCells: 1796

Rank 0 numCells: 15015
Rank 1 numCells: 13817
Rank 2 numCells: 14089
Rank 3 numCells: 11991

Rank 0 interiorCells: 12215
Rank 1 interiorCells: 9976
Rank 2 interiorCells: 12045
Rank 3 interiorCells: 10195

ComTab rank 0: 0 1786 565 753 
ComTab rank 1: 1933 0 1316 811 
ComTab rank 2: 489 1127 0 679 
ComTab rank 3: 568 657 705 0 

Edge-cut: 8822

Wgt-cut: 2.52833e-09

[1578471126.316192] [srl-mds1:15284:0]          mpool.c:38   UCX  WARN  object 0x55555c339680 was not returned to mpool ucp_am_bufs
[1578471126.316315] [srl-mds1:15283:0]          mpool.c:38   UCX  WARN  object 0x155539500f60 was not returned to mpool mm_recv_desc
[1578471126.316555] [srl-mds1:15285:0]          mpool.c:38   UCX  WARN  object 0x55555c361d40 was not returned to mpool ucp_am_bufs
[1578476404.606283] [srl-mds1:29236:0]         mxm.c:196  MXM  WARN  The 'ulimit -s' on the system is set to 'unlimited'. This may have negative performance implications. Please set the stack size to the default value (10240) 
[1578476404.606399] [srl-mds1:29235:0]         mxm.c:196  MXM  WARN  The 'ulimit -s' on the system is set to 'unlimited'. This may have negative performance implications. Please set the stack size to the default value (10240) 
[1578476404.609088] [srl-mds1:29233:0]         mxm.c:196  MXM  WARN  The 'ulimit -s' on the system is set to 'unlimited'. This may have negative performance implications. Please set the stack size to the default value (10240) 
[1578476404.609084] [srl-mds1:29234:0]         mxm.c:196  MXM  WARN  The 'ulimit -s' on the system is set to 'unlimited'. This may have negative performance implications. Please set the stack size to the default value (10240) 
0: 4 
After loadbalancing process 3 has 10368 cells.
After loadbalancing process 2 has 12677 cells.
After loadbalancing process 0 has 13488 cells.
After loadbalancing process 1 has 14191 cells.

Rank 0 ghostCells: 2015
Rank 1 ghostCells: 2268
Rank 2 ghostCells: 781
Rank 3 ghostCells: 1229

Rank 0 numCells: 13488
Rank 1 numCells: 14191
Rank 2 numCells: 12677
Rank 3 numCells: 10368

Rank 0 interiorCells: 11473
Rank 1 interiorCells: 11923
Rank 2 interiorCells: 11896
Rank 3 interiorCells: 9139

ComTab rank 0: 0 1721 335 39 
ComTab rank 1: 1774 0 172 402 
ComTab rank 2: 313 195 0 340 
ComTab rank 3: 61 587 616 0 

Edge-cut: 5884

Wgt-cut: 2.0082e-09

[1578476408.078634] [srl-mds1:29236:0]          mpool.c:38   UCX  WARN  object 0x5555586cc800 was not returned to mpool ucp_am_bufs
[1578476408.079185] [srl-mds1:29234:0]          mpool.c:38   UCX  WARN  object 0x55555c064f80 was not returned to mpool ucp_am_bufs
[1578476408.079379] [srl-mds1:29235:0]          mpool.c:38   UCX  WARN  object 0x55555c071e80 was not returned to mpool ucp_am_bufs
