 Data for JOB [9581,1] offset 0 Total slots allocated 64

 ========================   JOB MAP   ========================

 Data for node: n003	Num slots: 32	Max slots: 0	Num procs: 32
 	Process OMPI jobid: [9581,1] App: 0 Process rank: 0 Bound: socket 1[core 32[hwt 0-1]]:[../../../../../../../../../../../../../../../../../../../../../../../../../../../../../../../..][BB/../../../../../../../../../../../../../../../../../../../../../../../../../../../../../../..]
 	Process OMPI jobid: [9581,1] App: 0 Process rank: 1 Bound: socket 1[core 33[hwt 0-1]]:[../../../../../../../../../../../../../../../../../../../../../../../../../../../../../../../..][../BB/../../../../../../../../../../../../../../../../../../../../../../../../../../../../../..]
 	Process OMPI jobid: [9581,1] App: 0 Process rank: 2 Bound: socket 1[core 34[hwt 0-1]]:[../../../../../../../../../../../../../../../../../../../../../../../../../../../../../../../..][../../BB/../../../../../../../../../../../../../../../../../../../../../../../../../../../../..]
 	Process OMPI jobid: [9581,1] App: 0 Process rank: 3 Bound: socket 1[core 35[hwt 0-1]]:[../../../../../../../../../../../../../../../../../../../../../../../../../../../../../../../..][../../../BB/../../../../../../../../../../../../../../../../../../../../../../../../../../../..]
 	Process OMPI jobid: [9581,1] App: 0 Process rank: 4 Bound: socket 1[core 36[hwt 0-1]]:[../../../../../../../../../../../../../../../../../../../../../../../../../../../../../../../..][../../../../BB/../../../../../../../../../../../../../../../../../../../../../../../../../../..]
 	Process OMPI jobid: [9581,1] App: 0 Process rank: 5 Bound: socket 1[core 37[hwt 0-1]]:[../../../../../../../../../../../../../../../../../../../../../../../../../../../../../../../..][../../../../../BB/../../../../../../../../../../../../../../../../../../../../../../../../../..]
 	Process OMPI jobid: [9581,1] App: 0 Process rank: 6 Bound: socket 1[core 38[hwt 0-1]]:[../../../../../../../../../../../../../../../../../../../../../../../../../../../../../../../..][../../../../../../BB/../../../../../../../../../../../../../../../../../../../../../../../../..]
 	Process OMPI jobid: [9581,1] App: 0 Process rank: 7 Bound: socket 1[core 39[hwt 0-1]]:[../../../../../../../../../../../../../../../../../../../../../../../../../../../../../../../..][../../../../../../../BB/../../../../../../../../../../../../../../../../../../../../../../../..]
 	Process OMPI jobid: [9581,1] App: 0 Process rank: 8 Bound: socket 1[core 40[hwt 0-1]]:[../../../../../../../../../../../../../../../../../../../../../../../../../../../../../../../..][../../../../../../../../BB/../../../../../../../../../../../../../../../../../../../../../../..]
 	Process OMPI jobid: [9581,1] App: 0 Process rank: 9 Bound: socket 1[core 41[hwt 0-1]]:[../../../../../../../../../../../../../../../../../../../../../../../../../../../../../../../..][../../../../../../../../../BB/../../../../../../../../../../../../../../../../../../../../../..]
 	Process OMPI jobid: [9581,1] App: 0 Process rank: 10 Bound: socket 1[core 42[hwt 0-1]]:[../../../../../../../../../../../../../../../../../../../../../../../../../../../../../../../..][../../../../../../../../../../BB/../../../../../../../../../../../../../../../../../../../../..]
 	Process OMPI jobid: [9581,1] App: 0 Process rank: 11 Bound: socket 1[core 43[hwt 0-1]]:[../../../../../../../../../../../../../../../../../../../../../../../../../../../../../../../..][../../../../../../../../../../../BB/../../../../../../../../../../../../../../../../../../../..]
 	Process OMPI jobid: [9581,1] App: 0 Process rank: 12 Bound: socket 1[core 44[hwt 0-1]]:[../../../../../../../../../../../../../../../../../../../../../../../../../../../../../../../..][../../../../../../../../../../../../BB/../../../../../../../../../../../../../../../../../../..]
 	Process OMPI jobid: [9581,1] App: 0 Process rank: 13 Bound: socket 1[core 45[hwt 0-1]]:[../../../../../../../../../../../../../../../../../../../../../../../../../../../../../../../..][../../../../../../../../../../../../../BB/../../../../../../../../../../../../../../../../../..]
 	Process OMPI jobid: [9581,1] App: 0 Process rank: 14 Bound: socket 1[core 46[hwt 0-1]]:[../../../../../../../../../../../../../../../../../../../../../../../../../../../../../../../..][../../../../../../../../../../../../../../BB/../../../../../../../../../../../../../../../../..]
 	Process OMPI jobid: [9581,1] App: 0 Process rank: 15 Bound: socket 1[core 47[hwt 0-1]]:[../../../../../../../../../../../../../../../../../../../../../../../../../../../../../../../..][../../../../../../../../../../../../../../../BB/../../../../../../../../../../../../../../../..]
 	Process OMPI jobid: [9581,1] App: 0 Process rank: 16 Bound: socket 1[core 48[hwt 0-1]]:[../../../../../../../../../../../../../../../../../../../../../../../../../../../../../../../..][../../../../../../../../../../../../../../../../BB/../../../../../../../../../../../../../../..]
 	Process OMPI jobid: [9581,1] App: 0 Process rank: 17 Bound: socket 1[core 49[hwt 0-1]]:[../../../../../../../../../../../../../../../../../../../../../../../../../../../../../../../..][../../../../../../../../../../../../../../../../../BB/../../../../../../../../../../../../../..]
 	Process OMPI jobid: [9581,1] App: 0 Process rank: 18 Bound: socket 1[core 50[hwt 0-1]]:[../../../../../../../../../../../../../../../../../../../../../../../../../../../../../../../..][../../../../../../../../../../../../../../../../../../BB/../../../../../../../../../../../../..]
 	Process OMPI jobid: [9581,1] App: 0 Process rank: 19 Bound: socket 1[core 51[hwt 0-1]]:[../../../../../../../../../../../../../../../../../../../../../../../../../../../../../../../..][../../../../../../../../../../../../../../../../../../../BB/../../../../../../../../../../../..]
 	Process OMPI jobid: [9581,1] App: 0 Process rank: 20 Bound: socket 1[core 52[hwt 0-1]]:[../../../../../../../../../../../../../../../../../../../../../../../../../../../../../../../..][../../../../../../../../../../../../../../../../../../../../BB/../../../../../../../../../../..]
 	Process OMPI jobid: [9581,1] App: 0 Process rank: 21 Bound: socket 1[core 53[hwt 0-1]]:[../../../../../../../../../../../../../../../../../../../../../../../../../../../../../../../..][../../../../../../../../../../../../../../../../../../../../../BB/../../../../../../../../../..]
 	Process OMPI jobid: [9581,1] App: 0 Process rank: 22 Bound: socket 1[core 54[hwt 0-1]]:[../../../../../../../../../../../../../../../../../../../../../../../../../../../../../../../..][../../../../../../../../../../../../../../../../../../../../../../BB/../../../../../../../../..]
 	Process OMPI jobid: [9581,1] App: 0 Process rank: 23 Bound: socket 1[core 55[hwt 0-1]]:[../../../../../../../../../../../../../../../../../../../../../../../../../../../../../../../..][../../../../../../../../../../../../../../../../../../../../../../../BB/../../../../../../../..]
 	Process OMPI jobid: [9581,1] App: 0 Process rank: 24 Bound: socket 1[core 56[hwt 0-1]]:[../../../../../../../../../../../../../../../../../../../../../../../../../../../../../../../..][../../../../../../../../../../../../../../../../../../../../../../../../BB/../../../../../../..]
 	Process OMPI jobid: [9581,1] App: 0 Process rank: 25 Bound: socket 1[core 57[hwt 0-1]]:[../../../../../../../../../../../../../../../../../../../../../../../../../../../../../../../..][../../../../../../../../../../../../../../../../../../../../../../../../../BB/../../../../../..]
 	Process OMPI jobid: [9581,1] App: 0 Process rank: 26 Bound: socket 1[core 58[hwt 0-1]]:[../../../../../../../../../../../../../../../../../../../../../../../../../../../../../../../..][../../../../../../../../../../../../../../../../../../../../../../../../../../BB/../../../../..]
 	Process OMPI jobid: [9581,1] App: 0 Process rank: 27 Bound: socket 1[core 59[hwt 0-1]]:[../../../../../../../../../../../../../../../../../../../../../../../../../../../../../../../..][../../../../../../../../../../../../../../../../../../../../../../../../../../../BB/../../../..]
 	Process OMPI jobid: [9581,1] App: 0 Process rank: 28 Bound: socket 1[core 60[hwt 0-1]]:[../../../../../../../../../../../../../../../../../../../../../../../../../../../../../../../..][../../../../../../../../../../../../../../../../../../../../../../../../../../../../BB/../../..]
 	Process OMPI jobid: [9581,1] App: 0 Process rank: 29 Bound: socket 1[core 61[hwt 0-1]]:[../../../../../../../../../../../../../../../../../../../../../../../../../../../../../../../..][../../../../../../../../../../../../../../../../../../../../../../../../../../../../../BB/../..]
 	Process OMPI jobid: [9581,1] App: 0 Process rank: 30 Bound: socket 1[core 62[hwt 0-1]]:[../../../../../../../../../../../../../../../../../../../../../../../../../../../../../../../..][../../../../../../../../../../../../../../../../../../../../../../../../../../../../../../BB/..]
 	Process OMPI jobid: [9581,1] App: 0 Process rank: 31 Bound: socket 1[core 63[hwt 0-1]]:[../../../../../../../../../../../../../../../../../../../../../../../../../../../../../../../..][../../../../../../../../../../../../../../../../../../../../../../../../../../../../../../../BB]

 Data for node: n004	Num slots: 32	Max slots: 0	Num procs: 32
 	Process OMPI jobid: [9581,1] App: 0 Process rank: 32 Bound: socket 1[core 32[hwt 0-1]]:[../../../../../../../../../../../../../../../../../../../../../../../../../../../../../../../..][BB/../../../../../../../../../../../../../../../../../../../../../../../../../../../../../../..]
 	Process OMPI jobid: [9581,1] App: 0 Process rank: 33 Bound: socket 1[core 33[hwt 0-1]]:[../../../../../../../../../../../../../../../../../../../../../../../../../../../../../../../..][../BB/../../../../../../../../../../../../../../../../../../../../../../../../../../../../../..]
 	Process OMPI jobid: [9581,1] App: 0 Process rank: 34 Bound: socket 1[core 34[hwt 0-1]]:[../../../../../../../../../../../../../../../../../../../../../../../../../../../../../../../..][../../BB/../../../../../../../../../../../../../../../../../../../../../../../../../../../../..]
 	Process OMPI jobid: [9581,1] App: 0 Process rank: 35 Bound: socket 1[core 35[hwt 0-1]]:[../../../../../../../../../../../../../../../../../../../../../../../../../../../../../../../..][../../../BB/../../../../../../../../../../../../../../../../../../../../../../../../../../../..]
 	Process OMPI jobid: [9581,1] App: 0 Process rank: 36 Bound: socket 1[core 36[hwt 0-1]]:[../../../../../../../../../../../../../../../../../../../../../../../../../../../../../../../..][../../../../BB/../../../../../../../../../../../../../../../../../../../../../../../../../../..]
 	Process OMPI jobid: [9581,1] App: 0 Process rank: 37 Bound: socket 1[core 37[hwt 0-1]]:[../../../../../../../../../../../../../../../../../../../../../../../../../../../../../../../..][../../../../../BB/../../../../../../../../../../../../../../../../../../../../../../../../../..]
 	Process OMPI jobid: [9581,1] App: 0 Process rank: 38 Bound: socket 1[core 38[hwt 0-1]]:[../../../../../../../../../../../../../../../../../../../../../../../../../../../../../../../..][../../../../../../BB/../../../../../../../../../../../../../../../../../../../../../../../../..]
 	Process OMPI jobid: [9581,1] App: 0 Process rank: 39 Bound: socket 1[core 39[hwt 0-1]]:[../../../../../../../../../../../../../../../../../../../../../../../../../../../../../../../..][../../../../../../../BB/../../../../../../../../../../../../../../../../../../../../../../../..]
 	Process OMPI jobid: [9581,1] App: 0 Process rank: 40 Bound: socket 1[core 40[hwt 0-1]]:[../../../../../../../../../../../../../../../../../../../../../../../../../../../../../../../..][../../../../../../../../BB/../../../../../../../../../../../../../../../../../../../../../../..]
 	Process OMPI jobid: [9581,1] App: 0 Process rank: 41 Bound: socket 1[core 41[hwt 0-1]]:[../../../../../../../../../../../../../../../../../../../../../../../../../../../../../../../..][../../../../../../../../../BB/../../../../../../../../../../../../../../../../../../../../../..]
 	Process OMPI jobid: [9581,1] App: 0 Process rank: 42 Bound: socket 1[core 42[hwt 0-1]]:[../../../../../../../../../../../../../../../../../../../../../../../../../../../../../../../..][../../../../../../../../../../BB/../../../../../../../../../../../../../../../../../../../../..]
 	Process OMPI jobid: [9581,1] App: 0 Process rank: 43 Bound: socket 1[core 43[hwt 0-1]]:[../../../../../../../../../../../../../../../../../../../../../../../../../../../../../../../..][../../../../../../../../../../../BB/../../../../../../../../../../../../../../../../../../../..]
 	Process OMPI jobid: [9581,1] App: 0 Process rank: 44 Bound: socket 1[core 44[hwt 0-1]]:[../../../../../../../../../../../../../../../../../../../../../../../../../../../../../../../..][../../../../../../../../../../../../BB/../../../../../../../../../../../../../../../../../../..]
 	Process OMPI jobid: [9581,1] App: 0 Process rank: 45 Bound: socket 1[core 45[hwt 0-1]]:[../../../../../../../../../../../../../../../../../../../../../../../../../../../../../../../..][../../../../../../../../../../../../../BB/../../../../../../../../../../../../../../../../../..]
 	Process OMPI jobid: [9581,1] App: 0 Process rank: 46 Bound: socket 1[core 46[hwt 0-1]]:[../../../../../../../../../../../../../../../../../../../../../../../../../../../../../../../..][../../../../../../../../../../../../../../BB/../../../../../../../../../../../../../../../../..]
 	Process OMPI jobid: [9581,1] App: 0 Process rank: 47 Bound: socket 1[core 47[hwt 0-1]]:[../../../../../../../../../../../../../../../../../../../../../../../../../../../../../../../..][../../../../../../../../../../../../../../../BB/../../../../../../../../../../../../../../../..]
 	Process OMPI jobid: [9581,1] App: 0 Process rank: 48 Bound: socket 1[core 48[hwt 0-1]]:[../../../../../../../../../../../../../../../../../../../../../../../../../../../../../../../..][../../../../../../../../../../../../../../../../BB/../../../../../../../../../../../../../../..]
 	Process OMPI jobid: [9581,1] App: 0 Process rank: 49 Bound: socket 1[core 49[hwt 0-1]]:[../../../../../../../../../../../../../../../../../../../../../../../../../../../../../../../..][../../../../../../../../../../../../../../../../../BB/../../../../../../../../../../../../../..]
 	Process OMPI jobid: [9581,1] App: 0 Process rank: 50 Bound: socket 1[core 50[hwt 0-1]]:[../../../../../../../../../../../../../../../../../../../../../../../../../../../../../../../..][../../../../../../../../../../../../../../../../../../BB/../../../../../../../../../../../../..]
 	Process OMPI jobid: [9581,1] App: 0 Process rank: 51 Bound: socket 1[core 51[hwt 0-1]]:[../../../../../../../../../../../../../../../../../../../../../../../../../../../../../../../..][../../../../../../../../../../../../../../../../../../../BB/../../../../../../../../../../../..]
 	Process OMPI jobid: [9581,1] App: 0 Process rank: 52 Bound: socket 1[core 52[hwt 0-1]]:[../../../../../../../../../../../../../../../../../../../../../../../../../../../../../../../..][../../../../../../../../../../../../../../../../../../../../BB/../../../../../../../../../../..]
 	Process OMPI jobid: [9581,1] App: 0 Process rank: 53 Bound: socket 1[core 53[hwt 0-1]]:[../../../../../../../../../../../../../../../../../../../../../../../../../../../../../../../..][../../../../../../../../../../../../../../../../../../../../../BB/../../../../../../../../../..]
 	Process OMPI jobid: [9581,1] App: 0 Process rank: 54 Bound: socket 1[core 54[hwt 0-1]]:[../../../../../../../../../../../../../../../../../../../../../../../../../../../../../../../..][../../../../../../../../../../../../../../../../../../../../../../BB/../../../../../../../../..]
 	Process OMPI jobid: [9581,1] App: 0 Process rank: 55 Bound: socket 1[core 55[hwt 0-1]]:[../../../../../../../../../../../../../../../../../../../../../../../../../../../../../../../..][../../../../../../../../../../../../../../../../../../../../../../../BB/../../../../../../../..]
 	Process OMPI jobid: [9581,1] App: 0 Process rank: 56 Bound: socket 1[core 56[hwt 0-1]]:[../../../../../../../../../../../../../../../../../../../../../../../../../../../../../../../..][../../../../../../../../../../../../../../../../../../../../../../../../BB/../../../../../../..]
 	Process OMPI jobid: [9581,1] App: 0 Process rank: 57 Bound: socket 1[core 57[hwt 0-1]]:[../../../../../../../../../../../../../../../../../../../../../../../../../../../../../../../..][../../../../../../../../../../../../../../../../../../../../../../../../../BB/../../../../../..]
 	Process OMPI jobid: [9581,1] App: 0 Process rank: 58 Bound: socket 1[core 58[hwt 0-1]]:[../../../../../../../../../../../../../../../../../../../../../../../../../../../../../../../..][../../../../../../../../../../../../../../../../../../../../../../../../../../BB/../../../../..]
 	Process OMPI jobid: [9581,1] App: 0 Process rank: 59 Bound: socket 1[core 59[hwt 0-1]]:[../../../../../../../../../../../../../../../../../../../../../../../../../../../../../../../..][../../../../../../../../../../../../../../../../../../../../../../../../../../../BB/../../../..]
 	Process OMPI jobid: [9581,1] App: 0 Process rank: 60 Bound: socket 1[core 60[hwt 0-1]]:[../../../../../../../../../../../../../../../../../../../../../../../../../../../../../../../..][../../../../../../../../../../../../../../../../../../../../../../../../../../../../BB/../../..]
 	Process OMPI jobid: [9581,1] App: 0 Process rank: 61 Bound: socket 1[core 61[hwt 0-1]]:[../../../../../../../../../../../../../../../../../../../../../../../../../../../../../../../..][../../../../../../../../../../../../../../../../../../../../../../../../../../../../../BB/../..]
 	Process OMPI jobid: [9581,1] App: 0 Process rank: 62 Bound: socket 1[core 62[hwt 0-1]]:[../../../../../../../../../../../../../../../../../../../../../../../../../../../../../../../..][../../../../../../../../../../../../../../../../../../../../../../../../../../../../../../BB/..]
 	Process OMPI jobid: [9581,1] App: 0 Process rank: 63 Bound: socket 1[core 63[hwt 0-1]]:[../../../../../../../../../../../../../../../../../../../../../../../../../../../../../../../..][../../../../../../../../../../../../../../../../../../../../../../../../../../../../../../../BB]

 =============================================================
Single Size change topo
dune-size 249984-1.1 0.0535173 0.0503281 0.047143 0.0440014 0.0405645 0.0370309 0.0336626 0.0304338 0.027322 0.0237114 0.0215422 0.0175654 0.0158242 0.0157163 0.016125 0.016237 0.0163005 0.0160916 0.0152281 0.015823 0.0173944 0.0198512 0.0237574 0.0273358 0.030958 0.0345922 0.038585 0.0422289 0.0459579 0.0494526 0.0530882 0.0535259 0.0535128 0.0503537 0.0469609 0.0436478 0.0404252 0.0371076 0.0337556 0.0306476 0.0272808 0.0241919 0.0210377 0.0182164 0.0159095 0.0157923 0.015795 0.0156045 0.0158752 0.0158693 0.0157104 0.0159876 0.0158351 0.0157355 0.0192962 0.0231199 0.0271358 0.0308733 0.0345154 0.0382313 0.0419228 0.0457016 0.0494556 0.0530747 
dune-size 249984-1.2 0.0132123 0.0132159 0.0130977 0.0130991 0.0127794 0.0128497 0.0129847 0.0129136 0.0129783 0.0130704 0.013212 0.0132183 0.0131508 0.0131525 0.0130644 0.0130656 0.0131291 0.0131315 0.0128535 0.0128536 0.0132429 0.0132454 0.0130666 0.0130652 0.0130871 0.0130836 0.0130313 0.0130292 0.013272 0.013266 0.0129486 0.0129507 0.0126716 0.0126723 0.0125894 0.0125875 0.0128691 0.0128679 0.0128883 0.0128911 0.012836 0.0128346 0.012598 0.0125988 0.0128836 0.0128846 0.0126836 0.0126847 0.012997 0.0130022 0.012991 0.012989 0.0126708 0.0126666 0.0126324 0.0126355 0.0127313 0.012734 0.01277 0.0127708 0.0125316 0.0125345 0.0124409 0.0124419 
dune-size 249984-1.3 0.0302551 0.02962 0.0286451 0.0302541 0.0286809 0.028621 0.0286204 0.0302542 0.0285501 0.0302536 0.0296028 0.0261174 0.0302454 0.030256 0.0286656 0.0295672 0.0286512 0.0286553 0.0302494 0.028612 0.0286536 0.030256 0.0286044 0.028572 0.0286379 0.0302028 0.0261377 0.028669 0.0302539 0.0286485 0.0261138 0.0302525 0.0298852 0.0296979 0.0282309 0.0298841 0.0282621 0.0282081 0.0282073 0.0299784 0.0281379 0.0298792 0.0296374 0.0257132 0.0298684 0.029879 0.028237 0.0295836 0.0283396 0.0286194 0.0298793 0.0281976 0.0282163 0.0299791 0.0281908 0.0281715 0.0282252 0.0297853 0.0257136 0.0282514 0.0299803 0.0282325 0.0256999 0.0298707 
dune-size 8064-31 0.0134478 0.0134605 0.0134871 0.0134897 0.013485 0.0134822 0.0134892 0.013477 0.0134712 0.0134878 0.0134913 0.0134716 0.0134429 0.0134854 0.0134625 0.013472 0.0134533 0.0134551 0.0134438 0.0134657 0.0134474 0.0134498 0.0134772 0.0134853 0.013465 0.0134671 0.0134686 0.0134516 0.0134932 0.0134436 0.0134438 0.0134489 0.0129578 0.0129544 0.0129561 0.0129527 0.0130761 0.0129651 0.0129667 0.012963 0.0129492 0.0129422 0.0129439 0.0129474 0.0129158 0.0129158 0.0129157 0.0129279 0.0129315 0.0129162 0.012924 0.0129162 0.0129223 0.0129333 0.0129261 0.0129296 0.0129509 0.0129596 0.0129457 0.0129613 0.0129351 0.0129386 0.0129403 0.0129368 
dune-size 8064-31.5 0.0155727 0.0155713 0.0155733 0.0155744 0.0155717 0.0155664 0.0155717 0.0155618 0.0155541 0.0155838 0.0155638 0.0155632 0.0155565 0.0155646 0.0155391 0.0155489 0.0155461 0.0155518 0.0155699 0.0155631 0.0155659 0.0155672 0.0155746 0.0155743 0.0155749 0.0155744 0.0155746 0.0155752 0.0155745 0.0155756 0.0155743 0.0155743 0.0155735 0.0155822 0.0155773 0.0155806 0.0155789 0.0155739 0.0155707 0.0155723 0.0155756 0.0155582 0.0155511 0.0155576 0.0155584 0.0155723 0.0155608 0.0155675 0.0155617 0.0155698 0.0155702 0.0155702 0.0155725 0.0155716 0.0155751 0.0155732 0.015574 0.015576 0.015574 0.0155748 0.0155746 0.0155749 0.0155758 0.0155747 
dune-size 3968-63 0.0207532 0.0207702 0.0207702 0.0207701 0.0207655 0.020771 0.0207798 0.0207751 0.0207764 0.0207761 0.0207807 0.0207792 0.0207776 0.0207855 0.020788 0.0207855 0.0207861 0.0207872 0.020786 0.0207881 0.0207866 0.0207886 0.0207888 0.0207897 0.0207892 0.0207888 0.0207864 0.0207924 0.0207888 0.0207874 0.0207936 0.0207942 0.0207247 0.0207346 0.0207244 0.0207363 0.0207295 0.0207296 0.0207377 0.0207387 0.0207782 0.0207933 0.0207924 0.0207752 0.0207827 0.0207775 0.0207915 0.0207865 0.0207915 0.0207916 0.0207915 0.0207867 0.0207862 0.0207861 0.0207855 0.0207916 0.0207871 0.020788 0.0207915 0.0207916 0.0207915 0.0207886 0.0207882 0.0207912 
dune-size 999936-1.1 0.138714 0.132199 0.125229 0.11911 0.112089 0.105165 0.0983571 0.0914569 0.0863584 0.0809934 0.0744732 0.0715438 0.070809 0.07128 0.0719809 0.0721645 0.0724392 0.0714352 0.0714059 0.0714927 0.0723798 0.0723269 0.0721567 0.076904 0.0856496 0.0941674 0.103032 0.11171 0.119879 0.128559 0.13718 0.138866 0.138826 0.131947 0.124919 0.117835 0.110956 0.104149 0.0973326 0.0904169 0.0838953 0.0765888 0.069205 0.0652576 0.0666526 0.0671511 0.0664575 0.0664371 0.0663894 0.0665895 0.066689 0.0667034 0.0663378 0.0659209 0.0654821 0.0677294 0.0763677 0.0849694 0.0935962 0.102068 0.111038 0.119564 0.128365 0.136918 
dune-size 999936-1.2 0.0542432 0.0542172 0.0539101 0.0538946 0.0523875 0.0524219 0.0528936 0.0528872 0.0529833 0.0530254 0.0536884 0.0537089 0.054515 0.0545303 0.0547275 0.054672 0.0528823 0.0528191 0.0525294 0.0524571 0.0533549 0.0534121 0.0526629 0.0526514 0.0523171 0.0523717 0.0528985 0.0529546 0.0539688 0.0539877 0.054109 0.0541292 0.0515256 0.0515286 0.0520468 0.0520339 0.0533846 0.0534036 0.0535342 0.0535169 0.0523115 0.0523167 0.0515949 0.0516029 0.0533335 0.0532949 0.0534013 0.0533616 0.0524428 0.0524291 0.0518837 0.0518578 0.0536546 0.053609 0.0535887 0.0535673 0.0521657 0.0521846 0.051216 0.051217 0.0528405 0.0528414 0.0525542 0.0525219 
dune-size 999936-1.3 0.123218 0.12325 0.114856 0.123263 0.123213 0.12321 0.114813 0.123203 0.114754 0.109877 0.123223 0.114454 0.114895 0.104616 0.110198 0.123222 0.11485 0.11488 0.123218 0.120515 0.114855 0.1148 0.122944 0.123202 0.123208 0.114892 0.114887 0.114904 0.114768 0.123199 0.120059 0.114875 0.121455 0.121927 0.116534 0.121985 0.121995 0.122 0.116496 0.121501 0.116432 0.109749 0.121579 0.116187 0.116609 0.106295 0.110113 0.121931 0.116524 0.116583 0.121754 0.120428 0.11654 0.116541 0.121228 0.121818 0.121948 0.116591 0.116606 0.116599 0.116453 0.12173 0.120037 0.116583 
dune-size 32256-31 0.0518982 0.0518188 0.0518961 0.0518118 0.0520021 0.0519505 0.0519677 0.0518844 0.0519401 0.0518047 0.0519193 0.0519886 0.0518774 0.0518634 0.0518486 0.0519955 0.0519123 0.0519628 0.0519263 0.0519332 0.051954 0.051785 0.0519746 0.051849 0.0518346 0.0519054 0.0518705 0.0517914 0.0519833 0.0518575 0.051798 0.051798 0.0511268 0.0510245 0.0511587 0.0510321 0.0510615 0.051076 0.0510906 0.0511124 0.051148 0.0510543 0.0510688 0.0511053 0.0510414 0.0510169 0.0511194 0.0510022 0.0510982 0.0509654 0.0509586 0.051169 0.0511409 0.0511688 0.0510835 0.051047 0.0510094 0.0509877 0.0509579 0.0511339 0.0509567 0.0509798 0.0509725 0.0509945 
dune-size 32256-31.5 0.065953 0.0659445 0.0659518 0.0659634 0.0659478 0.0659457 0.0659439 0.0658611 0.0659673 0.065861 0.0659661 0.0659692 0.0659731 0.0658626 0.0658167 0.0657798 0.0658805 0.0659428 0.0659365 0.0659511 0.0659486 0.0659694 0.0659969 0.0660027 0.0660204 0.065974 0.0659828 0.0659516 0.0659634 0.066001 0.0659725 0.0659713 0.0660011 0.066014 0.0660076 0.0659937 0.0659877 0.0659803 0.065987 0.0659673 0.0659561 0.0659606 0.0659627 0.065946 0.0659539 0.0658245 0.0658306 0.065955 0.0658508 0.0658406 0.0659523 0.0658564 0.065949 0.0659524 0.0659449 0.0658869 0.0659582 0.0659586 0.0658934 0.0659525 0.0659594 0.0659639 0.0659571 0.0659698 
dune-size 15872-63 0.068044 0.0683457 0.0683523 0.0683554 0.0683394 0.0681195 0.0682949 0.0683585 0.0681856 0.0681817 0.0681661 0.0681716 0.0682017 0.0682427 0.0682945 0.068205 0.0683489 0.0682751 0.0682547 0.0682563 0.0682742 0.0682772 0.0682891 0.0683354 0.0682775 0.0682929 0.0683425 0.068291 0.0682825 0.0682934 0.0682951 0.0682973 0.0682966 0.0682816 0.0682982 0.0682961 0.0680373 0.0682795 0.0682819 0.0680513 0.0681344 0.0681752 0.0682609 0.0681576 0.0681519 0.0682209 0.0682463 0.0682453 0.0682406 0.0682434 0.0682868 0.0682474 0.0682845 0.0682509 0.0683039 0.0682913 0.0682962 0.0682948 0.0682956 0.0682955 0.0682945 0.0682977 0.0683045 0.0683617 
