 Data for JOB [35629,1] offset 0 Total slots allocated 4

 ========================   JOB MAP   ========================

 Data for node: n004	Num slots: 4	Max slots: 0	Num procs: 4
 	Process OMPI jobid: [35629,1] App: 0 Process rank: 0 Bound: socket 1[core 57[hwt 0-1]]:[../../../../../../../../../../../../../../../../../../../../../../../../../../../../../../../..][../../../../../../../../../../../../../../../../../../../../../../../../../BB/../../../../../..]
 	Process OMPI jobid: [35629,1] App: 0 Process rank: 1 Bound: socket 0[core 11[hwt 0-1]]:[../../../../../../../../../../../BB/../../../../../../../../../../../../../../../../../../../..][../../../../../../../../../../../../../../../../../../../../../../../../../../../../../../../..]
 	Process OMPI jobid: [35629,1] App: 0 Process rank: 2 Bound: socket 1[core 58[hwt 0-1]]:[../../../../../../../../../../../../../../../../../../../../../../../../../../../../../../../..][../../../../../../../../../../../../../../../../../../../../../../../../../../BB/../../../../..]
 	Process OMPI jobid: [35629,1] App: 0 Process rank: 3 Bound: socket 0[core 12[hwt 0-1]]:[../../../../../../../../../../../../BB/../../../../../../../../../../../../../../../../../../..][../../../../../../../../../../../../../../../../../../../../../../../../../../../../../../../..]

 =============================================================
Two group cota
1 0 0
2 3 3
3 2 2
0 1 1
dune-size 1 8.71791e-06 8.70911e-06 8.77891e-06 8.77761e-06 
dune-size 2 8.2923e-06 8.2833e-06 8.3054e-06 8.2959e-06 
dune-size 4 8.59971e-06 8.59571e-06 8.61771e-06 8.61441e-06 
dune-size 8 8.95661e-06 8.95511e-06 8.97231e-06 8.97181e-06 
dune-size 16 7.50831e-06 7.50031e-06 7.47771e-06 7.46871e-06 
dune-size 32 8.77431e-06 8.77011e-06 8.75581e-06 8.74911e-06 
dune-size 64 1.14603e-05 1.14577e-05 1.15239e-05 1.1522e-05 
dune-size 128 1.63874e-05 1.63621e-05 1.62392e-05 1.62231e-05 
dune-size 256 1.89125e-05 1.89046e-05 1.89652e-05 1.89636e-05 
dune-size 512 3.23009e-05 3.22971e-05 3.24833e-05 3.24796e-05 
dune-size 1024 0.000105883 0.000105879 0.000106858 0.000106798 
dune-size 2048 0.0002011 0.00020108 0.000202175 0.000202147 
dune-size 4096 0.00037961 0.000379615 0.000380295 0.000380277 
dune-size 8192 0.00067507 0.000675026 0.000648906 0.000648839 
dune-size 16384 0.00111622 0.00111617 0.00114505 0.00114499 
dune-size 32768 0.00187927 0.00187924 0.00187326 0.00187325 
dune-size 65536 0.00328646 0.00328433 0.00327735 0.00327591 
dune-size 131072 0.00668495 0.0066739 0.00667742 0.00666628 
