 Data for JOB [62700,1] offset 0 Total slots allocated 2

 ========================   JOB MAP   ========================

 Data for node: n001	Num slots: 2	Max slots: 0	Num procs: 2
 	Process OMPI jobid: [62700,1] App: 0 Process rank: 0 Bound: socket 1[core 33[hwt 0-1]]:[../../../../../../../../../../../../../../../../../../../../../../../../../../../../../../../..][../BB/../../../../../../../../../../../../../../../../../../../../../../../../../../../../../..]
 	Process OMPI jobid: [62700,1] App: 0 Process rank: 1 Bound: socket 1[core 42[hwt 0-1]]:[../../../../../../../../../../../../../../../../../../../../../../../../../../../../../../../..][../../../../../../../../../../BB/../../../../../../../../../../../../../../../../../../../../..]

 =============================================================
dune-size 1 4.24279e-06 4.24449e-06 
dune-size 2 5.41849e-06 5.42239e-06 
dune-size 4 4.22239e-06 4.22109e-06 
dune-size 8 4.46149e-06 4.45909e-06 
dune-size 16 4.85059e-06 4.84699e-06 
dune-size 32 5.61419e-06 5.61379e-06 
dune-size 64 7.30758e-06 7.30268e-06 
dune-size 128 1.05331e-05 1.05342e-05 
dune-size 256 1.756e-05 1.75602e-05 
dune-size 512 3.05815e-05 3.05934e-05 
dune-size 1024 8.74885e-05 8.74826e-05 
dune-size 2048 0.000158347 0.000158352 
dune-size 4096 0.000309152 0.000309166 
dune-size 8192 0.000562371 0.000562378 
dune-size 16384 0.000897734 0.000897739 
dune-size 32768 0.00162778 0.00162778 
dune-size 65536 0.00324425 0.00324386 
dune-size 131072 0.0064141 0.00641529 
dune-size 262144 0.0128332 0.0128374 
dune-size 524288 0.0253811 0.0253818 
dune-size 1048576 0.0506818 0.0506815 
