--------------------------------------------------------------------------
WARNING: No preset parameters were found for the device that Open MPI
detected:

  Local host:            n004
  Device name:           mlx5_1
  Device vendor ID:      0x02c9
  Device vendor part ID: 4123

Default device parameters will be used, which may result in lower
performance.  You can edit any of the files specified by the
btl_openib_device_param_files MCA parameter to set values for your
device.

NOTE: You can turn off this warning by setting the MCA parameter
      btl_openib_warn_no_device_params_found to 0.
--------------------------------------------------------------------------
--------------------------------------------------------------------------
By default, for Open MPI 4.0 and later, infiniband ports on a device
are not used by default.  The intent is to use UCX for these devices.
You can override this policy by setting the btl_openib_allow_ib MCA parameter
to true.

  Local host:              n004
  Local adapter:           mlx5_2
  Local port:              1

--------------------------------------------------------------------------
--------------------------------------------------------------------------
WARNING: There was an error initializing an OpenFabrics device.

  Local host:   n004
  Local device: mlx5_2
--------------------------------------------------------------------------
[n004:34281] 15 more processes have sent help message help-mpi-btl-openib.txt / no device params found
[n004:34281] Set MCA parameter "orte_base_help_aggregate" to 0 to see all help / error messages
[n004:34281] 3 more processes have sent help message help-mpi-btl-openib.txt / ib port not selected
[n004:34281] 3 more processes have sent help message help-mpi-btl-openib.txt / error in device init
