 Data for JOB [35241,1] offset 0 Total slots allocated 4

 ========================   JOB MAP   ========================

 Data for node: n004	Num slots: 4	Max slots: 0	Num procs: 4
 	Process OMPI jobid: [35241,1] App: 0 Process rank: 0 Bound: socket 1[core 49[hwt 0-1]]:[../../../../../../../../../../../../../../../../../../../../../../../../../../../../../../../..][../../../../../../../../../../../../../../../../../BB/../../../../../../../../../../../../../..]
 	Process OMPI jobid: [35241,1] App: 0 Process rank: 1 Bound: socket 1[core 43[hwt 0-1]]:[../../../../../../../../../../../../../../../../../../../../../../../../../../../../../../../..][../../../../../../../../../../../BB/../../../../../../../../../../../../../../../../../../../..]
 	Process OMPI jobid: [35241,1] App: 0 Process rank: 2 Bound: socket 1[core 50[hwt 0-1]]:[../../../../../../../../../../../../../../../../../../../../../../../../../../../../../../../..][../../../../../../../../../../../../../../../../../../BB/../../../../../../../../../../../../..]
 	Process OMPI jobid: [35241,1] App: 0 Process rank: 3 Bound: socket 1[core 44[hwt 0-1]]:[../../../../../../../../../../../../../../../../../../../../../../../../../../../../../../../..][../../../../../../../../../../../../BB/../../../../../../../../../../../../../../../../../../..]

 =============================================================
3 2 2
Two group cota
0 1 1
2 3 3
1 0 0
dune-size 1 8.26941e-06 8.26021e-06 7.76971e-06 7.76381e-06 
dune-size 2 7.4973e-06 7.4898e-06 7.4222e-06 7.4162e-06 
dune-size 4 7.79911e-06 7.79661e-06 7.78381e-06 7.78161e-06 
dune-size 8 8.37901e-06 8.36661e-06 8.28681e-06 8.28271e-06 
dune-size 16 6.71301e-06 6.71491e-06 7.27401e-06 7.26841e-06 
dune-size 32 7.93651e-06 7.94271e-06 8.76421e-06 8.75741e-06 
dune-size 64 1.04148e-05 1.0427e-05 1.13013e-05 1.13e-05 
dune-size 128 1.04891e-05 1.04832e-05 1.66175e-05 1.66073e-05 
dune-size 256 1.74646e-05 1.74595e-05 1.74004e-05 1.73909e-05 
dune-size 512 3.08377e-05 3.08491e-05 3.07097e-05 3.07148e-05 
dune-size 1024 8.39843e-05 8.39583e-05 8.48483e-05 8.48366e-05 
dune-size 2048 0.000162793 0.000162801 0.000164311 0.000164339 
dune-size 4096 0.000310289 0.000310277 0.000309648 0.000309627 
dune-size 8192 0.000547602 0.000547618 0.000564155 0.000564151 
dune-size 16384 0.000867898 0.000867855 0.000876587 0.000876599 
dune-size 32768 0.00161646 0.00161649 0.00163732 0.00163731 
dune-size 65536 0.00326532 0.00326367 0.00325128 0.00325137 
dune-size 131072 0.0064789 0.00646865 0.00648443 0.00647853 
