 Data for JOB [29458,1] offset 0 Total slots allocated 4

 ========================   JOB MAP   ========================

 Data for node: n004	Num slots: 4	Max slots: 0	Num procs: 4
 	Process OMPI jobid: [29458,1] App: 0 Process rank: 0 Bound: socket 1[core 40[hwt 0-1]]:[../../../../../../../../../../../../../../../../../../../../../../../../../../../../../../../..][../../../../../../../../BB/../../../../../../../../../../../../../../../../../../../../../../..]
 	Process OMPI jobid: [29458,1] App: 0 Process rank: 1 Bound: socket 1[core 41[hwt 0-1]]:[../../../../../../../../../../../../../../../../../../../../../../../../../../../../../../../..][../../../../../../../../../BB/../../../../../../../../../../../../../../../../../../../../../..]
 	Process OMPI jobid: [29458,1] App: 0 Process rank: 2 Bound: socket 1[core 42[hwt 0-1]]:[../../../../../../../../../../../../../../../../../../../../../../../../../../../../../../../..][../../../../../../../../../../BB/../../../../../../../../../../../../../../../../../../../../..]
 	Process OMPI jobid: [29458,1] App: 0 Process rank: 3 Bound: socket 1[core 43[hwt 0-1]]:[../../../../../../../../../../../../../../../../../../../../../../../../../../../../../../../..][../../../../../../../../../../../BB/../../../../../../../../../../../../../../../../../../../..]

 =============================================================
[1579613266.439620] [n004:29217:0]         mxm.c:196  MXM  WARN  The 'ulimit -s' on the system is set to 'unlimited'. This may have negative performance implications. Please set the stack size to the default value (10240) 
[1579613266.439620] [n004:29218:0]         mxm.c:196  MXM  WARN  The 'ulimit -s' on the system is set to 'unlimited'. This may have negative performance implications. Please set the stack size to the default value (10240) 
[1579613266.439750] [n004:29219:0]         mxm.c:196  MXM  WARN  The 'ulimit -s' on the system is set to 'unlimited'. This may have negative performance implications. Please set the stack size to the default value (10240) 
[1579613266.440140] [n004:29220:0]         mxm.c:196  MXM  WARN  The 'ulimit -s' on the system is set to 'unlimited'. This may have negative performance implications. Please set the stack size to the default value (10240) 
0: 2 

Rank 0 ghostCells: 1266
Rank 1 ghostCells: 2200
Rank 2 ghostCells: 2049
Rank 3 ghostCells: 5338

Rank 0 numCells: 83009
Rank 1 numCells: 86404
Rank 2 numCells: 96601
Rank 3 numCells: 100246

Rank 0 interiorCells: 81743
Rank 1 interiorCells: 84204
Rank 2 interiorCells: 94552
Rank 3 interiorCells: 94908

MeasComm+1 4: 0.000333891 0.00026809 0.000268241 0.000373221 
MeasComm+1 4: 0.000333121 0.000270691 0.000266201 0.000369881 
MeasComm+1 4: 0.0002952 0.000267541 0.00026891 0.000371781 
MeasComm+1 4: 0.000336471 0.0002685 0.00027007 0.000375711 
MeasComm+1 4: 0.000271491 0.000267571 0.000271291 0.000370891 
MeasComm+1 4: 0.000333601 0.000268121 0.000269051 0.000375 
MeasComm+1 4: 0.000298511 0.000270201 0.000265121 0.000375311 
MeasComm+1 4: 0.00031354 0.00026776 0.000269401 0.000370931 
MeasComm+1 4: 0.0003331 0.000264481 0.0002685 0.000374421 
MeasComm+1 4: 0.000297431 0.000266481 0.000271071 0.000373631 

MeasCopy 4: 5.941e-05 0.00010317 9.627e-05 0.000250291 
MeasCopy 4: 5.942e-05 0.00010319 9.619e-05 0.000250491 
MeasCopy 4: 5.952e-05 0.00010315 9.603e-05 0.00025042 
MeasCopy 4: 5.951e-05 0.00010316 9.614e-05 0.00025034 
MeasCopy 4: 5.95e-05 0.000103161 9.619e-05 0.00025042 
MeasCopy 4: 5.956e-05 0.00010315 9.616e-05 0.000250481 
MeasCopy 4: 5.953e-05 0.00010313 9.6141e-05 0.00025036 
MeasCopy 4: 5.947e-05 0.00010308 9.6131e-05 0.000250481 
MeasCopy 4: 5.951e-05 0.00010311 9.622e-05 0.00025038 
MeasCopy 4: 5.955e-05 0.00010307 9.6301e-05 0.00025046 

ComTab rank 0: 0 168 0 1103 
ComTab rank 1: 422 0 0 1781 
ComTab rank 2: 0 0 0 2049 
ComTab rank 3: 1614 1637 2089 0 

Edge-cut: 7873

Wgt-cut: 2.24825e-08

[1579613326.606915] [n004:29220:0]          mpool.c:38   UCX  WARN  object 0x1555394feee0 was not returned to mpool mm_recv_desc
[1579613326.614494] [n004:29219:0]          mpool.c:38   UCX  WARN  object 0x1555394fce60 was not returned to mpool mm_recv_desc
[1579613326.615747] [n004:29218:0]          mpool.c:38   UCX  WARN  object 0x155539500f60 was not returned to mpool mm_recv_desc
