 Data for JOB [15321,1] offset 0 Total slots allocated 8

 ========================   JOB MAP   ========================

 Data for node: n003	Num slots: 8	Max slots: 0	Num procs: 8
 	Process OMPI jobid: [15321,1] App: 0 Process rank: 0 Bound: socket 1[core 56[hwt 0-1]]:[../../../../../../../../../../../../../../../../../../../../../../../../../../../../../../../..][../../../../../../../../../../../../../../../../../../../../../../../../BB/../../../../../../..]
 	Process OMPI jobid: [15321,1] App: 0 Process rank: 1 Bound: socket 1[core 57[hwt 0-1]]:[../../../../../../../../../../../../../../../../../../../../../../../../../../../../../../../..][../../../../../../../../../../../../../../../../../../../../../../../../../BB/../../../../../..]
 	Process OMPI jobid: [15321,1] App: 0 Process rank: 2 Bound: socket 1[core 58[hwt 0-1]]:[../../../../../../../../../../../../../../../../../../../../../../../../../../../../../../../..][../../../../../../../../../../../../../../../../../../../../../../../../../../BB/../../../../..]
 	Process OMPI jobid: [15321,1] App: 0 Process rank: 3 Bound: socket 1[core 59[hwt 0-1]]:[../../../../../../../../../../../../../../../../../../../../../../../../../../../../../../../..][../../../../../../../../../../../../../../../../../../../../../../../../../../../BB/../../../..]
 	Process OMPI jobid: [15321,1] App: 0 Process rank: 4 Bound: socket 0[core 12[hwt 0-1]]:[../../../../../../../../../../../../BB/../../../../../../../../../../../../../../../../../../..][../../../../../../../../../../../../../../../../../../../../../../../../../../../../../../../..]
 	Process OMPI jobid: [15321,1] App: 0 Process rank: 5 Bound: socket 0[core 13[hwt 0-1]]:[../../../../../../../../../../../../../BB/../../../../../../../../../../../../../../../../../..][../../../../../../../../../../../../../../../../../../../../../../../../../../../../../../../..]
 	Process OMPI jobid: [15321,1] App: 0 Process rank: 6 Bound: socket 0[core 14[hwt 0-1]]:[../../../../../../../../../../../../../../BB/../../../../../../../../../../../../../../../../..][../../../../../../../../../../../../../../../../../../../../../../../../../../../../../../../..]
 	Process OMPI jobid: [15321,1] App: 0 Process rank: 7 Bound: socket 0[core 15[hwt 0-1]]:[../../../../../../../../../../../../../../../BB/../../../../../../../../../../../../../../../..][../../../../../../../../../../../../../../../../../../../../../../../../../../../../../../../..]

 =============================================================
7 4 6
7 5 5
7 6 4
5 6 4
5 7 7
5 4 6
6 7 5
6 4 4
6 5 7
2 3 1
2 0 0
2 1 3
3 0 2
3 1 1
3 2 0
4 5 7
4 6 6
4 7 5
Two group cota
0 1 3
0 2 2
0 3 1
1 2 0
1 3 3
1 0 2
dune-size 1 7.16819e-06 7.17669e-06 7.16899e-06 7.17519e-06 7.19849e-06 7.19439e-06 7.20419e-06 7.19869e-06 
dune-size 2 6.53709e-06 6.53099e-06 6.53989e-06 6.53509e-06 6.59659e-06 6.59379e-06 6.59009e-06 6.59419e-06 
dune-size 4 6.90439e-06 6.87349e-06 6.86409e-06 6.88279e-06 6.94939e-06 6.90289e-06 6.89899e-06 6.90679e-06 
dune-size 8 9.62778e-06 9.62088e-06 9.61698e-06 9.62148e-06 8.37528e-06 8.37818e-06 8.37118e-06 8.37198e-06 
dune-size 16 8.63178e-06 8.64378e-06 8.65388e-06 8.63618e-06 8.69308e-06 8.68148e-06 8.68038e-06 8.68078e-06 
dune-size 32 1.23349e-05 1.23221e-05 1.23195e-05 1.23156e-05 1.16293e-05 1.16376e-05 1.16197e-05 1.16161e-05 
dune-size 64 1.64648e-05 1.64756e-05 1.64391e-05 1.64416e-05 1.62426e-05 1.62872e-05 1.62642e-05 1.62478e-05 
dune-size 128 2.49059e-05 2.49126e-05 2.49135e-05 2.4917e-05 2.49195e-05 2.49396e-05 2.49258e-05 2.4925e-05 
dune-size 256 4.56039e-05 4.56536e-05 4.56089e-05 4.56734e-05 4.56595e-05 4.56857e-05 4.56672e-05 4.56682e-05 
dune-size 512 8.19292e-05 8.16912e-05 8.1798e-05 8.16832e-05 8.07881e-05 8.08907e-05 8.07065e-05 8.07088e-05 
dune-size 1024 0.000172491 0.00017273 0.00017249 0.000172525 0.000175572 0.000175842 0.000175574 0.000175704 
dune-size 2048 0.000323801 0.000324496 0.000323808 0.000324093 0.000330925 0.00033125 0.000330607 0.000330607 
dune-size 4096 0.000619729 0.000620404 0.000621104 0.000619716 0.000623438 0.000624239 0.000622616 0.000622621 
dune-size 8192 0.00119258 0.00119106 0.00119106 0.00119432 0.00120599 0.00120661 0.00120433 0.00120433 
dune-size 16384 0.00238525 0.00238137 0.00238138 0.00238471 0.00245905 0.00245893 0.00246244 0.00245954 
dune-size 32768 0.00480127 0.00480204 0.00480487 0.00480123 0.00484181 0.0048418 0.0048417 0.0048417 
dune-size 65536 0.00972526 0.00972485 0.00972489 0.00972554 0.00978935 0.00978957 0.00978863 0.0097893 
dune-size 131072 0.0194446 0.0194446 0.0194444 0.0194487 0.0194992 0.0194992 0.0194989 0.0194992 
