[1578476908.077207] [srl-adm2:6605 :0]         mxm.c:196  MXM  WARN  The 'ulimit -s' on the system is set to 'unlimited'. This may have negative performance implications. Please set the stack size to the default value (10240) 
[1578476908.078982] [srl-adm2:6598 :0]         mxm.c:196  MXM  WARN  The 'ulimit -s' on the system is set to 'unlimited'. This may have negative performance implications. Please set the stack size to the default value (10240) 
[1578476908.079081] [srl-adm2:6599 :0]         mxm.c:196  MXM  WARN  The 'ulimit -s' on the system is set to 'unlimited'. This may have negative performance implications. Please set the stack size to the default value (10240) 
[1578476908.079001] [srl-adm2:6602 :0]         mxm.c:196  MXM  WARN  The 'ulimit -s' on the system is set to 'unlimited'. This may have negative performance implications. Please set the stack size to the default value (10240) 
[1578476908.079132] [srl-adm2:6600 :0]         mxm.c:196  MXM  WARN  The 'ulimit -s' on the system is set to 'unlimited'. This may have negative performance implications. Please set the stack size to the default value (10240) 
[1578476908.079213] [srl-adm2:6606 :0]         mxm.c:196  MXM  WARN  The 'ulimit -s' on the system is set to 'unlimited'. This may have negative performance implications. Please set the stack size to the default value (10240) 
[1578476908.079307] [srl-adm2:6601 :0]         mxm.c:196  MXM  WARN  The 'ulimit -s' on the system is set to 'unlimited'. This may have negative performance implications. Please set the stack size to the default value (10240) 
[1578476908.079560] [srl-adm2:6604 :0]         mxm.c:196  MXM  WARN  The 'ulimit -s' on the system is set to 'unlimited'. This may have negative performance implications. Please set the stack size to the default value (10240) 
0: 2 
After loadbalancing process 7 has 3905 cells.
After loadbalancing process 2 has 6503 cells.
After loadbalancing process 6 has 6089 cells.
After loadbalancing process 5 has 6136 cells.
After loadbalancing process 3 has 7255 cells.
After loadbalancing process 0 has 6376 cells.
After loadbalancing process 4 has 6787 cells.
After loadbalancing process 1 has 7380 cells.

Rank 0 ghostCells: 841
Rank 1 ghostCells: 1282
Rank 2 ghostCells: 475
Rank 3 ghostCells: 1172
Rank 4 ghostCells: 873
Rank 5 ghostCells: 395
Rank 6 ghostCells: 239
Rank 7 ghostCells: 723

Rank 0 numCells: 6376
Rank 1 numCells: 7380
Rank 2 numCells: 6503
Rank 3 numCells: 7255
Rank 4 numCells: 6787
Rank 5 numCells: 6136
Rank 6 numCells: 6089
Rank 7 numCells: 3905

Rank 0 interiorCells: 5535
Rank 1 interiorCells: 6098
Rank 2 interiorCells: 6028
Rank 3 interiorCells: 6083
Rank 4 interiorCells: 5914
Rank 5 interiorCells: 5741
Rank 6 interiorCells: 5850
Rank 7 interiorCells: 3182

ComTab rank 0: 0 464 0 226 81 1 161 7 
ComTab rank 1: 535 0 29 446 254 20 63 99 
ComTab rank 2: 0 32 0 446 0 0 0 0 
ComTab rank 3: 200 415 448 0 155 0 0 13 
ComTab rank 4: 135 227 0 162 0 263 0 196 
ComTab rank 5: 1 14 0 0 265 0 0 151 
ComTab rank 6: 164 34 0 0 0 0 0 59 
ComTab rank 7: 37 115 0 20 295 249 94 0 

Edge-cut: 4728

Wgt-cut: 1.92246e-08

[1578476912.015730] [srl-adm2:6605 :0]          mpool.c:38   UCX  WARN  object 0x5555587ecbc0 was not returned to mpool ucp_am_bufs
[1578476912.015698] [srl-adm2:6601 :0]          mpool.c:38   UCX  WARN  object 0x55555bfcd680 was not returned to mpool ucp_am_bufs
[1578476912.015900] [srl-adm2:6600 :0]          mpool.c:38   UCX  WARN  object 0x55555880a5c0 was not returned to mpool ucp_am_bufs
[1578476912.015928] [srl-adm2:6602 :0]          mpool.c:38   UCX  WARN  object 0x55555d850940 was not returned to mpool ucp_am_bufs
[1578476912.015963] [srl-adm2:6606 :0]          mpool.c:38   UCX  WARN  object 0x55555a819940 was not returned to mpool ucp_am_bufs
[1578476912.016036] [srl-adm2:6599 :0]          mpool.c:38   UCX  WARN  object 0x55555c30e100 was not returned to mpool ucp_am_bufs
[1578476912.016076] [srl-adm2:6604 :0]          mpool.c:38   UCX  WARN  object 0x555558ef70c0 was not returned to mpool ucp_am_bufs
