 Data for JOB [28559,1] offset 0 Total slots allocated 8

 ========================   JOB MAP   ========================

 Data for node: n004	Num slots: 8	Max slots: 0	Num procs: 8
 	Process OMPI jobid: [28559,1] App: 0 Process rank: 0 Bound: socket 1[core 56[hwt 0-1]]:[../../../../../../../../../../../../../../../../../../../../../../../../../../../../../../../..][../../../../../../../../../../../../../../../../../../../../../../../../BB/../../../../../../..]
 	Process OMPI jobid: [28559,1] App: 0 Process rank: 1 Bound: socket 0[core 13[hwt 0-1]]:[../../../../../../../../../../../../../BB/../../../../../../../../../../../../../../../../../..][../../../../../../../../../../../../../../../../../../../../../../../../../../../../../../../..]
 	Process OMPI jobid: [28559,1] App: 0 Process rank: 2 Bound: socket 1[core 58[hwt 0-1]]:[../../../../../../../../../../../../../../../../../../../../../../../../../../../../../../../..][../../../../../../../../../../../../../../../../../../../../../../../../../../BB/../../../../..]
 	Process OMPI jobid: [28559,1] App: 0 Process rank: 3 Bound: socket 0[core 15[hwt 0-1]]:[../../../../../../../../../../../../../../../BB/../../../../../../../../../../../../../../../..][../../../../../../../../../../../../../../../../../../../../../../../../../../../../../../../..]
 	Process OMPI jobid: [28559,1] App: 0 Process rank: 4 Bound: socket 0[core 12[hwt 0-1]]:[../../../../../../../../../../../../BB/../../../../../../../../../../../../../../../../../../..][../../../../../../../../../../../../../../../../../../../../../../../../../../../../../../../..]
 	Process OMPI jobid: [28559,1] App: 0 Process rank: 5 Bound: socket 1[core 57[hwt 0-1]]:[../../../../../../../../../../../../../../../../../../../../../../../../../../../../../../../..][../../../../../../../../../../../../../../../../../../../../../../../../../BB/../../../../../..]
 	Process OMPI jobid: [28559,1] App: 0 Process rank: 6 Bound: socket 0[core 14[hwt 0-1]]:[../../../../../../../../../../../../../../BB/../../../../../../../../../../../../../../../../..][../../../../../../../../../../../../../../../../../../../../../../../../../../../../../../../..]
 	Process OMPI jobid: [28559,1] App: 0 Process rank: 7 Bound: socket 1[core 59[hwt 0-1]]:[../../../../../../../../../../../../../../../../../../../../../../../../../../../../../../../..][../../../../../../../../../../../../../../../../../../../../../../../../../../../BB/../../../..]

 =============================================================
2 3 1
2 0 0
2 1 3
3 0 2
3 1 1
3 2 0
4 5 7
4 6 6
4 7 5
5 6 4
5 7 7
5 4 6
6 7 5
6 4 4
6 5 7
7 4 6
7 5 5
7 6 4
Two group cota
0 1 3
0 2 2
0 3 1
1 2 0
1 3 3
1 0 2
dune-size 1 2.33639e-05 2.33927e-05 2.2137e-05 2.27337e-05 2.04121e-05 2.03626e-05 1.91193e-05 1.97312e-05 
dune-size 2 1.65127e-05 1.64702e-05 1.65157e-05 1.64909e-05 1.67901e-05 1.67737e-05 1.6735e-05 1.67526e-05 
dune-size 4 1.71447e-05 1.70979e-05 1.71411e-05 1.71191e-05 1.80302e-05 1.80156e-05 1.79571e-05 1.79847e-05 
dune-size 8 1.86571e-05 1.86082e-05 1.86543e-05 1.86259e-05 1.86666e-05 1.86559e-05 1.85919e-05 1.8635e-05 
dune-size 16 1.91067e-05 1.90867e-05 1.91092e-05 1.90881e-05 2.08194e-05 2.07742e-05 2.07363e-05 2.08001e-05 
dune-size 32 1.72412e-05 1.7272e-05 1.72561e-05 1.72709e-05 2.08352e-05 2.0852e-05 2.08866e-05 2.08625e-05 
dune-size 64 2.23903e-05 2.24712e-05 2.23997e-05 2.24732e-05 2.23448e-05 2.24368e-05 2.23741e-05 2.24388e-05 
dune-size 128 3.22926e-05 3.23564e-05 3.23173e-05 3.23412e-05 3.23141e-05 3.2347e-05 3.2318e-05 3.23518e-05 
dune-size 256 5.2981e-05 5.30851e-05 5.30261e-05 5.30865e-05 5.30984e-05 5.3006e-05 5.30973e-05 5.30347e-05 
dune-size 512 9.46902e-05 9.49054e-05 9.47648e-05 9.48673e-05 9.49036e-05 9.47194e-05 9.48893e-05 9.47746e-05 
dune-size 1024 0.00027695 0.000276743 0.00027643 0.000276466 0.000274864 0.000274545 0.000274587 0.00027491 
dune-size 2048 0.000494108 0.000494239 0.000495125 0.000494702 0.000498462 0.000497879 0.000497985 0.000498856 
dune-size 4096 0.000824578 0.000822882 0.000822752 0.000823781 0.000833784 0.0008346 0.000832796 0.000832874 
dune-size 8192 0.00140682 0.00140614 0.00140434 0.00140433 0.00135192 0.00135014 0.00134996 0.00135351 
dune-size 16384 0.00249973 0.0024997 0.00249615 0.00249594 0.00253079 0.00253209 0.00252708 0.00252697 
dune-size 32768 0.00487797 0.00487675 0.00487458 0.00487454 0.00489058 0.00489398 0.00488843 0.00488849 
dune-size 65536 0.00980794 0.00980281 0.00981052 0.00980285 0.00977859 0.00978636 0.00977935 0.00978584 
dune-size 131072 0.0195503 0.019578 0.0195407 0.019566 0.0195781 0.0195091 0.0195749 0.0195093 
