 Data for JOB [40668,1] offset 0 Total slots allocated 2

 ========================   JOB MAP   ========================

 Data for node: n001	Num slots: 2	Max slots: 0	Num procs: 2
 	Process OMPI jobid: [40668,1] App: 0 Process rank: 0 Bound: socket 0[core 1[hwt 0-1]]:[../BB/../../../../../../../../../../../../../../../../../../../../../../../../../../../../../..][../../../../../../../../../../../../../../../../../../../../../../../../../../../../../../../..]
 	Process OMPI jobid: [40668,1] App: 0 Process rank: 1 Bound: socket 1[core 58[hwt 0-1]]:[../../../../../../../../../../../../../../../../../../../../../../../../../../../../../../../..][../../../../../../../../../../../../../../../../../../../../../../../../../../BB/../../../../..]

 =============================================================
dune-size 1 5.53949e-06 5.54129e-06 
dune-size 2 6.21088e-06 6.22008e-06 
dune-size 4 5.39758e-06 5.40288e-06 
dune-size 8 5.67799e-06 5.67899e-06 
dune-size 16 6.07768e-06 6.08158e-06 
dune-size 32 6.95698e-06 6.96048e-06 
dune-size 64 8.74598e-06 8.74168e-06 
dune-size 128 1.2349e-05 1.2356e-05 
dune-size 256 1.95989e-05 1.96093e-05 
dune-size 512 3.37779e-05 3.37775e-05 
dune-size 1024 0.000109338 0.000109313 
dune-size 2048 0.000198045 0.000198035 
dune-size 4096 0.000380185 0.000380182 
dune-size 8192 0.00066483 0.000664848 
dune-size 16384 0.000957866 0.00095785 
dune-size 32768 0.00168662 0.00168648 
dune-size 65536 0.00349179 0.00349259 
dune-size 131072 0.00659119 0.00658561 
dune-size 262144 0.0129492 0.0129506 
dune-size 524288 0.0258474 0.0258705 
dune-size 1048576 0.0513647 0.0514047 
