 Data for JOB [4108,1] offset 0 Total slots allocated 2

 ========================   JOB MAP   ========================

 Data for node: n001	Num slots: 2	Max slots: 0	Num procs: 2
 	Process OMPI jobid: [4108,1] App: 0 Process rank: 0 Bound: socket 1[core 57[hwt 0-1]]:[../../../../../../../../../../../../../../../../../../../../../../../../../../../../../../../..][../../../../../../../../../../../../../../../../../../../../../../../../../BB/../../../../../..]
 	Process OMPI jobid: [4108,1] App: 0 Process rank: 1 Bound: socket 1[core 34[hwt 0-1]]:[../../../../../../../../../../../../../../../../../../../../../../../../../../../../../../../..][../../BB/../../../../../../../../../../../../../../../../../../../../../../../../../../../../..]

 =============================================================
dune-size 1 4.18889e-06 4.18709e-06 
dune-size 2 3.9312e-06 3.9309e-06 
dune-size 4 5.13909e-06 5.13729e-06 
dune-size 8 4.37749e-06 4.37979e-06 
dune-size 16 4.74079e-06 4.74409e-06 
dune-size 32 5.56599e-06 5.56419e-06 
dune-size 64 7.33108e-06 7.32598e-06 
dune-size 128 1.05909e-05 1.05918e-05 
dune-size 256 1.74579e-05 1.74601e-05 
dune-size 512 3.17402e-05 3.17369e-05 
dune-size 1024 8.54153e-05 8.5443e-05 
dune-size 2048 0.000156576 0.000156549 
dune-size 4096 0.000304023 0.000304025 
dune-size 8192 0.000550879 0.000550887 
dune-size 16384 0.000865715 0.000865735 
dune-size 32768 0.00164933 0.00164933 
dune-size 65536 0.00323561 0.00323593 
dune-size 131072 0.00639061 0.00639151 
dune-size 262144 0.0128492 0.0128315 
dune-size 524288 0.0253389 0.0253482 
dune-size 1048576 0.0511039 0.0510522 
