[1578476948.129735] [srl-login1:30796:0]         mxm.c:196  MXM  WARN  The 'ulimit -s' on the system is set to 'unlimited'. This may have negative performance implications. Please set the stack size to the default value (10240) 
[1578476948.129726] [srl-login1:30797:0]         mxm.c:196  MXM  WARN  The 'ulimit -s' on the system is set to 'unlimited'. This may have negative performance implications. Please set the stack size to the default value (10240) 
0: 11 
Edge Weight Method: 11
Cell on rank 0: 22088
Cell on rank 1: 22343
Edge-cut: 5307449
After loadbalancing process 1 has 22990 cells.
After loadbalancing process 0 has 22700 cells.

Rank 0 ghostCells: 612
Rank 1 ghostCells: 647

Rank 0 numCells: 22700
Rank 1 numCells: 22990

Rank 0 interiorCells: 22088
Rank 1 interiorCells: 22343

ComTab rank 0: 0 612 
ComTab rank 1: 647 0 

Edge-cut: 1010

Wgt-cut: 5.295e-09

[1578476952.260504] [srl-login1:30797:0]          mpool.c:38   UCX  WARN  object 0x55555d921780 was not returned to mpool ucp_am_bufs
