 Data for JOB [58528,1] offset 0 Total slots allocated 2

 ========================   JOB MAP   ========================

 Data for node: n001	Num slots: 2	Max slots: 0	Num procs: 2
 	Process OMPI jobid: [58528,1] App: 0 Process rank: 0 Bound: socket 0[core 17[hwt 0-1]]:[../../../../../../../../../../../../../../../../../BB/../../../../../../../../../../../../../..][../../../../../../../../../../../../../../../../../../../../../../../../../../../../../../../..]
 	Process OMPI jobid: [58528,1] App: 0 Process rank: 1 Bound: socket 1[core 58[hwt 0-1]]:[../../../../../../../../../../../../../../../../../../../../../../../../../../../../../../../..][../../../../../../../../../../../../../../../../../../../../../../../../../../BB/../../../../..]

 =============================================================
dune-size 1 5.33639e-06 5.33549e-06 
dune-size 2 6.01659e-06 6.01789e-06 
dune-size 4 5.25019e-06 5.25029e-06 
dune-size 8 5.43279e-06 5.43309e-06 
dune-size 16 5.87589e-06 5.87449e-06 
dune-size 32 6.71858e-06 6.71768e-06 
dune-size 64 8.63488e-06 8.63428e-06 
dune-size 128 1.26419e-05 1.26761e-05 
dune-size 256 1.93784e-05 1.93785e-05 
dune-size 512 3.33586e-05 3.33618e-05 
dune-size 1024 0.000106791 0.000106809 
dune-size 2048 0.000195021 0.000195016 
dune-size 4096 0.000371626 0.000371609 
dune-size 8192 0.000637533 0.00063754 
dune-size 16384 0.000929411 0.000929436 
dune-size 32768 0.00169559 0.00169547 
dune-size 65536 0.00337659 0.0033739 
dune-size 131072 0.00658019 0.00657234 
dune-size 262144 0.0131399 0.0131352 
dune-size 524288 0.0257792 0.0257832 
dune-size 1048576 0.0514917 0.0515383 
