 Data for JOB [34724,1] offset 0 Total slots allocated 4

 ========================   JOB MAP   ========================

 Data for node: n004	Num slots: 4	Max slots: 0	Num procs: 4
 	Process OMPI jobid: [34724,1] App: 0 Process rank: 0 Bound: socket 1[core 49[hwt 0-1]]:[../../../../../../../../../../../../../../../../../../../../../../../../../../../../../../../..][../../../../../../../../../../../../../../../../../BB/../../../../../../../../../../../../../..]
 	Process OMPI jobid: [34724,1] App: 0 Process rank: 1 Bound: socket 0[core 11[hwt 0-1]]:[../../../../../../../../../../../BB/../../../../../../../../../../../../../../../../../../../..][../../../../../../../../../../../../../../../../../../../../../../../../../../../../../../../..]
 	Process OMPI jobid: [34724,1] App: 0 Process rank: 2 Bound: socket 1[core 50[hwt 0-1]]:[../../../../../../../../../../../../../../../../../../../../../../../../../../../../../../../..][../../../../../../../../../../../../../../../../../../BB/../../../../../../../../../../../../..]
 	Process OMPI jobid: [34724,1] App: 0 Process rank: 3 Bound: socket 0[core 12[hwt 0-1]]:[../../../../../../../../../../../../BB/../../../../../../../../../../../../../../../../../../..][../../../../../../../../../../../../../../../../../../../../../../../../../../../../../../../..]

 =============================================================
3 2 2
Two group cota
0 1 1
2 3 3
1 0 0
dune-size 1 9.45031e-06 9.10361e-06 9.62351e-06 9.26951e-06 
dune-size 2 8.67601e-06 8.67791e-06 8.83071e-06 8.82481e-06 
dune-size 4 9.37361e-06 9.37221e-06 9.54011e-06 9.52961e-06 
dune-size 8 9.44331e-06 9.44011e-06 9.12721e-06 9.12521e-06 
dune-size 16 7.97601e-06 7.97481e-06 8.12371e-06 8.11771e-06 
dune-size 32 9.94091e-06 9.93301e-06 1.00261e-05 1.00179e-05 
dune-size 64 1.17015e-05 1.17067e-05 1.2673e-05 1.26509e-05 
dune-size 128 1.68483e-05 1.68468e-05 1.94082e-05 1.93708e-05 
dune-size 256 1.99511e-05 1.99474e-05 2.0393e-05 2.03893e-05 
dune-size 512 3.31467e-05 3.30868e-05 3.31051e-05 3.3103e-05 
dune-size 1024 0.000109688 0.000109691 0.000105463 0.000105439 
dune-size 2048 0.000202086 0.000202068 0.000199803 0.000199786 
dune-size 4096 0.000381199 0.00038118 0.000381056 0.000381022 
dune-size 8192 0.000649089 0.000649048 0.000623596 0.000623653 
dune-size 16384 0.00109299 0.00109294 0.00113668 0.00113661 
dune-size 32768 0.00176442 0.00176426 0.00178242 0.00178232 
dune-size 65536 0.00328828 0.00328559 0.0032931 0.00328953 
dune-size 131072 0.00661851 0.00660659 0.00661093 0.0065997 
