[1578557792.218835] [srl-mds1:29901:0]         mxm.c:196  MXM  WARN  The 'ulimit -s' on the system is set to 'unlimited'. This may have negative performance implications. Please set the stack size to the default value (10240) 
[1578557792.218839] [srl-mds1:29902:0]         mxm.c:196  MXM  WARN  The 'ulimit -s' on the system is set to 'unlimited'. This may have negative performance implications. Please set the stack size to the default value (10240) 
[1578557792.218965] [srl-mds1:29899:0]         mxm.c:196  MXM  WARN  The 'ulimit -s' on the system is set to 'unlimited'. This may have negative performance implications. Please set the stack size to the default value (10240) 
[1578557792.218965] [srl-mds1:29900:0]         mxm.c:196  MXM  WARN  The 'ulimit -s' on the system is set to 'unlimited'. This may have negative performance implications. Please set the stack size to the default value (10240) 
0: 0 

Rank 0 ghostCells: 305
Rank 1 ghostCells: 364
Rank 2 ghostCells: 1058
Rank 3 ghostCells: 532

Rank 0 numCells: 12398
Rank 1 numCells: 9593
Rank 2 numCells: 12586
Rank 3 numCells: 12113

Rank 0 interiorCells: 12093
Rank 1 interiorCells: 9229
Rank 2 interiorCells: 11528
Rank 3 interiorCells: 11581

MeasComm+1 4: 3.3326e-05 3.6902e-05 5.5499e-05 4.7565e-05 
MeasComm+1 4: 3.3832e-05 3.6811e-05 5.5149e-05 4.7166e-05 
MeasComm+1 4: 3.414e-05 3.7417e-05 5.5563e-05 4.7704e-05 
MeasComm+1 4: 3.3441e-05 3.7188e-05 5.4701e-05 4.6411e-05 
MeasComm+1 4: 3.3462e-05 2.998e-05 5.4594e-05 4.7523e-05 
MeasComm+1 4: 3.3527e-05 3.6977e-05 5.5451e-05 4.7725e-05 
MeasComm+1 4: 3.3727e-05 3.7305e-05 5.5681e-05 4.7992e-05 
MeasComm+1 4: 3.409e-05 3.7901e-05 5.6876e-05 4.8946e-05 
MeasComm+1 4: 3.3447e-05 3.7058e-05 5.473e-05 4.6631e-05 
MeasComm+1 4: 3.3411e-05 3.7053e-05 5.5149e-05 4.701e-05 

ComTab rank 0: 0 70 236 9 
ComTab rank 1: 59 0 312 0 
ComTab rank 2: 229 309 0 530 
ComTab rank 3: 9 0 526 0 

Edge-cut: 1427

Wgt-cut: 1.35161e-08

[1578557797.177594] [srl-mds1:29900:0]          mpool.c:38   UCX  WARN  object 0x155539500f60 was not returned to mpool mm_recv_desc
[1578557797.178542] [srl-mds1:29901:0]          mpool.c:38   UCX  WARN  object 0x1555394feee0 was not returned to mpool mm_recv_desc
[1578557797.178582] [srl-mds1:29902:0]          mpool.c:38   UCX  WARN  object 0x1555394fce60 was not returned to mpool mm_recv_desc
