[1578557786.055755] [srl-adm2:43229:0]         mxm.c:196  MXM  WARN  The 'ulimit -s' on the system is set to 'unlimited'. This may have negative performance implications. Please set the stack size to the default value (10240) 
[1578557786.056744] [srl-adm2:43228:0]         mxm.c:196  MXM  WARN  The 'ulimit -s' on the system is set to 'unlimited'. This may have negative performance implications. Please set the stack size to the default value (10240) 
0: 0 

Rank 0 ghostCells: 609
Rank 1 ghostCells: 602

Rank 0 numCells: 24886
Rank 1 numCells: 20756

Rank 0 interiorCells: 24277
Rank 1 interiorCells: 20154

MeasComm+1 2: 3.1763e-05 3.2212e-05 
MeasComm+1 2: 3.1525e-05 3.2259e-05 
MeasComm+1 2: 3.184e-05 3.18e-05 
MeasComm+1 2: 3.1716e-05 3.2305e-05 
MeasComm+1 2: 3.1432e-05 3.2092e-05 
MeasComm+1 2: 3.177e-05 3.2059e-05 
MeasComm+1 2: 3.1716e-05 3.205e-05 
MeasComm+1 2: 3.2405e-05 3.2932e-05 
MeasComm+1 2: 3.3047e-05 3.3349e-05 
MeasComm+1 2: 3.2634e-05 3.317e-05 

ComTab rank 0: 0 609 
ComTab rank 1: 602 0 

Edge-cut: 798

Wgt-cut: 6.38405e-09

[1578557792.648042] [srl-adm2:43229:0]          mpool.c:38   UCX  WARN  object 0x5555588d7880 was not returned to mpool ucp_am_bufs
