[1578557794.621633] [srl-adm2:43326:0]         mxm.c:196  MXM  WARN  The 'ulimit -s' on the system is set to 'unlimited'. This may have negative performance implications. Please set the stack size to the default value (10240) 
[1578557794.623073] [srl-adm2:43319:0]         mxm.c:196  MXM  WARN  The 'ulimit -s' on the system is set to 'unlimited'. This may have negative performance implications. Please set the stack size to the default value (10240) 
[1578557794.622949] [srl-adm2:43323:0]         mxm.c:196  MXM  WARN  The 'ulimit -s' on the system is set to 'unlimited'. This may have negative performance implications. Please set the stack size to the default value (10240) 
[1578557794.623506] [srl-adm2:43327:0]         mxm.c:196  MXM  WARN  The 'ulimit -s' on the system is set to 'unlimited'. This may have negative performance implications. Please set the stack size to the default value (10240) 
[1578557794.624074] [srl-adm2:43313:0]         mxm.c:196  MXM  WARN  The 'ulimit -s' on the system is set to 'unlimited'. This may have negative performance implications. Please set the stack size to the default value (10240) 
[1578557794.624146] [srl-adm2:43315:0]         mxm.c:196  MXM  WARN  The 'ulimit -s' on the system is set to 'unlimited'. This may have negative performance implications. Please set the stack size to the default value (10240) 
[1578557794.624157] [srl-adm2:43311:0]         mxm.c:196  MXM  WARN  The 'ulimit -s' on the system is set to 'unlimited'. This may have negative performance implications. Please set the stack size to the default value (10240) 
[1578557794.624328] [srl-adm2:43316:0]         mxm.c:196  MXM  WARN  The 'ulimit -s' on the system is set to 'unlimited'. This may have negative performance implications. Please set the stack size to the default value (10240) 
[1578557794.624888] [srl-adm2:43324:0]         mxm.c:196  MXM  WARN  The 'ulimit -s' on the system is set to 'unlimited'. This may have negative performance implications. Please set the stack size to the default value (10240) 
[1578557794.625176] [srl-adm2:43312:0]         mxm.c:196  MXM  WARN  The 'ulimit -s' on the system is set to 'unlimited'. This may have negative performance implications. Please set the stack size to the default value (10240) 
[1578557794.625277] [srl-adm2:43321:0]         mxm.c:196  MXM  WARN  The 'ulimit -s' on the system is set to 'unlimited'. This may have negative performance implications. Please set the stack size to the default value (10240) 
[1578557794.625357] [srl-adm2:43325:0]         mxm.c:196  MXM  WARN  The 'ulimit -s' on the system is set to 'unlimited'. This may have negative performance implications. Please set the stack size to the default value (10240) 
[1578557794.626774] [srl-adm2:43320:0]         mxm.c:196  MXM  WARN  The 'ulimit -s' on the system is set to 'unlimited'. This may have negative performance implications. Please set the stack size to the default value (10240) 
[1578557794.626905] [srl-adm2:43318:0]         mxm.c:196  MXM  WARN  The 'ulimit -s' on the system is set to 'unlimited'. This may have negative performance implications. Please set the stack size to the default value (10240) 
[1578557794.627089] [srl-adm2:43314:0]         mxm.c:196  MXM  WARN  The 'ulimit -s' on the system is set to 'unlimited'. This may have negative performance implications. Please set the stack size to the default value (10240) 
[1578557794.627729] [srl-adm2:43322:0]         mxm.c:196  MXM  WARN  The 'ulimit -s' on the system is set to 'unlimited'. This may have negative performance implications. Please set the stack size to the default value (10240) 
0: 0 

Rank 0 ghostCells: 726
Rank 1 ghostCells: 487
Rank 2 ghostCells: 684
Rank 3 ghostCells: 431
Rank 4 ghostCells: 732
Rank 5 ghostCells: 493
Rank 6 ghostCells: 789
Rank 7 ghostCells: 758
Rank 8 ghostCells: 477
Rank 9 ghostCells: 550
Rank 10 ghostCells: 391
Rank 11 ghostCells: 246
Rank 12 ghostCells: 633
Rank 13 ghostCells: 582
Rank 14 ghostCells: 304
Rank 15 ghostCells: 507

Rank 0 numCells: 3517
Rank 1 numCells: 3147
Rank 2 numCells: 3604
Rank 3 numCells: 2818
Rank 4 numCells: 3786
Rank 5 numCells: 2959
Rank 6 numCells: 3651
Rank 7 numCells: 3134
Rank 8 numCells: 3448
Rank 9 numCells: 3521
Rank 10 numCells: 3118
Rank 11 numCells: 2929
Rank 12 numCells: 3390
Rank 13 numCells: 3598
Rank 14 numCells: 3131
Rank 15 numCells: 3470

Rank 0 interiorCells: 2791
Rank 1 interiorCells: 2660
Rank 2 interiorCells: 2920
Rank 3 interiorCells: 2387
Rank 4 interiorCells: 3054
Rank 5 interiorCells: 2466
Rank 6 interiorCells: 2862
Rank 7 interiorCells: 2376
Rank 8 interiorCells: 2971
Rank 9 interiorCells: 2971
Rank 10 interiorCells: 2727
Rank 11 interiorCells: 2683
Rank 12 interiorCells: 2757
Rank 13 interiorCells: 3016
Rank 14 interiorCells: 2827
Rank 15 interiorCells: 2963

MeasComm+1 16: 4.2533e-05 2.7771e-05 3.9277e-05 2.7162e-05 4.3772e-05 3.857e-05 4.3996e-05 4.9511e-05 3.6107e-05 3.8849e-05 2.5725e-05 2.3692e-05 4.5409e-05 3.5063e-05 2.7512e-05 2.9506e-05 
MeasComm+1 16: 4.2192e-05 2.7883e-05 3.9043e-05 2.7348e-05 4.3723e-05 3.8817e-05 4.3651e-05 4.8927e-05 3.5225e-05 3.8676e-05 2.5755e-05 2.2785e-05 4.523e-05 3.4706e-05 2.7464e-05 2.9409e-05 
MeasComm+1 16: 4.1572e-05 2.7601e-05 3.9236e-05 2.6502e-05 4.3659e-05 3.8544e-05 4.3194e-05 4.9442e-05 3.5589e-05 3.8385e-05 2.5637e-05 2.3717e-05 4.5101e-05 3.4843e-05 2.7208e-05 2.9448e-05 
MeasComm+1 16: 4.1172e-05 2.7642e-05 3.9277e-05 2.6525e-05 4.3816e-05 3.8755e-05 4.3746e-05 4.9257e-05 3.5761e-05 3.8529e-05 2.6124e-05 2.3794e-05 4.5169e-05 3.4662e-05 2.7695e-05 2.9565e-05 
MeasComm+1 16: 4.1628e-05 2.7915e-05 3.9098e-05 2.7273e-05 4.3539e-05 3.8471e-05 4.3277e-05 4.9501e-05 3.5704e-05 3.8492e-05 2.5977e-05 2.3587e-05 4.5241e-05 3.4425e-05 2.7429e-05 2.9258e-05 
MeasComm+1 16: 4.1165e-05 2.8031e-05 3.9175e-05 2.7231e-05 4.3811e-05 3.8408e-05 4.3588e-05 4.918e-05 3.5977e-05 3.836e-05 2.5829e-05 2.3615e-05 4.5376e-05 3.4674e-05 2.6716e-05 2.9298e-05 
MeasComm+1 16: 4.2637e-05 2.7695e-05 3.9214e-05 2.6521e-05 4.3684e-05 3.8715e-05 4.3719e-05 4.9462e-05 3.5725e-05 3.8537e-05 2.5656e-05 2.3587e-05 4.5327e-05 3.4779e-05 2.7285e-05 2.9282e-05 
MeasComm+1 16: 4.1716e-05 2.794e-05 3.9258e-05 2.6628e-05 4.3619e-05 3.8341e-05 4.3614e-05 4.8972e-05 3.5825e-05 3.8699e-05 2.5552e-05 2.3363e-05 4.4954e-05 3.4831e-05 2.7368e-05 2.9424e-05 
MeasComm+1 16: 4.2215e-05 2.7667e-05 3.9287e-05 2.646e-05 4.3834e-05 3.8129e-05 4.3461e-05 4.9159e-05 3.5757e-05 3.8379e-05 2.5952e-05 2.3806e-05 4.5316e-05 3.4769e-05 2.71e-05 2.9418e-05 
MeasComm+1 16: 4.2403e-05 2.7743e-05 3.9278e-05 2.6918e-05 4.3863e-05 3.868e-05 4.3693e-05 4.8882e-05 3.5577e-05 3.8626e-05 2.5914e-05 2.37e-05 4.4948e-05 3.4844e-05 2.7011e-05 2.9291e-05 

ComTab rank 0: 0 262 246 52 0 12 223 13 0 0 0 0 0 0 0 0 
ComTab rank 1: 270 0 17 215 0 17 0 0 0 0 0 0 0 0 0 0 
ComTab rank 2: 240 17 0 202 183 52 85 0 0 0 0 0 0 0 0 0 
ComTab rank 3: 52 215 200 0 0 14 0 0 0 0 0 0 0 0 0 0 
ComTab rank 4: 0 0 182 0 0 176 222 88 149 46 0 0 4 0 0 0 
ComTab rank 5: 9 9 56 14 212 0 16 142 61 63 0 0 0 0 0 0 
ComTab rank 6: 223 0 88 0 214 16 0 332 0 0 0 0 7 2 0 0 
ComTab rank 7: 14 0 0 0 82 139 291 0 13 6 0 0 204 124 0 0 
ComTab rank 8: 0 0 0 0 149 49 0 13 0 243 0 0 79 0 0 0 
ComTab rank 9: 0 0 0 0 48 59 0 6 233 0 190 46 22 0 0 0 
ComTab rank 10: 0 0 0 0 0 0 0 0 0 185 0 213 0 0 0 0 
ComTab rank 11: 0 0 0 0 0 0 0 0 0 42 211 0 0 0 0 0 
ComTab rank 12: 0 0 0 0 4 0 7 204 57 22 0 0 0 279 57 65 
ComTab rank 13: 0 0 0 0 0 0 2 124 0 0 0 0 256 0 0 227 
ComTab rank 14: 0 0 0 0 0 0 0 0 0 0 0 0 57 0 0 255 
ComTab rank 15: 0 0 0 0 0 0 0 0 0 0 0 0 66 227 246 0 

Edge-cut: 5434

Wgt-cut: 6.35991e-08

[1578557799.803175] [srl-adm2:43313:0]          mpool.c:38   UCX  WARN  object 0x1555393fbe60 was not returned to mpool mm_recv_desc
[1578557799.803248] [srl-adm2:43320:0]          mpool.c:38   UCX  WARN  object 0x1555393e3860 was not returned to mpool mm_recv_desc
[1578557799.803183] [srl-adm2:43312:0]          mpool.c:38   UCX  WARN  object 0x55555c058d40 was not returned to mpool ucp_am_bufs
[1578557799.803424] [srl-adm2:43315:0]          mpool.c:38   UCX  WARN  object 0x1555393f1be0 was not returned to mpool mm_recv_desc
