 Data for JOB [7266,1] offset 0 Total slots allocated 4

 ========================   JOB MAP   ========================

 Data for node: n003	Num slots: 4	Max slots: 0	Num procs: 4
 	Process OMPI jobid: [7266,1] App: 0 Process rank: 0 Bound: socket 1[core 57[hwt 0-1]]:[../../../../../../../../../../../../../../../../../../../../../../../../../../../../../../../..][../../../../../../../../../../../../../../../../../../../../../../../../../BB/../../../../../..]
 	Process OMPI jobid: [7266,1] App: 0 Process rank: 1 Bound: socket 1[core 43[hwt 0-1]]:[../../../../../../../../../../../../../../../../../../../../../../../../../../../../../../../..][../../../../../../../../../../../BB/../../../../../../../../../../../../../../../../../../../..]
 	Process OMPI jobid: [7266,1] App: 0 Process rank: 2 Bound: socket 1[core 44[hwt 0-1]]:[../../../../../../../../../../../../../../../../../../../../../../../../../../../../../../../..][../../../../../../../../../../../../BB/../../../../../../../../../../../../../../../../../../..]
 	Process OMPI jobid: [7266,1] App: 0 Process rank: 3 Bound: socket 1[core 58[hwt 0-1]]:[../../../../../../../../../../../../../../../../../../../../../../../../../../../../../../../..][../../../../../../../../../../../../../../../../../../../../../../../../../../BB/../../../../..]

 =============================================================
2 3 3
1 0 0
Two group cota
0 1 1
3 2 2
dune-size 1 4.16759e-06 4.16459e-06 4.18309e-06 4.18329e-06 
dune-size 2 3.89199e-06 3.89259e-06 4.14689e-06 4.14719e-06 
dune-size 4 4.10209e-06 4.10489e-06 4.18289e-06 4.18619e-06 
dune-size 8 4.28609e-06 4.28959e-06 4.48939e-06 4.49199e-06 
dune-size 16 4.71189e-06 4.71639e-06 4.80059e-06 4.80469e-06 
dune-size 32 5.45609e-06 5.45839e-06 5.62049e-06 5.62179e-06 
dune-size 64 7.11759e-06 7.12019e-06 7.27609e-06 7.27829e-06 
dune-size 128 1.04133e-05 1.04126e-05 1.045e-05 1.04513e-05 
dune-size 256 1.72036e-05 1.7198e-05 1.74046e-05 1.73997e-05 
dune-size 512 3.02461e-05 3.02471e-05 3.05756e-05 3.0576e-05 
dune-size 1024 8.51568e-05 8.51276e-05 8.6044e-05 8.60332e-05 
dune-size 2048 0.000156683 0.000156692 0.000157573 0.000157547 
dune-size 4096 0.000305395 0.000305391 0.000307304 0.000307294 
dune-size 8192 0.000574606 0.000574597 0.000537448 0.000537443 
dune-size 16384 0.000848488 0.000848476 0.000890159 0.000890149 
dune-size 32768 0.00162599 0.00162591 0.00162817 0.00162813 
dune-size 65536 0.00325266 0.00325216 0.0032461 0.00324624 
dune-size 131072 0.00651844 0.00651676 0.00651012 0.00651397 
