 Data for JOB [7720,1] offset 0 Total slots allocated 32

 ========================   JOB MAP   ========================

 Data for node: srl-login1	Num slots: 32	Max slots: 0	Num procs: 32
 	Process OMPI jobid: [7720,1] App: 0 Process rank: 0 Bound: socket 0[core 0[hwt 0-1]]:[BB/../../../../../../../../../../../../../../..][../../../../../../../../../../../../../../../..]
 	Process OMPI jobid: [7720,1] App: 0 Process rank: 1 Bound: socket 0[core 1[hwt 0-1]]:[../BB/../../../../../../../../../../../../../..][../../../../../../../../../../../../../../../..]
 	Process OMPI jobid: [7720,1] App: 0 Process rank: 2 Bound: socket 0[core 2[hwt 0-1]]:[../../BB/../../../../../../../../../../../../..][../../../../../../../../../../../../../../../..]
 	Process OMPI jobid: [7720,1] App: 0 Process rank: 3 Bound: socket 0[core 3[hwt 0-1]]:[../../../BB/../../../../../../../../../../../..][../../../../../../../../../../../../../../../..]
 	Process OMPI jobid: [7720,1] App: 0 Process rank: 4 Bound: socket 0[core 4[hwt 0-1]]:[../../../../BB/../../../../../../../../../../..][../../../../../../../../../../../../../../../..]
 	Process OMPI jobid: [7720,1] App: 0 Process rank: 5 Bound: socket 0[core 5[hwt 0-1]]:[../../../../../BB/../../../../../../../../../..][../../../../../../../../../../../../../../../..]
 	Process OMPI jobid: [7720,1] App: 0 Process rank: 6 Bound: socket 0[core 6[hwt 0-1]]:[../../../../../../BB/../../../../../../../../..][../../../../../../../../../../../../../../../..]
 	Process OMPI jobid: [7720,1] App: 0 Process rank: 7 Bound: socket 0[core 7[hwt 0-1]]:[../../../../../../../BB/../../../../../../../..][../../../../../../../../../../../../../../../..]
 	Process OMPI jobid: [7720,1] App: 0 Process rank: 8 Bound: socket 0[core 8[hwt 0-1]]:[../../../../../../../../BB/../../../../../../..][../../../../../../../../../../../../../../../..]
 	Process OMPI jobid: [7720,1] App: 0 Process rank: 9 Bound: socket 0[core 9[hwt 0-1]]:[../../../../../../../../../BB/../../../../../..][../../../../../../../../../../../../../../../..]
 	Process OMPI jobid: [7720,1] App: 0 Process rank: 10 Bound: socket 0[core 10[hwt 0-1]]:[../../../../../../../../../../BB/../../../../..][../../../../../../../../../../../../../../../..]
 	Process OMPI jobid: [7720,1] App: 0 Process rank: 11 Bound: socket 0[core 11[hwt 0-1]]:[../../../../../../../../../../../BB/../../../..][../../../../../../../../../../../../../../../..]
 	Process OMPI jobid: [7720,1] App: 0 Process rank: 12 Bound: socket 0[core 12[hwt 0-1]]:[../../../../../../../../../../../../BB/../../..][../../../../../../../../../../../../../../../..]
 	Process OMPI jobid: [7720,1] App: 0 Process rank: 13 Bound: socket 0[core 13[hwt 0-1]]:[../../../../../../../../../../../../../BB/../..][../../../../../../../../../../../../../../../..]
 	Process OMPI jobid: [7720,1] App: 0 Process rank: 14 Bound: socket 0[core 14[hwt 0-1]]:[../../../../../../../../../../../../../../BB/..][../../../../../../../../../../../../../../../..]
 	Process OMPI jobid: [7720,1] App: 0 Process rank: 15 Bound: socket 0[core 15[hwt 0-1]]:[../../../../../../../../../../../../../../../BB][../../../../../../../../../../../../../../../..]
 	Process OMPI jobid: [7720,1] App: 0 Process rank: 16 Bound: socket 1[core 16[hwt 0-1]]:[../../../../../../../../../../../../../../../..][BB/../../../../../../../../../../../../../../..]
 	Process OMPI jobid: [7720,1] App: 0 Process rank: 17 Bound: socket 1[core 17[hwt 0-1]]:[../../../../../../../../../../../../../../../..][../BB/../../../../../../../../../../../../../..]
 	Process OMPI jobid: [7720,1] App: 0 Process rank: 18 Bound: socket 1[core 18[hwt 0-1]]:[../../../../../../../../../../../../../../../..][../../BB/../../../../../../../../../../../../..]
 	Process OMPI jobid: [7720,1] App: 0 Process rank: 19 Bound: socket 1[core 19[hwt 0-1]]:[../../../../../../../../../../../../../../../..][../../../BB/../../../../../../../../../../../..]
 	Process OMPI jobid: [7720,1] App: 0 Process rank: 20 Bound: socket 1[core 20[hwt 0-1]]:[../../../../../../../../../../../../../../../..][../../../../BB/../../../../../../../../../../..]
 	Process OMPI jobid: [7720,1] App: 0 Process rank: 21 Bound: socket 1[core 21[hwt 0-1]]:[../../../../../../../../../../../../../../../..][../../../../../BB/../../../../../../../../../..]
 	Process OMPI jobid: [7720,1] App: 0 Process rank: 22 Bound: socket 1[core 22[hwt 0-1]]:[../../../../../../../../../../../../../../../..][../../../../../../BB/../../../../../../../../..]
 	Process OMPI jobid: [7720,1] App: 0 Process rank: 23 Bound: socket 1[core 23[hwt 0-1]]:[../../../../../../../../../../../../../../../..][../../../../../../../BB/../../../../../../../..]
 	Process OMPI jobid: [7720,1] App: 0 Process rank: 24 Bound: socket 1[core 24[hwt 0-1]]:[../../../../../../../../../../../../../../../..][../../../../../../../../BB/../../../../../../..]
 	Process OMPI jobid: [7720,1] App: 0 Process rank: 25 Bound: socket 1[core 25[hwt 0-1]]:[../../../../../../../../../../../../../../../..][../../../../../../../../../BB/../../../../../..]
 	Process OMPI jobid: [7720,1] App: 0 Process rank: 26 Bound: socket 1[core 26[hwt 0-1]]:[../../../../../../../../../../../../../../../..][../../../../../../../../../../BB/../../../../..]
 	Process OMPI jobid: [7720,1] App: 0 Process rank: 27 Bound: socket 1[core 27[hwt 0-1]]:[../../../../../../../../../../../../../../../..][../../../../../../../../../../../BB/../../../..]
 	Process OMPI jobid: [7720,1] App: 0 Process rank: 28 Bound: socket 1[core 28[hwt 0-1]]:[../../../../../../../../../../../../../../../..][../../../../../../../../../../../../BB/../../..]
 	Process OMPI jobid: [7720,1] App: 0 Process rank: 29 Bound: socket 1[core 29[hwt 0-1]]:[../../../../../../../../../../../../../../../..][../../../../../../../../../../../../../BB/../..]
 	Process OMPI jobid: [7720,1] App: 0 Process rank: 30 Bound: socket 1[core 30[hwt 0-1]]:[../../../../../../../../../../../../../../../..][../../../../../../../../../../../../../../BB/..]
 	Process OMPI jobid: [7720,1] App: 0 Process rank: 31 Bound: socket 1[core 31[hwt 0-1]]:[../../../../../../../../../../../../../../../..][../../../../../../../../../../../../../../../BB]

 =============================================================
[1578562019.333399] [srl-login1:18085:0]         mxm.c:196  MXM  WARN  The 'ulimit -s' on the system is set to 'unlimited'. This may have negative performance implications. Please set the stack size to the default value (10240) 
[1578562019.334541] [srl-login1:18051:0]         mxm.c:196  MXM  WARN  The 'ulimit -s' on the system is set to 'unlimited'. This may have negative performance implications. Please set the stack size to the default value (10240) 
[1578562019.336757] [srl-login1:18067:0]         mxm.c:196  MXM  WARN  The 'ulimit -s' on the system is set to 'unlimited'. This may have negative performance implications. Please set the stack size to the default value (10240) 
[1578562019.337293] [srl-login1:18052:0]         mxm.c:196  MXM  WARN  The 'ulimit -s' on the system is set to 'unlimited'. This may have negative performance implications. Please set the stack size to the default value (10240) 
[1578562019.339439] [srl-login1:18097:0]         mxm.c:196  MXM  WARN  The 'ulimit -s' on the system is set to 'unlimited'. This may have negative performance implications. Please set the stack size to the default value (10240) 
[1578562019.340456] [srl-login1:18050:0]         mxm.c:196  MXM  WARN  The 'ulimit -s' on the system is set to 'unlimited'. This may have negative performance implications. Please set the stack size to the default value (10240) 
[1578562019.341543] [srl-login1:18099:0]         mxm.c:196  MXM  WARN  The 'ulimit -s' on the system is set to 'unlimited'. This may have negative performance implications. Please set the stack size to the default value (10240) 
[1578562019.342286] [srl-login1:18111:0]         mxm.c:196  MXM  WARN  The 'ulimit -s' on the system is set to 'unlimited'. This may have negative performance implications. Please set the stack size to the default value (10240) 
[1578562019.342376] [srl-login1:18053:0]         mxm.c:196  MXM  WARN  The 'ulimit -s' on the system is set to 'unlimited'. This may have negative performance implications. Please set the stack size to the default value (10240) 
[1578562019.342441] [srl-login1:18056:0]         mxm.c:196  MXM  WARN  The 'ulimit -s' on the system is set to 'unlimited'. This may have negative performance implications. Please set the stack size to the default value (10240) 
[1578562019.342968] [srl-login1:18091:0]         mxm.c:196  MXM  WARN  The 'ulimit -s' on the system is set to 'unlimited'. This may have negative performance implications. Please set the stack size to the default value (10240) 
[1578562019.344315] [srl-login1:18076:0]         mxm.c:196  MXM  WARN  The 'ulimit -s' on the system is set to 'unlimited'. This may have negative performance implications. Please set the stack size to the default value (10240) 
[1578562019.346253] [srl-login1:18074:0]         mxm.c:196  MXM  WARN  The 'ulimit -s' on the system is set to 'unlimited'. This may have negative performance implications. Please set the stack size to the default value (10240) 
[1578562019.348557] [srl-login1:18057:0]         mxm.c:196  MXM  WARN  The 'ulimit -s' on the system is set to 'unlimited'. This may have negative performance implications. Please set the stack size to the default value (10240) 
[1578562019.349473] [srl-login1:18059:0]         mxm.c:196  MXM  WARN  The 'ulimit -s' on the system is set to 'unlimited'. This may have negative performance implications. Please set the stack size to the default value (10240) 
[1578562019.349571] [srl-login1:18109:0]         mxm.c:196  MXM  WARN  The 'ulimit -s' on the system is set to 'unlimited'. This may have negative performance implications. Please set the stack size to the default value (10240) 
[1578562019.349595] [srl-login1:18058:0]         mxm.c:196  MXM  WARN  The 'ulimit -s' on the system is set to 'unlimited'. This may have negative performance implications. Please set the stack size to the default value (10240) 
[1578562019.349627] [srl-login1:18061:0]         mxm.c:196  MXM  WARN  The 'ulimit -s' on the system is set to 'unlimited'. This may have negative performance implications. Please set the stack size to the default value (10240) 
[1578562019.353183] [srl-login1:18087:0]         mxm.c:196  MXM  WARN  The 'ulimit -s' on the system is set to 'unlimited'. This may have negative performance implications. Please set the stack size to the default value (10240) 
[1578562019.353168] [srl-login1:18103:0]         mxm.c:196  MXM  WARN  The 'ulimit -s' on the system is set to 'unlimited'. This may have negative performance implications. Please set the stack size to the default value (10240) 
[1578562019.353696] [srl-login1:18060:0]         mxm.c:196  MXM  WARN  The 'ulimit -s' on the system is set to 'unlimited'. This may have negative performance implications. Please set the stack size to the default value (10240) 
[1578562019.353702] [srl-login1:18064:0]         mxm.c:196  MXM  WARN  The 'ulimit -s' on the system is set to 'unlimited'. This may have negative performance implications. Please set the stack size to the default value (10240) 
[1578562019.354719] [srl-login1:18065:0]         mxm.c:196  MXM  WARN  The 'ulimit -s' on the system is set to 'unlimited'. This may have negative performance implications. Please set the stack size to the default value (10240) 
[1578562019.354751] [srl-login1:18068:0]         mxm.c:196  MXM  WARN  The 'ulimit -s' on the system is set to 'unlimited'. This may have negative performance implications. Please set the stack size to the default value (10240) 
[1578562019.354767] [srl-login1:18094:0]         mxm.c:196  MXM  WARN  The 'ulimit -s' on the system is set to 'unlimited'. This may have negative performance implications. Please set the stack size to the default value (10240) 
[1578562019.354802] [srl-login1:18062:0]         mxm.c:196  MXM  WARN  The 'ulimit -s' on the system is set to 'unlimited'. This may have negative performance implications. Please set the stack size to the default value (10240) 
[1578562019.354889] [srl-login1:18055:0]         mxm.c:196  MXM  WARN  The 'ulimit -s' on the system is set to 'unlimited'. This may have negative performance implications. Please set the stack size to the default value (10240) 
[1578562019.354905] [srl-login1:18054:0]         mxm.c:196  MXM  WARN  The 'ulimit -s' on the system is set to 'unlimited'. This may have negative performance implications. Please set the stack size to the default value (10240) 
[1578562019.357338] [srl-login1:18066:0]         mxm.c:196  MXM  WARN  The 'ulimit -s' on the system is set to 'unlimited'. This may have negative performance implications. Please set the stack size to the default value (10240) 
[1578562019.357363] [srl-login1:18079:0]         mxm.c:196  MXM  WARN  The 'ulimit -s' on the system is set to 'unlimited'. This may have negative performance implications. Please set the stack size to the default value (10240) 
[1578562019.357325] [srl-login1:18107:0]         mxm.c:196  MXM  WARN  The 'ulimit -s' on the system is set to 'unlimited'. This may have negative performance implications. Please set the stack size to the default value (10240) 
[1578562019.357882] [srl-login1:18063:0]         mxm.c:196  MXM  WARN  The 'ulimit -s' on the system is set to 'unlimited'. This may have negative performance implications. Please set the stack size to the default value (10240) 
0: 11 
Edge Weight Method: 11
Cell on rank 0: 10676
Cell on rank 1: 11895
Cell on rank 2: 10096
Cell on rank 3: 11893
Cell on rank 4: 10098
Cell on rank 5: 12217
Cell on rank 6: 10552
Cell on rank 7: 11204
Cell on rank 8: 10096
Cell on rank 9: 12217
Cell on rank 10: 11526
Cell on rank 11: 10850
Cell on rank 12: 10296
Cell on rank 13: 10789
Cell on rank 14: 12217
Cell on rank 15: 10300
Cell on rank 16: 11468
Cell on rank 17: 11899
Cell on rank 18: 11341
Cell on rank 19: 10480
Cell on rank 20: 11108
Cell on rank 21: 10594
Cell on rank 22: 12217
Cell on rank 23: 10768
Cell on rank 24: 10096
Cell on rank 25: 10093
Cell on rank 26: 10313
Cell on rank 27: 12055
Cell on rank 28: 12217
Cell on rank 29: 11480
Cell on rank 30: 11860
Cell on rank 31: 10496
Edge-cut: -1857715928

Rank 0 ghostCells: 1102
Rank 1 ghostCells: 2273
Rank 2 ghostCells: 2394
Rank 3 ghostCells: 2679
Rank 4 ghostCells: 2800
Rank 5 ghostCells: 3071
Rank 6 ghostCells: 2916
Rank 7 ghostCells: 2631
Rank 8 ghostCells: 942
Rank 9 ghostCells: 1082
Rank 10 ghostCells: 1607
Rank 11 ghostCells: 2358
Rank 12 ghostCells: 2552
Rank 13 ghostCells: 2868
Rank 14 ghostCells: 3314
Rank 15 ghostCells: 1929
Rank 16 ghostCells: 2783
Rank 17 ghostCells: 2667
Rank 18 ghostCells: 2381
Rank 19 ghostCells: 3212
Rank 20 ghostCells: 3561
Rank 21 ghostCells: 3263
Rank 22 ghostCells: 3573
Rank 23 ghostCells: 3024
Rank 24 ghostCells: 4748
Rank 25 ghostCells: 4335
Rank 26 ghostCells: 4309
Rank 27 ghostCells: 3440
Rank 28 ghostCells: 4208
Rank 29 ghostCells: 4023
Rank 30 ghostCells: 3167
Rank 31 ghostCells: 1446

Rank 0 numCells: 11778
Rank 1 numCells: 14168
Rank 2 numCells: 12490
Rank 3 numCells: 14572
Rank 4 numCells: 12898
Rank 5 numCells: 15288
Rank 6 numCells: 13468
Rank 7 numCells: 13835
Rank 8 numCells: 11038
Rank 9 numCells: 13299
Rank 10 numCells: 13133
Rank 11 numCells: 13208
Rank 12 numCells: 12848
Rank 13 numCells: 13657
Rank 14 numCells: 15531
Rank 15 numCells: 12229
Rank 16 numCells: 14251
Rank 17 numCells: 14566
Rank 18 numCells: 13722
Rank 19 numCells: 13692
Rank 20 numCells: 14669
Rank 21 numCells: 13857
Rank 22 numCells: 15790
Rank 23 numCells: 13792
Rank 24 numCells: 14844
Rank 25 numCells: 14428
Rank 26 numCells: 14622
Rank 27 numCells: 15495
Rank 28 numCells: 16425
Rank 29 numCells: 15503
Rank 30 numCells: 15027
Rank 31 numCells: 11942

Rank 0 interiorCells: 10676
Rank 1 interiorCells: 11895
Rank 2 interiorCells: 10096
Rank 3 interiorCells: 11893
Rank 4 interiorCells: 10098
Rank 5 interiorCells: 12217
Rank 6 interiorCells: 10552
Rank 7 interiorCells: 11204
Rank 8 interiorCells: 10096
Rank 9 interiorCells: 12217
Rank 10 interiorCells: 11526
Rank 11 interiorCells: 10850
Rank 12 interiorCells: 10296
Rank 13 interiorCells: 10789
Rank 14 interiorCells: 12217
Rank 15 interiorCells: 10300
Rank 16 interiorCells: 11468
Rank 17 interiorCells: 11899
Rank 18 interiorCells: 11341
Rank 19 interiorCells: 10480
Rank 20 interiorCells: 11108
Rank 21 interiorCells: 10594
Rank 22 interiorCells: 12217
Rank 23 interiorCells: 10768
Rank 24 interiorCells: 10096
Rank 25 interiorCells: 10093
Rank 26 interiorCells: 10313
Rank 27 interiorCells: 12055
Rank 28 interiorCells: 12217
Rank 29 interiorCells: 11480
Rank 30 interiorCells: 11860
Rank 31 interiorCells: 10496

MeasComm+1 32: 9.3089e-05 0.00012287 0.000131743 0.000151067 0.000159764 0.000194658 0.000207636 0.000201997 7.7058e-05 6.777e-05 9.7984e-05 0.000151757 0.000146221 0.000165636 0.000207202 0.000151854 0.00015686 0.000160347 0.000138323 0.000180923 0.000198371 0.000184624 0.000212522 0.000176328 0.000279902 0.000259624 0.000266943 0.000237224 0.000261612 0.000245698 0.000211053 0.000137363 
MeasComm+1 32: 9.3999e-05 0.000127032 0.000131939 0.000150483 0.000156959 0.00018718 0.000202514 0.000198627 7.6725e-05 6.7313e-05 9.6332e-05 0.000148197 0.000145027 0.000166404 0.000201271 0.000143092 0.000156807 0.000160325 0.000139758 0.000181131 0.000197227 0.00018651 0.000216524 0.000172743 0.000276166 0.000257728 0.00026436 0.000236621 0.000257381 0.000240137 0.000211261 0.000136602 
MeasComm+1 32: 9.5095e-05 0.000119768 0.000131996 0.000150168 0.000153691 0.000185215 0.000195706 0.000199635 7.7545e-05 6.7891e-05 9.6776e-05 0.000149005 0.000146688 0.000164673 0.000200917 0.000146691 0.00015672 0.000156136 0.000140304 0.000177975 0.000197388 0.00018308 0.000211625 0.000177837 0.000274352 0.000227929 0.000261333 0.000238784 0.000254817 0.000243291 0.000205611 0.000138078 
MeasComm+1 32: 9.4023e-05 0.000128589 0.00013175 0.000150524 0.000155258 0.000186601 0.000202099 0.000199779 7.7606e-05 6.7183e-05 9.6628e-05 0.000147734 0.000146052 0.00016643 0.000202776 0.000151102 0.000157129 0.000157283 0.000137607 0.000173232 0.00019828 0.000187821 0.000209429 0.000173465 0.000279512 0.0002562 0.000261249 0.000238177 0.000259818 0.00024375 0.000208961 0.000136206 
MeasComm+1 32: 9.3766e-05 0.000128267 0.000132053 0.000150826 0.000154802 0.000187457 0.000207737 0.000193374 7.7398e-05 6.7933e-05 9.7145e-05 0.000148562 0.000145797 0.000166669 0.00020186 0.000148664 0.000157187 0.00015786 0.000140916 0.000179042 0.00019791 0.000186123 0.000210397 0.000174609 0.000277988 0.000258292 0.000266395 0.000232147 0.00025719 0.000243562 0.000210207 0.000135972 
MeasComm+1 32: 9.2634e-05 0.000130274 0.000132044 0.000150687 0.000155293 0.000190922 0.000201705 0.000199773 7.6861e-05 6.7723e-05 9.5407e-05 0.000148524 0.000145926 0.000164185 0.000204399 0.000145066 0.000157997 0.000158174 0.000139046 0.000177045 0.000196563 0.000189138 0.000212363 0.00017305 0.000276349 0.000259697 0.000263722 0.000236182 0.000257675 0.000239597 0.000205752 0.000136129 
MeasComm+1 32: 9.3209e-05 0.00012563 0.000132075 0.000150447 0.000154598 0.000186733 0.000198419 0.000197354 7.6094e-05 6.7669e-05 9.6025e-05 0.000148257 0.000145304 0.000165472 0.000201598 0.000145144 0.000156543 0.000156032 0.000139983 0.00017538 0.000198936 0.000189981 0.000210848 0.000173386 0.000278025 0.000255037 0.000264899 0.000237559 0.00025442 0.00024618 0.000211479 0.00013605 
MeasComm+1 32: 9.351e-05 0.000127824 0.000131963 0.000149869 0.000154102 0.000187379 0.000206974 0.000204285 7.7173e-05 6.7844e-05 9.6704e-05 0.000148218 0.000145425 0.000163792 0.000201969 0.000147923 0.000156759 0.000158342 0.00014097 0.000174979 0.00019667 0.000181161 0.000210223 0.000170783 0.000279638 0.000259936 0.000263772 0.000233688 0.000256739 0.000238699 0.000205561 0.000136562 
MeasComm+1 32: 9.4958e-05 0.000125344 0.000132256 0.000150327 0.000153571 0.000186801 0.000204295 0.000201417 7.6469e-05 6.7593e-05 9.7341e-05 0.000147448 0.000145292 0.000165696 0.000204545 0.000148574 0.000157776 0.000156538 0.000139433 0.000182984 0.000196394 0.000190862 0.000214507 0.000173518 0.000279878 0.000253376 0.000264765 0.000236188 0.000259057 0.000243629 0.000206811 0.000136367 
MeasComm+1 32: 9.4763e-05 0.000126448 0.000132393 0.000150311 0.000154653 0.00018701 0.000197785 0.00019822 7.6861e-05 6.7819e-05 9.6435e-05 0.000148596 0.000145693 0.00016384 0.000203306 0.000149747 0.000157578 0.000158276 0.000139469 0.000176136 0.000198972 0.000182009 0.000209733 0.000174808 0.000279069 0.000257567 0.000264675 0.000235932 0.000258395 0.000238176 0.00021246 0.000136188 

ComTab rank 0: 0 995 50 117 0 0 0 0 0 0 0 0 0 0 0 0 0 0 0 0 0 0 0 0 0 0 0 0 0 0 0 0 
ComTab rank 1: 943 0 445 993 0 0 0 0 0 0 0 0 0 0 0 0 0 0 0 0 0 0 0 0 0 0 0 0 0 0 0 0 
ComTab rank 2: 49 418 0 1171 866 90 0 0 0 0 0 0 0 0 0 38 0 0 0 0 0 0 0 0 0 0 0 0 0 0 0 0 
ComTab rank 3: 119 942 1114 0 615 196 0 0 0 0 0 0 0 0 0 3 0 0 0 0 0 0 0 0 0 0 0 0 0 0 0 0 
ComTab rank 4: 0 0 879 614 0 968 136 456 0 0 0 0 0 0 0 52 0 0 0 0 0 0 0 0 0 0 0 0 0 0 0 0 
ComTab rank 5: 0 0 93 208 940 0 659 561 0 0 0 0 305 60 0 540 0 0 0 0 0 0 0 0 209 0 0 0 0 0 0 0 
ComTab rank 6: 0 0 0 0 164 665 0 693 0 0 0 7 21 321 188 134 0 0 0 0 0 0 0 0 842 252 175 60 0 0 0 0 
ComTab rank 7: 0 0 0 0 401 587 722 0 0 0 0 0 0 0 0 0 0 0 0 0 0 0 0 0 984 155 87 0 0 0 0 0 
ComTab rank 8: 0 0 0 0 0 0 0 0 0 551 167 261 0 0 0 0 0 0 0 0 0 0 0 0 0 0 0 0 0 0 0 0 
ComTab rank 9: 0 0 0 0 0 0 0 0 527 0 590 0 0 0 0 0 0 0 0 0 0 0 0 0 0 0 0 0 0 0 0 0 
ComTab rank 10: 0 0 0 0 0 0 0 0 141 563 0 764 230 0 0 0 0 0 0 0 0 0 0 0 0 0 0 0 0 0 0 0 
ComTab rank 11: 0 0 0 0 0 0 7 0 254 0 786 0 744 415 105 0 0 0 0 0 0 0 0 0 70 0 0 181 0 0 0 0 
ComTab rank 12: 0 0 0 0 0 329 27 0 0 0 224 721 0 848 243 511 0 0 0 0 0 0 0 0 0 0 0 0 0 0 0 0 
ComTab rank 13: 0 0 0 0 0 47 288 0 0 0 0 428 865 0 1112 381 0 0 0 0 0 0 0 0 36 0 0 147 0 0 0 0 
ComTab rank 14: 0 0 0 0 0 0 181 0 0 0 0 96 279 1072 0 763 0 0 0 0 0 0 0 0 442 0 0 1069 0 0 0 0 
ComTab rank 15: 0 0 41 3 42 584 169 0 0 0 0 0 435 359 763 0 0 0 0 0 0 0 0 0 0 0 0 16 0 0 0 0 
ComTab rank 16: 0 0 0 0 0 0 0 0 0 0 0 0 0 0 0 0 0 511 1083 897 487 150 0 0 0 0 0 0 0 0 0 30 
ComTab rank 17: 0 0 0 0 0 0 0 0 0 0 0 0 0 0 0 0 508 0 242 784 451 728 8 224 0 0 0 0 0 0 0 106 
ComTab rank 18: 0 0 0 0 0 0 0 0 0 0 0 0 0 0 0 0 1070 262 0 1022 0 0 0 0 0 0 0 0 0 0 0 220 
ComTab rank 19: 0 0 0 0 0 0 0 0 0 0 0 0 0 0 0 0 880 775 997 0 164 798 0 0 0 0 0 0 0 0 0 0 
ComTab rank 20: 0 0 0 0 0 0 0 0 0 0 0 0 0 0 0 0 508 474 0 197 0 959 835 584 0 0 0 0 207 460 0 0 
ComTab rank 21: 0 0 0 0 0 0 0 0 0 0 0 0 0 0 0 0 151 715 0 789 893 0 884 355 0 0 0 0 0 0 0 0 
ComTab rank 22: 0 0 0 0 0 0 0 0 0 0 0 0 0 0 0 0 0 8 0 0 846 875 0 939 0 0 0 0 760 317 261 131 
ComTab rank 23: 0 0 0 0 0 0 0 0 0 0 0 0 0 0 0 0 0 207 0 0 572 374 906 0 0 0 0 0 232 98 478 597 
ComTab rank 24: 0 0 0 0 0 254 861 918 0 0 0 77 0 36 500 0 0 0 0 0 0 0 0 0 0 1294 488 1122 0 15 28 0 
ComTab rank 25: 0 0 0 0 0 0 260 176 0 0 0 0 0 0 0 0 0 0 0 0 0 0 0 0 1375 0 1773 332 636 59 575 0 
ComTab rank 26: 0 0 0 0 0 0 165 93 0 0 0 0 0 0 0 0 0 0 0 0 0 0 0 0 457 1756 0 635 621 673 752 0 
ComTab rank 27: 0 0 0 0 0 0 51 0 0 0 0 175 0 143 1179 18 0 0 0 0 0 0 0 0 922 319 582 0 63 609 15 0 
ComTab rank 28: 0 0 0 0 0 0 0 0 0 0 0 0 0 0 0 0 0 0 0 0 193 0 772 228 0 570 653 63 0 1502 935 104 
ComTab rank 29: 0 0 0 0 0 0 0 0 0 0 0 0 0 0 0 0 0 0 0 0 501 0 343 107 16 62 708 611 1526 0 674 101 
ComTab rank 30: 0 0 0 0 0 0 0 0 0 0 0 0 0 0 0 0 0 0 0 0 0 0 267 494 27 500 776 15 890 641 0 192 
ComTab rank 31: 0 0 0 0 0 0 0 0 0 0 0 0 0 0 0 0 35 135 220 0 0 0 123 591 0 0 0 0 98 101 211 0 

Edge-cut: 70329

Wgt-cut: 3.63813e-07

[1578562076.523316] [srl-login1:18050:0]          mpool.c:38   UCX  WARN  object 0x5555642a8c40 was not returned to mpool ucp_am_bufs
[1578562076.523640] [srl-login1:18058:0]          mpool.c:38   UCX  WARN  object 0x1555440e3fe0 was not returned to mpool mm_recv_desc
[1578562076.523649] [srl-login1:18052:0]          mpool.c:38   UCX  WARN  object 0x5555648bd9c0 was not returned to mpool ucp_am_bufs
[1578562076.523997] [srl-login1:18066:0]          mpool.c:38   UCX  WARN  object 0x1555393db660 was not returned to mpool mm_recv_desc
[1578562076.524087] [srl-login1:18055:0]          mpool.c:38   UCX  WARN  object 0x55555bdd6580 was not returned to mpool ucp_am_bufs
