[1578476937.321270] [srl-adm2:7356 :0]         mxm.c:196  MXM  WARN  The 'ulimit -s' on the system is set to 'unlimited'. This may have negative performance implications. Please set the stack size to the default value (10240) 
[1578476937.321278] [srl-adm2:7357 :0]         mxm.c:196  MXM  WARN  The 'ulimit -s' on the system is set to 'unlimited'. This may have negative performance implications. Please set the stack size to the default value (10240) 
0: 12 
Edge Weight Method: 12
Cell on rank 0: 21921
Cell on rank 1: 22510
Edge-cut: 20345
After loadbalancing process 0 has 22468 cells.
After loadbalancing process 1 has 23046 cells.

Rank 0 ghostCells: 547
Rank 1 ghostCells: 536

Rank 0 numCells: 22468
Rank 1 numCells: 23046

Rank 0 interiorCells: 21921
Rank 1 interiorCells: 22510

ComTab rank 0: 0 547 
ComTab rank 1: 536 0 

Edge-cut: 723

Wgt-cut: 4.11639e-09

[1578476941.023743] [srl-adm2:7357 :0]          mpool.c:38   UCX  WARN  object 0x55555c21c7c0 was not returned to mpool ucp_am_bufs
