[1578476943.047429] [srl-adm2:7434 :0]         mxm.c:196  MXM  WARN  The 'ulimit -s' on the system is set to 'unlimited'. This may have negative performance implications. Please set the stack size to the default value (10240) 
[1578476943.049571] [srl-adm2:7433 :0]         mxm.c:196  MXM  WARN  The 'ulimit -s' on the system is set to 'unlimited'. This may have negative performance implications. Please set the stack size to the default value (10240) 
[1578476943.054456] [srl-adm2:7455 :0]         mxm.c:196  MXM  WARN  The 'ulimit -s' on the system is set to 'unlimited'. This may have negative performance implications. Please set the stack size to the default value (10240) 
[1578476943.054756] [srl-adm2:7443 :0]         mxm.c:196  MXM  WARN  The 'ulimit -s' on the system is set to 'unlimited'. This may have negative performance implications. Please set the stack size to the default value (10240) 
[1578476943.055886] [srl-adm2:7448 :0]         mxm.c:196  MXM  WARN  The 'ulimit -s' on the system is set to 'unlimited'. This may have negative performance implications. Please set the stack size to the default value (10240) 
[1578476943.056067] [srl-adm2:7437 :0]         mxm.c:196  MXM  WARN  The 'ulimit -s' on the system is set to 'unlimited'. This may have negative performance implications. Please set the stack size to the default value (10240) 
[1578476943.057709] [srl-adm2:7450 :0]         mxm.c:196  MXM  WARN  The 'ulimit -s' on the system is set to 'unlimited'. This may have negative performance implications. Please set the stack size to the default value (10240) 
[1578476943.058847] [srl-adm2:7444 :0]         mxm.c:196  MXM  WARN  The 'ulimit -s' on the system is set to 'unlimited'. This may have negative performance implications. Please set the stack size to the default value (10240) 
[1578476943.060885] [srl-adm2:7439 :0]         mxm.c:196  MXM  WARN  The 'ulimit -s' on the system is set to 'unlimited'. This may have negative performance implications. Please set the stack size to the default value (10240) 
[1578476943.062358] [srl-adm2:7441 :0]         mxm.c:196  MXM  WARN  The 'ulimit -s' on the system is set to 'unlimited'. This may have negative performance implications. Please set the stack size to the default value (10240) 
[1578476943.064026] [srl-adm2:7449 :0]         mxm.c:196  MXM  WARN  The 'ulimit -s' on the system is set to 'unlimited'. This may have negative performance implications. Please set the stack size to the default value (10240) 
[1578476943.064976] [srl-adm2:7461 :0]         mxm.c:196  MXM  WARN  The 'ulimit -s' on the system is set to 'unlimited'. This may have negative performance implications. Please set the stack size to the default value (10240) 
[1578476943.065197] [srl-adm2:7456 :0]         mxm.c:196  MXM  WARN  The 'ulimit -s' on the system is set to 'unlimited'. This may have negative performance implications. Please set the stack size to the default value (10240) 
[1578476943.065227] [srl-adm2:7447 :0]         mxm.c:196  MXM  WARN  The 'ulimit -s' on the system is set to 'unlimited'. This may have negative performance implications. Please set the stack size to the default value (10240) 
[1578476943.065631] [srl-adm2:7457 :0]         mxm.c:196  MXM  WARN  The 'ulimit -s' on the system is set to 'unlimited'. This may have negative performance implications. Please set the stack size to the default value (10240) 
[1578476943.067682] [srl-adm2:7453 :0]         mxm.c:196  MXM  WARN  The 'ulimit -s' on the system is set to 'unlimited'. This may have negative performance implications. Please set the stack size to the default value (10240) 
[1578476943.067657] [srl-adm2:7464 :0]         mxm.c:196  MXM  WARN  The 'ulimit -s' on the system is set to 'unlimited'. This may have negative performance implications. Please set the stack size to the default value (10240) 
[1578476943.067742] [srl-adm2:7435 :0]         mxm.c:196  MXM  WARN  The 'ulimit -s' on the system is set to 'unlimited'. This may have negative performance implications. Please set the stack size to the default value (10240) 
[1578476943.070927] [srl-adm2:7458 :0]         mxm.c:196  MXM  WARN  The 'ulimit -s' on the system is set to 'unlimited'. This may have negative performance implications. Please set the stack size to the default value (10240) 
[1578476943.071473] [srl-adm2:7436 :0]         mxm.c:196  MXM  WARN  The 'ulimit -s' on the system is set to 'unlimited'. This may have negative performance implications. Please set the stack size to the default value (10240) 
[1578476943.071500] [srl-adm2:7462 :0]         mxm.c:196  MXM  WARN  The 'ulimit -s' on the system is set to 'unlimited'. This may have negative performance implications. Please set the stack size to the default value (10240) 
[1578476943.071572] [srl-adm2:7440 :0]         mxm.c:196  MXM  WARN  The 'ulimit -s' on the system is set to 'unlimited'. This may have negative performance implications. Please set the stack size to the default value (10240) 
[1578476943.071562] [srl-adm2:7438 :0]         mxm.c:196  MXM  WARN  The 'ulimit -s' on the system is set to 'unlimited'. This may have negative performance implications. Please set the stack size to the default value (10240) 
[1578476943.071602] [srl-adm2:7442 :0]         mxm.c:196  MXM  WARN  The 'ulimit -s' on the system is set to 'unlimited'. This may have negative performance implications. Please set the stack size to the default value (10240) 
[1578476943.071528] [srl-adm2:7451 :0]         mxm.c:196  MXM  WARN  The 'ulimit -s' on the system is set to 'unlimited'. This may have negative performance implications. Please set the stack size to the default value (10240) 
[1578476943.071557] [srl-adm2:7454 :0]         mxm.c:196  MXM  WARN  The 'ulimit -s' on the system is set to 'unlimited'. This may have negative performance implications. Please set the stack size to the default value (10240) 
[1578476943.071536] [srl-adm2:7460 :0]         mxm.c:196  MXM  WARN  The 'ulimit -s' on the system is set to 'unlimited'. This may have negative performance implications. Please set the stack size to the default value (10240) 
[1578476943.071565] [srl-adm2:7463 :0]         mxm.c:196  MXM  WARN  The 'ulimit -s' on the system is set to 'unlimited'. This may have negative performance implications. Please set the stack size to the default value (10240) 
[1578476943.071712] [srl-adm2:7445 :0]         mxm.c:196  MXM  WARN  The 'ulimit -s' on the system is set to 'unlimited'. This may have negative performance implications. Please set the stack size to the default value (10240) 
[1578476943.071772] [srl-adm2:7446 :0]         mxm.c:196  MXM  WARN  The 'ulimit -s' on the system is set to 'unlimited'. This may have negative performance implications. Please set the stack size to the default value (10240) 
[1578476943.071766] [srl-adm2:7459 :0]         mxm.c:196  MXM  WARN  The 'ulimit -s' on the system is set to 'unlimited'. This may have negative performance implications. Please set the stack size to the default value (10240) 
[1578476943.071813] [srl-adm2:7452 :0]         mxm.c:196  MXM  WARN  The 'ulimit -s' on the system is set to 'unlimited'. This may have negative performance implications. Please set the stack size to the default value (10240) 
0: 12 
Edge Weight Method: 12
Cell on rank 0: 1372
Cell on rank 1: 1462
Cell on rank 2: 1296
Cell on rank 3: 1526
Cell on rank 4: 1415
Cell on rank 5: 1262
Cell on rank 6: 1508
Cell on rank 7: 1262
Cell on rank 8: 1375
Cell on rank 9: 1356
Cell on rank 10: 1416
Cell on rank 11: 1334
Cell on rank 12: 1406
Cell on rank 13: 1503
Cell on rank 14: 1292
Cell on rank 15: 1370
Cell on rank 16: 1372
Cell on rank 17: 1343
Cell on rank 18: 1370
Cell on rank 19: 1388
Cell on rank 20: 1527
Cell on rank 21: 1340
Cell on rank 22: 1527
Cell on rank 23: 1517
Cell on rank 24: 1267
Cell on rank 25: 1331
Cell on rank 26: 1450
Cell on rank 27: 1265
Cell on rank 28: 1516
Cell on rank 29: 1262
Cell on rank 30: 1457
Cell on rank 31: 1344
Edge-cut: 311047
After loadbalancing process 16 has 1531 cells.
After loadbalancing process 28 has 1715 cells.
After loadbalancing process 31 has 1686 cells.
After loadbalancing process 30 has 1814 cells.
After loadbalancing process 17 has 1738 cells.
After loadbalancing process 18 has 1765 cells.
After loadbalancing process 29 has 1659 cells.
After loadbalancing process 11 has 1708 cells.
After loadbalancing process 10 has 1797 cells.
After loadbalancing process 8 has 1916 cells.
After loadbalancing process 12 has 2027 cells.
After loadbalancing process 9 has 1982 cells.
After loadbalancing process 25 has 1803 cells.
After loadbalancing process 15 has 1795 cells.
After loadbalancing process 24 has 1527 cells.
After loadbalancing process 13 has 2130 cells.
After loadbalancing process 19 has 1891 cells.
After loadbalancing process 26 has 1948 cells.
After loadbalancing process 27 has 1704 cells.
After loadbalancing process 14 has 1950 cells.
After loadbalancing process 21 has 2019 cells.
After loadbalancing process 1 has 2048 cells.
After loadbalancing process 5 has 1909 cells.
After loadbalancing process 3 has 2245 cells.
After loadbalancing process 23 has 2298 cells.
After loadbalancing process 4 has 1989 cells.
After loadbalancing process 2 has 1942 cells.
After loadbalancing process 22 has 2081 cells.
After loadbalancing process 20 has 2125 cells.
After loadbalancing process 7 has 1956 cells.
After loadbalancing process 6 has 2276 cells.
After loadbalancing process 0 has 2251 cells.

Rank 0 ghostCells: 879
Rank 1 ghostCells: 586
Rank 2 ghostCells: 646
Rank 3 ghostCells: 719
Rank 4 ghostCells: 574
Rank 5 ghostCells: 647
Rank 6 ghostCells: 768
Rank 7 ghostCells: 694
Rank 8 ghostCells: 541
Rank 9 ghostCells: 626
Rank 10 ghostCells: 381
Rank 11 ghostCells: 374
Rank 12 ghostCells: 621
Rank 13 ghostCells: 627
Rank 14 ghostCells: 658
Rank 15 ghostCells: 425
Rank 16 ghostCells: 159
Rank 17 ghostCells: 395
Rank 18 ghostCells: 395
Rank 19 ghostCells: 503
Rank 20 ghostCells: 598
Rank 21 ghostCells: 679
Rank 22 ghostCells: 554
Rank 23 ghostCells: 781
Rank 24 ghostCells: 260
Rank 25 ghostCells: 472
Rank 26 ghostCells: 498
Rank 27 ghostCells: 439
Rank 28 ghostCells: 199
Rank 29 ghostCells: 397
Rank 30 ghostCells: 357
Rank 31 ghostCells: 342

Rank 0 numCells: 2251
Rank 1 numCells: 2048
Rank 2 numCells: 1942
Rank 3 numCells: 2245
Rank 4 numCells: 1989
Rank 5 numCells: 1909
Rank 6 numCells: 2276
Rank 7 numCells: 1956
Rank 8 numCells: 1916
Rank 9 numCells: 1982
Rank 10 numCells: 1797
Rank 11 numCells: 1708
Rank 12 numCells: 2027
Rank 13 numCells: 2130
Rank 14 numCells: 1950
Rank 15 numCells: 1795
Rank 16 numCells: 1531
Rank 17 numCells: 1738
Rank 18 numCells: 1765
Rank 19 numCells: 1891
Rank 20 numCells: 2125
Rank 21 numCells: 2019
Rank 22 numCells: 2081
Rank 23 numCells: 2298
Rank 24 numCells: 1527
Rank 25 numCells: 1803
Rank 26 numCells: 1948
Rank 27 numCells: 1704
Rank 28 numCells: 1715
Rank 29 numCells: 1659
Rank 30 numCells: 1814
Rank 31 numCells: 1686

Rank 0 interiorCells: 1372
Rank 1 interiorCells: 1462
Rank 2 interiorCells: 1296
Rank 3 interiorCells: 1526
Rank 4 interiorCells: 1415
Rank 5 interiorCells: 1262
Rank 6 interiorCells: 1508
Rank 7 interiorCells: 1262
Rank 8 interiorCells: 1375
Rank 9 interiorCells: 1356
Rank 10 interiorCells: 1416
Rank 11 interiorCells: 1334
Rank 12 interiorCells: 1406
Rank 13 interiorCells: 1503
Rank 14 interiorCells: 1292
Rank 15 interiorCells: 1370
Rank 16 interiorCells: 1372
Rank 17 interiorCells: 1343
Rank 18 interiorCells: 1370
Rank 19 interiorCells: 1388
Rank 20 interiorCells: 1527
Rank 21 interiorCells: 1340
Rank 22 interiorCells: 1527
Rank 23 interiorCells: 1517
Rank 24 interiorCells: 1267
Rank 25 interiorCells: 1331
Rank 26 interiorCells: 1450
Rank 27 interiorCells: 1265
Rank 28 interiorCells: 1516
Rank 29 interiorCells: 1262
Rank 30 interiorCells: 1457
Rank 31 interiorCells: 1344

ComTab rank 0: 0 148 125 224 182 88 90 192 0 0 0 0 0 0 76 30 0 0 0 0 0 0 0 0 0 0 0 0 0 0 0 0 
ComTab rank 1: 123 0 14 194 93 0 28 0 123 0 0 0 0 67 93 0 0 0 0 0 0 0 0 0 0 0 0 0 0 0 0 0 
ComTab rank 2: 139 17 0 128 25 268 11 136 0 0 0 0 0 0 0 0 0 0 0 0 0 0 0 0 0 24 0 81 0 0 0 0 
ComTab rank 3: 215 200 125 0 7 0 23 51 0 0 0 0 0 35 235 0 0 0 0 0 0 0 0 0 0 0 0 0 0 0 0 0 
ComTab rank 4: 182 92 25 7 0 62 175 73 0 0 0 0 0 2 6 48 0 0 0 0 0 0 3 0 0 0 0 0 0 0 0 0 
ComTab rank 5: 85 0 272 0 61 0 85 91 0 0 0 0 0 0 0 0 0 0 0 0 17 0 0 0 0 171 0 62 0 0 0 0 
ComTab rank 6: 78 26 11 23 166 79 0 236 0 0 0 0 0 0 0 0 0 0 0 0 113 0 203 19 0 0 0 5 0 0 0 0 
ComTab rank 7: 200 0 142 52 69 79 245 0 0 0 0 0 0 0 7 0 0 0 0 0 11 0 34 0 0 0 0 64 0 0 0 0 
ComTab rank 8: 0 123 0 0 0 0 0 0 0 219 0 0 0 139 99 49 0 0 0 0 0 0 0 0 0 0 0 0 0 0 0 0 
ComTab rank 9: 0 0 0 0 0 0 0 0 215 0 151 103 179 77 0 39 0 0 0 0 0 0 0 0 0 0 0 0 0 0 0 0 
ComTab rank 10: 0 0 0 0 0 0 0 0 0 150 0 120 86 0 0 74 0 0 0 0 0 0 0 0 0 0 0 0 0 0 0 0 
ComTab rank 11: 0 0 0 0 0 0 0 0 0 107 122 0 204 0 0 8 0 0 0 0 0 0 0 0 0 0 0 0 0 0 0 0 
ComTab rank 12: 0 0 0 0 0 0 0 0 0 187 94 203 0 182 0 94 0 0 0 0 0 0 0 0 0 0 0 0 0 0 0 0 
ComTab rank 13: 0 69 0 35 2 0 0 0 142 63 0 0 181 0 193 94 0 0 0 0 0 0 0 0 0 0 0 0 0 0 0 0 
ComTab rank 14: 77 96 0 243 6 0 0 7 112 0 0 0 0 193 0 93 0 0 0 0 0 0 0 0 0 0 0 0 0 0 0 0 
ComTab rank 15: 30 0 0 0 45 0 0 0 49 42 74 8 96 100 94 0 0 0 0 0 0 0 0 0 0 0 0 0 0 0 0 0 
ComTab rank 16: 0 0 0 0 0 0 0 0 0 0 0 0 0 0 0 0 0 126 47 0 0 0 0 0 0 0 0 0 0 0 0 0 
ComTab rank 17: 0 0 0 0 0 0 0 0 0 0 0 0 0 0 0 0 125 0 182 131 0 0 0 0 0 0 0 0 0 0 0 0 
ComTab rank 18: 0 0 0 0 0 0 0 0 0 0 0 0 0 0 0 0 57 172 0 141 0 0 0 87 0 0 0 0 0 0 0 0 
ComTab rank 19: 0 0 0 0 0 0 0 0 0 0 0 0 0 0 0 0 0 127 137 0 35 38 0 244 6 0 0 0 0 0 0 0 
ComTab rank 20: 0 0 0 0 0 14 123 9 0 0 0 0 0 0 0 0 0 0 0 32 0 199 137 77 69 50 15 28 0 0 0 0 
ComTab rank 21: 0 0 0 0 0 0 0 0 0 0 0 0 0 0 0 0 0 0 0 34 212 0 177 351 0 0 0 0 0 0 0 0 
ComTab rank 22: 0 0 0 0 3 0 226 30 0 0 0 0 0 0 0 0 0 0 0 0 137 163 0 94 0 0 0 0 0 0 0 0 
ComTab rank 23: 0 0 0 0 0 0 19 0 0 0 0 0 0 0 0 0 0 0 87 240 76 368 100 0 0 0 0 0 0 0 0 0 
ComTab rank 24: 0 0 0 0 0 0 0 0 0 0 0 0 0 0 0 0 0 0 0 6 41 0 0 0 0 159 83 0 0 0 0 0 
ComTab rank 25: 0 0 24 0 0 174 0 0 0 0 0 0 0 0 0 0 0 0 0 0 18 0 0 0 158 0 77 104 0 0 0 0 
ComTab rank 26: 0 0 0 0 0 0 0 0 0 0 0 0 0 0 0 0 0 0 0 0 15 0 0 0 77 76 0 178 0 28 181 0 
ComTab rank 27: 0 0 84 0 0 56 6 62 0 0 0 0 0 0 0 0 0 0 0 0 34 0 0 0 0 101 184 0 0 21 0 0 
ComTab rank 28: 0 0 0 0 0 0 0 0 0 0 0 0 0 0 0 0 0 0 0 0 0 0 0 0 0 0 0 0 0 181 0 32 
ComTab rank 29: 0 0 0 0 0 0 0 0 0 0 0 0 0 0 0 0 0 0 0 0 0 0 0 0 0 0 26 21 184 0 17 172 
ComTab rank 30: 0 0 0 0 0 0 0 0 0 0 0 0 0 0 0 0 0 0 0 0 0 0 0 0 0 0 181 0 0 13 0 172 
ComTab rank 31: 0 0 0 0 0 0 0 0 0 0 0 0 0 0 0 0 0 0 0 0 0 0 0 0 0 0 0 0 26 157 175 0 

Edge-cut: 12422

Wgt-cut: 1.87386e-07

[1578476948.848549] [srl-adm2:7433 :0]          mpool.c:38   UCX  WARN  object 0x55555c568c40 was not returned to mpool ucp_am_bufs
[1578476948.850090] [srl-adm2:7452 :0]          mpool.c:38   UCX  WARN  object 0x155544118ce0 was not returned to mpool mm_recv_desc
[1578476948.850155] [srl-adm2:7440 :0]          mpool.c:38   UCX  WARN  object 0x1555393f7d60 was not returned to mpool mm_recv_desc
[1578476948.850476] [srl-adm2:7445 :0]          mpool.c:38   UCX  WARN  object 0x1555393f1be0 was not returned to mpool mm_recv_desc
[1578476948.850568] [srl-adm2:7435 :0]          mpool.c:38   UCX  WARN  object 0x155544112b60 was not returned to mpool mm_recv_desc
