[1578476937.052552] [srl-mds1:32147:0]         mxm.c:196  MXM  WARN  The 'ulimit -s' on the system is set to 'unlimited'. This may have negative performance implications. Please set the stack size to the default value (10240) 
[1578476937.052550] [srl-mds1:32148:0]         mxm.c:196  MXM  WARN  The 'ulimit -s' on the system is set to 'unlimited'. This may have negative performance implications. Please set the stack size to the default value (10240) 
[1578476937.055241] [srl-mds1:32145:0]         mxm.c:196  MXM  WARN  The 'ulimit -s' on the system is set to 'unlimited'. This may have negative performance implications. Please set the stack size to the default value (10240) 
[1578476937.055246] [srl-mds1:32146:0]         mxm.c:196  MXM  WARN  The 'ulimit -s' on the system is set to 'unlimited'. This may have negative performance implications. Please set the stack size to the default value (10240) 
0: 12 
Edge Weight Method: 12
Cell on rank 0: 10891
Cell on rank 1: 11337
Cell on rank 2: 11102
Cell on rank 3: 11101
Edge-cut: 50653
After loadbalancing process 3 has 11617 cells.
After loadbalancing process 1 has 11725 cells.
After loadbalancing process 0 has 11268 cells.
After loadbalancing process 2 has 12206 cells.

Rank 0 ghostCells: 377
Rank 1 ghostCells: 388
Rank 2 ghostCells: 1104
Rank 3 ghostCells: 516

Rank 0 numCells: 11268
Rank 1 numCells: 11725
Rank 2 numCells: 12206
Rank 3 numCells: 11617

Rank 0 interiorCells: 10891
Rank 1 interiorCells: 11337
Rank 2 interiorCells: 11102
Rank 3 interiorCells: 11101

ComTab rank 0: 0 96 289 0 
ComTab rank 1: 85 0 308 0 
ComTab rank 2: 283 311 0 515 
ComTab rank 3: 0 0 516 0 

Edge-cut: 1778

Wgt-cut: 2.1434e-08

[1578476940.403348] [srl-mds1:32147:0]          mpool.c:38   UCX  WARN  object 0x155544c6eee0 was not returned to mpool mm_recv_desc
[1578476940.403964] [srl-mds1:32148:0]          mpool.c:38   UCX  WARN  object 0x5555587c1d40 was not returned to mpool ucp_am_bufs
[1578476940.404357] [srl-mds1:32146:0]          mpool.c:38   UCX  WARN  object 0x155544c70f60 was not returned to mpool mm_recv_desc
