[1578476941.986936] [srl-mds1:32242:0]         mxm.c:196  MXM  WARN  The 'ulimit -s' on the system is set to 'unlimited'. This may have negative performance implications. Please set the stack size to the default value (10240) 
[1578476941.987052] [srl-mds1:32239:0]         mxm.c:196  MXM  WARN  The 'ulimit -s' on the system is set to 'unlimited'. This may have negative performance implications. Please set the stack size to the default value (10240) 
[1578476941.988119] [srl-mds1:32238:0]         mxm.c:196  MXM  WARN  The 'ulimit -s' on the system is set to 'unlimited'. This may have negative performance implications. Please set the stack size to the default value (10240) 
[1578476941.988178] [srl-mds1:32235:0]         mxm.c:196  MXM  WARN  The 'ulimit -s' on the system is set to 'unlimited'. This may have negative performance implications. Please set the stack size to the default value (10240) 
[1578476941.988170] [srl-mds1:32236:0]         mxm.c:196  MXM  WARN  The 'ulimit -s' on the system is set to 'unlimited'. This may have negative performance implications. Please set the stack size to the default value (10240) 
[1578476941.988229] [srl-mds1:32237:0]         mxm.c:196  MXM  WARN  The 'ulimit -s' on the system is set to 'unlimited'. This may have negative performance implications. Please set the stack size to the default value (10240) 
[1578476941.988377] [srl-mds1:32240:0]         mxm.c:196  MXM  WARN  The 'ulimit -s' on the system is set to 'unlimited'. This may have negative performance implications. Please set the stack size to the default value (10240) 
[1578476941.988305] [srl-mds1:32241:0]         mxm.c:196  MXM  WARN  The 'ulimit -s' on the system is set to 'unlimited'. This may have negative performance implications. Please set the stack size to the default value (10240) 
0: 12 
Edge Weight Method: 12
Cell on rank 0: 5681
Cell on rank 1: 5575
Cell on rank 2: 5277
Cell on rank 3: 5729
Cell on rank 4: 5426
Cell on rank 5: 5255
Cell on rank 6: 5786
Cell on rank 7: 5702
Edge-cut: 148444
After loadbalancing process 1 has 5964 cells.
After loadbalancing process 5 has 5989 cells.
After loadbalancing process 3 has 6323 cells.
After loadbalancing process 0 has 6398 cells.
After loadbalancing process 2 has 6393 cells.
After loadbalancing process 4 has 6486 cells.
After loadbalancing process 6 has 6764 cells.
After loadbalancing process 7 has 6955 cells.

Rank 0 ghostCells: 717
Rank 1 ghostCells: 389
Rank 2 ghostCells: 1116
Rank 3 ghostCells: 594
Rank 4 ghostCells: 1060
Rank 5 ghostCells: 734
Rank 6 ghostCells: 978
Rank 7 ghostCells: 1253

Rank 0 numCells: 6398
Rank 1 numCells: 5964
Rank 2 numCells: 6393
Rank 3 numCells: 6323
Rank 4 numCells: 6486
Rank 5 numCells: 5989
Rank 6 numCells: 6764
Rank 7 numCells: 6955

Rank 0 interiorCells: 5681
Rank 1 interiorCells: 5575
Rank 2 interiorCells: 5277
Rank 3 interiorCells: 5729
Rank 4 interiorCells: 5426
Rank 5 interiorCells: 5255
Rank 6 interiorCells: 5786
Rank 7 interiorCells: 5702

ComTab rank 0: 0 220 0 0 167 56 300 0 
ComTab rank 1: 223 0 81 27 0 0 0 75 
ComTab rank 2: 0 80 0 592 0 0 0 455 
ComTab rank 3: 0 27 571 0 0 0 0 0 
ComTab rank 4: 143 0 0 0 0 384 138 466 
ComTab rank 5: 51 0 0 0 436 0 264 0 
ComTab rank 6: 306 0 0 0 152 276 0 306 
ComTab rank 7: 0 75 452 0 485 0 297 0 

Edge-cut: 5283

Wgt-cut: 7.53302e-08

[1578476945.404613] [srl-mds1:32240:0]          mpool.c:38   UCX  WARN  object 0x1555394feee0 was not returned to mpool mm_recv_desc
[1578476945.410426] [srl-mds1:32238:0]          mpool.c:38   UCX  WARN  object 0x5555586ed240 was not returned to mpool ucp_am_bufs
[1578476945.410716] [srl-mds1:32237:0]          mpool.c:38   UCX  WARN  object 0x1555394fade0 was not returned to mpool mm_recv_desc
[1578476945.411097] [srl-mds1:32239:0]          mpool.c:38   UCX  WARN  object 0x1555394f8d60 was not returned to mpool mm_recv_desc
[1578476945.411897] [srl-mds1:32241:0]          mpool.c:38   UCX  WARN  object 0x155539500f60 was not returned to mpool mm_recv_desc
[1578476945.411874] [srl-mds1:32236:0]          mpool.c:38   UCX  WARN  object 0x1555394fce60 was not returned to mpool mm_recv_desc
[1578476945.412002] [srl-mds1:32242:0]          mpool.c:38   UCX  WARN  object 0x55555b0a0340 was not returned to mpool ucp_am_bufs
