 Data for JOB [40189,1] offset 0 Total slots allocated 2

 ========================   JOB MAP   ========================

 Data for node: n001	Num slots: 2	Max slots: 0	Num procs: 2
 	Process OMPI jobid: [40189,1] App: 0 Process rank: 0 Bound: socket 0[core 1[hwt 0-1]]:[../BB/../../../../../../../../../../../../../../../../../../../../../../../../../../../../../..][../../../../../../../../../../../../../../../../../../../../../../../../../../../../../../../..]
 	Process OMPI jobid: [40189,1] App: 0 Process rank: 1 Bound: socket 1[core 34[hwt 0-1]]:[../../../../../../../../../../../../../../../../../../../../../../../../../../../../../../../..][../../BB/../../../../../../../../../../../../../../../../../../../../../../../../../../../../..]

 =============================================================
dune-size 1 5.57309e-06 5.57229e-06 
dune-size 2 5.31839e-06 5.31919e-06 
dune-size 4 5.46959e-06 5.47299e-06 
dune-size 8 6.44559e-06 6.43899e-06 
dune-size 16 6.13758e-06 6.13938e-06 
dune-size 32 6.92218e-06 6.92578e-06 
dune-size 64 9.02038e-06 9.01608e-06 
dune-size 128 1.26005e-05 1.26062e-05 
dune-size 256 1.99423e-05 1.99465e-05 
dune-size 512 3.36e-05 3.3596e-05 
dune-size 1024 0.000111236 0.000111195 
dune-size 2048 0.000198689 0.000198686 
dune-size 4096 0.000370655 0.00037064 
dune-size 8192 0.000663568 0.000663577 
dune-size 16384 0.000951103 0.0009511 
dune-size 32768 0.00170837 0.00170823 
dune-size 65536 0.00338836 0.00337882 
dune-size 131072 0.00659673 0.00659139 
dune-size 262144 0.0129679 0.0129664 
dune-size 524288 0.0257548 0.0257674 
dune-size 1048576 0.0517858 0.0518457 
