 Data for JOB [21635,1] offset 0 Total slots allocated 4

 ========================   JOB MAP   ========================

 Data for node: srl-adm2	Num slots: 4	Max slots: 0	Num procs: 4
 	Process OMPI jobid: [21635,1] App: 0 Process rank: 0 Bound: socket 0[core 0[hwt 0-1]]:[BB/../../../../../../../../../../../../../../..][../../../../../../../../../../../../../../../..]
 	Process OMPI jobid: [21635,1] App: 0 Process rank: 1 Bound: socket 0[core 1[hwt 0-1]]:[../BB/../../../../../../../../../../../../../..][../../../../../../../../../../../../../../../..]
 	Process OMPI jobid: [21635,1] App: 0 Process rank: 2 Bound: socket 1[core 16[hwt 0-1]]:[../../../../../../../../../../../../../../../..][BB/../../../../../../../../../../../../../../..]
 	Process OMPI jobid: [21635,1] App: 0 Process rank: 3 Bound: socket 1[core 17[hwt 0-1]]:[../../../../../../../../../../../../../../../..][../BB/../../../../../../../../../../../../../..]

 =============================================================
[1578657445.373438] [srl-adm2:4869 :0]         mxm.c:196  MXM  WARN  The 'ulimit -s' on the system is set to 'unlimited'. This may have negative performance implications. Please set the stack size to the default value (10240) 
[1578657445.373451] [srl-adm2:4870 :0]         mxm.c:196  MXM  WARN  The 'ulimit -s' on the system is set to 'unlimited'. This may have negative performance implications. Please set the stack size to the default value (10240) 
[1578657445.373565] [srl-adm2:4868 :0]         mxm.c:196  MXM  WARN  The 'ulimit -s' on the system is set to 'unlimited'. This may have negative performance implications. Please set the stack size to the default value (10240) 
[1578657445.373841] [srl-adm2:4867 :0]         mxm.c:196  MXM  WARN  The 'ulimit -s' on the system is set to 'unlimited'. This may have negative performance implications. Please set the stack size to the default value (10240) 
0: 0 

Rank 0 ghostCells: 305
Rank 1 ghostCells: 364
Rank 2 ghostCells: 1058
Rank 3 ghostCells: 532

Rank 0 numCells: 12398
Rank 1 numCells: 9593
Rank 2 numCells: 12586
Rank 3 numCells: 12113

Rank 0 interiorCells: 12093
Rank 1 interiorCells: 9229
Rank 2 interiorCells: 11528
Rank 3 interiorCells: 11581

MeasComm+1 4: 3.4151e-05 3.7738e-05 5.7247e-05 4.8546e-05 
MeasComm+1 4: 3.3845e-05 3.7822e-05 5.6038e-05 4.0734e-05 
MeasComm+1 4: 3.3557e-05 3.6787e-05 5.5069e-05 4.6694e-05 
MeasComm+1 4: 3.4082e-05 3.772e-05 5.6277e-05 4.8497e-05 
MeasComm+1 4: 3.3246e-05 3.6791e-05 5.598e-05 4.8096e-05 
MeasComm+1 4: 3.3571e-05 3.6693e-05 5.5537e-05 4.7147e-05 
MeasComm+1 4: 3.3648e-05 3.7164e-05 5.5538e-05 4.7366e-05 
MeasComm+1 4: 3.3366e-05 3.6543e-05 5.5002e-05 4.6929e-05 
MeasComm+1 4: 3.3163e-05 3.7225e-05 5.6069e-05 4.803e-05 
MeasComm+1 4: 3.3128e-05 3.6694e-05 5.5667e-05 4.2126e-05 

ComTab rank 0: 0 70 236 9 
ComTab rank 1: 59 0 312 0 
ComTab rank 2: 229 309 0 530 
ComTab rank 3: 9 0 526 0 

Edge-cut: 1427

Wgt-cut: 1.35161e-08

[1578657450.799426] [srl-adm2:4870 :0]          mpool.c:38   UCX  WARN  object 0x155539315ee0 was not returned to mpool mm_recv_desc
[1578657450.799897] [srl-adm2:4869 :0]          mpool.c:38   UCX  WARN  object 0x1555393fbe60 was not returned to mpool mm_recv_desc
[1578657450.799935] [srl-adm2:4868 :0]          mpool.c:38   UCX  WARN  object 0x155544122f60 was not returned to mpool mm_recv_desc
