 Data for JOB [54158,1] offset 0 Total slots allocated 2

 ========================   JOB MAP   ========================

 Data for node: n001	Num slots: 2	Max slots: 0	Num procs: 2
 	Process OMPI jobid: [54158,1] App: 0 Process rank: 0 Bound: socket 0[core 1[hwt 0-1]]:[../BB/../../../../../../../../../../../../../../../../../../../../../../../../../../../../../..][../../../../../../../../../../../../../../../../../../../../../../../../../../../../../../../..]
 	Process OMPI jobid: [54158,1] App: 0 Process rank: 1 Bound: socket 1[core 58[hwt 0-1]]:[../../../../../../../../../../../../../../../../../../../../../../../../../../../../../../../..][../../../../../../../../../../../../../../../../../../../../../../../../../../BB/../../../../..]

 =============================================================
dune-size 1 5.41579e-06 5.42059e-06 
dune-size 2 5.19588e-06 5.19648e-06 
dune-size 4 5.36039e-06 5.36219e-06 
dune-size 8 5.57349e-06 5.57659e-06 
dune-size 16 6.13079e-06 6.13149e-06 
dune-size 32 6.85589e-06 6.85649e-06 
dune-size 64 8.66458e-06 8.66838e-06 
dune-size 128 1.21093e-05 1.21088e-05 
dune-size 256 1.92556e-05 1.92588e-05 
dune-size 512 3.29997e-05 3.29997e-05 
dune-size 1024 0.00010541 0.000105417 
dune-size 2048 0.000198899 0.000198885 
dune-size 4096 0.000383194 0.000383176 
dune-size 8192 0.000639788 0.000639762 
dune-size 16384 0.000970954 0.000970857 
dune-size 32768 0.00168665 0.00168644 
dune-size 65536 0.0033203 0.00331797 
dune-size 131072 0.00660109 0.00659516 
dune-size 262144 0.0128966 0.0128968 
dune-size 524288 0.0263626 0.0263656 
dune-size 1048576 0.051587 0.0515962 
