 Data for JOB [53672,1] offset 0 Total slots allocated 2

 ========================   JOB MAP   ========================

 Data for node: n001	Num slots: 2	Max slots: 0	Num procs: 2
 	Process OMPI jobid: [53672,1] App: 0 Process rank: 0 Bound: socket 0[core 1[hwt 0-1]]:[../BB/../../../../../../../../../../../../../../../../../../../../../../../../../../../../../..][../../../../../../../../../../../../../../../../../../../../../../../../../../../../../../../..]
 	Process OMPI jobid: [53672,1] App: 0 Process rank: 1 Bound: socket 1[core 50[hwt 0-1]]:[../../../../../../../../../../../../../../../../../../../../../../../../../../../../../../../..][../../../../../../../../../../../../../../../../../../BB/../../../../../../../../../../../../..]

 =============================================================
dune-size 1 4.93399e-06 4.93609e-06 
dune-size 2 5.83978e-06 5.84588e-06 
dune-size 4 4.88419e-06 4.88259e-06 
dune-size 8 5.08119e-06 5.08209e-06 
dune-size 16 5.48959e-06 5.48769e-06 
dune-size 32 6.36678e-06 6.36338e-06 
dune-size 64 8.16218e-06 8.15928e-06 
dune-size 128 1.14479e-05 1.14554e-05 
dune-size 256 1.86412e-05 1.86428e-05 
dune-size 512 3.32665e-05 3.32517e-05 
dune-size 1024 0.000109101 0.000109078 
dune-size 2048 0.000195013 0.000194989 
dune-size 4096 0.000380518 0.000380516 
dune-size 8192 0.000665758 0.000665716 
dune-size 16384 0.000923426 0.000923315 
dune-size 32768 0.00168378 0.00168381 
dune-size 65536 0.00343262 0.00343046 
dune-size 131072 0.00644014 0.00644078 
dune-size 262144 0.0130357 0.0130223 
dune-size 524288 0.0258004 0.0258027 
dune-size 1048576 0.0512456 0.0511969 
