 Data for JOB [35150,1] offset 0 Total slots allocated 4

 ========================   JOB MAP   ========================

 Data for node: n004	Num slots: 4	Max slots: 0	Num procs: 4
 	Process OMPI jobid: [35150,1] App: 0 Process rank: 0 Bound: socket 1[core 49[hwt 0-1]]:[../../../../../../../../../../../../../../../../../../../../../../../../../../../../../../../..][../../../../../../../../../../../../../../../../../BB/../../../../../../../../../../../../../..]
 	Process OMPI jobid: [35150,1] App: 0 Process rank: 1 Bound: socket 1[core 35[hwt 0-1]]:[../../../../../../../../../../../../../../../../../../../../../../../../../../../../../../../..][../../../BB/../../../../../../../../../../../../../../../../../../../../../../../../../../../..]
 	Process OMPI jobid: [35150,1] App: 0 Process rank: 2 Bound: socket 1[core 50[hwt 0-1]]:[../../../../../../../../../../../../../../../../../../../../../../../../../../../../../../../..][../../../../../../../../../../../../../../../../../../BB/../../../../../../../../../../../../..]
 	Process OMPI jobid: [35150,1] App: 0 Process rank: 3 Bound: socket 1[core 36[hwt 0-1]]:[../../../../../../../../../../../../../../../../../../../../../../../../../../../../../../../..][../../../../BB/../../../../../../../../../../../../../../../../../../../../../../../../../../..]

 =============================================================
Two group cota
1 0 0
0 1 1
2 3 3
3 2 2
dune-size 1 7.713e-06 7.7032e-06 7.9875e-06 7.9853e-06 
dune-size 2 5.48471e-06 5.48201e-06 7.71981e-06 7.71751e-06 
dune-size 4 5.72821e-06 5.72441e-06 8.07041e-06 8.06701e-06 
dune-size 8 6.2238e-06 6.2153e-06 8.74051e-06 8.73251e-06 
dune-size 16 6.71531e-06 6.70451e-06 6.75311e-06 6.75031e-06 
dune-size 32 7.89751e-06 7.89001e-06 7.98171e-06 7.98341e-06 
dune-size 64 1.03242e-05 1.0314e-05 1.05844e-05 1.05876e-05 
dune-size 128 1.4749e-05 1.47448e-05 1.56663e-05 1.56579e-05 
dune-size 256 1.74337e-05 1.74302e-05 1.75197e-05 1.7511e-05 
dune-size 512 3.05933e-05 3.05913e-05 3.06614e-05 3.06631e-05 
dune-size 1024 8.51623e-05 8.51814e-05 8.46748e-05 8.46781e-05 
dune-size 2048 0.000160639 0.000160633 0.000162135 0.000162171 
dune-size 4096 0.000312833 0.00031284 0.000305604 0.000305605 
dune-size 8192 0.000574255 0.000574276 0.000548052 0.000548064 
dune-size 16384 0.000851723 0.000851722 0.000841049 0.000841061 
dune-size 32768 0.00161256 0.0016126 0.00161628 0.0016163 
dune-size 65536 0.00322567 0.00322368 0.00321842 0.00321764 
dune-size 131072 0.0064855 0.00648387 0.00648565 0.00648543 
