 Data for JOB [50357,1] offset 0 Total slots allocated 8

 ========================   JOB MAP   ========================

 Data for node: n003	Num slots: 8	Max slots: 0	Num procs: 8
 	Process OMPI jobid: [50357,1] App: 0 Process rank: 0 Bound: socket 0[core 8[hwt 0-1]]:[../../../../../../../../BB/../../../../../../../../../../../../../../../../../../../../../../..][../../../../../../../../../../../../../../../../../../../../../../../../../../../../../../../..]
 	Process OMPI jobid: [50357,1] App: 0 Process rank: 1 Bound: socket 0[core 9[hwt 0-1]]:[../../../../../../../../../BB/../../../../../../../../../../../../../../../../../../../../../..][../../../../../../../../../../../../../../../../../../../../../../../../../../../../../../../..]
 	Process OMPI jobid: [50357,1] App: 0 Process rank: 2 Bound: socket 0[core 10[hwt 0-1]]:[../../../../../../../../../../BB/../../../../../../../../../../../../../../../../../../../../..][../../../../../../../../../../../../../../../../../../../../../../../../../../../../../../../..]
 	Process OMPI jobid: [50357,1] App: 0 Process rank: 3 Bound: socket 0[core 11[hwt 0-1]]:[../../../../../../../../../../../BB/../../../../../../../../../../../../../../../../../../../..][../../../../../../../../../../../../../../../../../../../../../../../../../../../../../../../..]
 	Process OMPI jobid: [50357,1] App: 0 Process rank: 4 Bound: socket 1[core 36[hwt 0-1]]:[../../../../../../../../../../../../../../../../../../../../../../../../../../../../../../../..][../../../../BB/../../../../../../../../../../../../../../../../../../../../../../../../../../..]
 	Process OMPI jobid: [50357,1] App: 0 Process rank: 5 Bound: socket 1[core 37[hwt 0-1]]:[../../../../../../../../../../../../../../../../../../../../../../../../../../../../../../../..][../../../../../BB/../../../../../../../../../../../../../../../../../../../../../../../../../..]
 	Process OMPI jobid: [50357,1] App: 0 Process rank: 6 Bound: socket 1[core 38[hwt 0-1]]:[../../../../../../../../../../../../../../../../../../../../../../../../../../../../../../../..][../../../../../../BB/../../../../../../../../../../../../../../../../../../../../../../../../..]
 	Process OMPI jobid: [50357,1] App: 0 Process rank: 7 Bound: socket 1[core 39[hwt 0-1]]:[../../../../../../../../../../../../../../../../../../../../../../../../../../../../../../../..][../../../../../../../BB/../../../../../../../../../../../../../../../../../../../../../../../..]

 =============================================================
6 7 5
6 4 4
6 5 7
7 4 6
7 5 5
7 6 4
Two group cota
0 1 3
0 2 2
0 3 1
1 2 0
1 3 3
1 0 2
2 3 1
2 0 0
2 1 3
3 0 2
3 1 1
3 2 0
4 5 7
4 6 6
4 7 5
5 6 4
5 7 7
5 4 6
dune-size 1 7.32109e-06 7.33499e-06 7.20429e-06 7.34509e-06 7.33389e-06 7.36009e-06 7.21419e-06 7.36029e-06 
dune-size 2 1.20574e-05 1.37017e-05 1.20518e-05 1.36962e-05 1.14217e-05 1.30765e-05 1.14339e-05 1.30654e-05 
dune-size 4 6.99079e-06 6.97699e-06 6.97709e-06 6.98649e-06 6.93029e-06 6.91659e-06 6.92909e-06 6.92089e-06 
dune-size 8 7.60778e-06 7.59598e-06 7.60008e-06 7.59728e-06 7.62298e-06 7.62028e-06 7.60868e-06 7.61248e-06 
dune-size 16 9.09509e-06 9.08699e-06 9.08369e-06 9.08409e-06 8.74509e-06 8.73529e-06 8.74509e-06 8.73519e-06 
dune-size 32 1.1006e-05 1.10034e-05 1.10019e-05 1.10049e-05 1.09586e-05 1.09588e-05 1.09673e-05 1.09602e-05 
dune-size 64 1.5801e-05 1.58098e-05 1.58021e-05 1.57979e-05 1.57773e-05 1.58019e-05 1.58246e-05 1.57814e-05 
dune-size 128 2.5017e-05 2.50224e-05 2.50226e-05 2.5019e-05 2.56115e-05 2.56485e-05 2.56794e-05 2.56196e-05 
dune-size 256 4.33463e-05 4.33416e-05 4.33237e-05 4.33255e-05 4.6149e-05 4.62125e-05 4.62648e-05 4.61545e-05 
dune-size 512 8.00048e-05 7.99674e-05 7.99762e-05 7.99869e-05 8.20704e-05 8.20228e-05 8.21788e-05 8.20297e-05 
dune-size 1024 0.000174389 0.000173943 0.000174172 0.000173945 0.000172781 0.000172558 0.000172986 0.000172554 
dune-size 2048 0.00032512 0.00032505 0.000324623 0.000324625 0.000323181 0.000323197 0.000324028 0.000323628 
dune-size 4096 0.00062175 0.000620954 0.000620613 0.000620612 0.000622882 0.000622316 0.000623686 0.000622322 
dune-size 8192 0.00120222 0.00120097 0.00119947 0.00119946 0.00120037 0.00120196 0.00120036 0.00120299 
dune-size 16384 0.00238644 0.00238697 0.00238626 0.00238621 0.00237737 0.00237653 0.0023765 0.00237939 
dune-size 32768 0.00480589 0.00480952 0.00480583 0.0048058 0.00483534 0.00483533 0.00483532 0.00483751 
dune-size 65536 0.00983846 0.00983813 0.00983241 0.00983241 0.00980968 0.00980964 0.00980977 0.00983895 
dune-size 131072 0.0196404 0.0196403 0.0196369 0.0196378 0.0195204 0.0195141 0.0195197 0.0195101 
