 Data for JOB [24969,1] offset 0 Total slots allocated 8

 ========================   JOB MAP   ========================

 Data for node: n004	Num slots: 8	Max slots: 0	Num procs: 8
 	Process OMPI jobid: [24969,1] App: 0 Process rank: 0 Bound: socket 1[core 32[hwt 0-1]]:[../../../../../../../../../../../../../../../../../../../../../../../../../../../../../../../..][BB/../../../../../../../../../../../../../../../../../../../../../../../../../../../../../../..]
 	Process OMPI jobid: [24969,1] App: 0 Process rank: 1 Bound: socket 0[core 21[hwt 0-1]]:[../../../../../../../../../../../../../../../../../../../../../BB/../../../../../../../../../..][../../../../../../../../../../../../../../../../../../../../../../../../../../../../../../../..]
 	Process OMPI jobid: [24969,1] App: 0 Process rank: 2 Bound: socket 1[core 34[hwt 0-1]]:[../../../../../../../../../../../../../../../../../../../../../../../../../../../../../../../..][../../BB/../../../../../../../../../../../../../../../../../../../../../../../../../../../../..]
 	Process OMPI jobid: [24969,1] App: 0 Process rank: 3 Bound: socket 0[core 23[hwt 0-1]]:[../../../../../../../../../../../../../../../../../../../../../../../BB/../../../../../../../..][../../../../../../../../../../../../../../../../../../../../../../../../../../../../../../../..]
 	Process OMPI jobid: [24969,1] App: 0 Process rank: 4 Bound: socket 0[core 20[hwt 0-1]]:[../../../../../../../../../../../../../../../../../../../../BB/../../../../../../../../../../..][../../../../../../../../../../../../../../../../../../../../../../../../../../../../../../../..]
 	Process OMPI jobid: [24969,1] App: 0 Process rank: 5 Bound: socket 1[core 33[hwt 0-1]]:[../../../../../../../../../../../../../../../../../../../../../../../../../../../../../../../..][../BB/../../../../../../../../../../../../../../../../../../../../../../../../../../../../../..]
 	Process OMPI jobid: [24969,1] App: 0 Process rank: 6 Bound: socket 0[core 22[hwt 0-1]]:[../../../../../../../../../../../../../../../../../../../../../../BB/../../../../../../../../..][../../../../../../../../../../../../../../../../../../../../../../../../../../../../../../../..]
 	Process OMPI jobid: [24969,1] App: 0 Process rank: 7 Bound: socket 1[core 35[hwt 0-1]]:[../../../../../../../../../../../../../../../../../../../../../../../../../../../../../../../..][../../../BB/../../../../../../../../../../../../../../../../../../../../../../../../../../../..]

 =============================================================
3 0 2
3 1 1
3 2 0
6 7 5
6 4 4
6 5 7
Two group cota
0 1 3
0 2 2
0 3 1
7 4 6
7 5 5
7 6 4
1 2 0
1 3 3
1 0 2
2 3 1
2 0 0
2 1 3
4 5 7
4 6 6
4 7 5
5 6 4
5 7 7
5 4 6
dune-size 1 2.67118e-05 2.89155e-05 2.65517e-05 2.89242e-05 2.77856e-05 2.9974e-05 2.76562e-05 2.99791e-05 
dune-size 2 2.1245e-05 2.1271e-05 2.13268e-05 2.12993e-05 1.59593e-05 1.59179e-05 1.59423e-05 1.59613e-05 
dune-size 4 1.79274e-05 1.79182e-05 1.78561e-05 1.78854e-05 1.77134e-05 1.7699e-05 1.76438e-05 1.76728e-05 
dune-size 8 1.93727e-05 1.93567e-05 1.92848e-05 1.93191e-05 1.93175e-05 1.93066e-05 1.92426e-05 1.92734e-05 
dune-size 16 2.12934e-05 2.12882e-05 2.12301e-05 2.12556e-05 2.11156e-05 2.11174e-05 2.10446e-05 2.10697e-05 
dune-size 32 1.69863e-05 1.70042e-05 1.69927e-05 1.70166e-05 1.70114e-05 1.69886e-05 1.70156e-05 1.69955e-05 
dune-size 64 2.22984e-05 2.23297e-05 2.23025e-05 2.23283e-05 2.23563e-05 2.23822e-05 2.2371e-05 2.23868e-05 
dune-size 128 3.21497e-05 3.22204e-05 3.21712e-05 3.22121e-05 3.22136e-05 3.22353e-05 3.22188e-05 3.22256e-05 
dune-size 256 5.30292e-05 5.30539e-05 5.31394e-05 5.30638e-05 5.24672e-05 5.25415e-05 5.25185e-05 5.25407e-05 
dune-size 512 9.39784e-05 9.37749e-05 9.38259e-05 9.38616e-05 9.38498e-05 9.40156e-05 9.39174e-05 9.40154e-05 
dune-size 1024 0.000274946 0.000274613 0.000274673 0.000275154 0.000274002 0.000273738 0.000273704 0.0002742 
dune-size 2048 0.000491657 0.000490774 0.000490767 0.000491249 0.000510907 0.000511794 0.000511362 0.000510831 
dune-size 4096 0.000826848 0.000825139 0.000824995 0.000826045 0.000797567 0.000796624 0.000796609 0.000798363 
dune-size 8192 0.00132833 0.00132633 0.00132646 0.00132876 0.00136316 0.00136654 0.00136493 0.00136295 
dune-size 16384 0.00244631 0.0024464 0.00245314 0.00244997 0.00247798 0.00247397 0.00247443 0.00248115 
dune-size 32768 0.00491513 0.00492277 0.00492929 0.00491535 0.00491663 0.00492895 0.00492322 0.004917 
dune-size 65536 0.0099691 0.00996608 0.00996999 0.00995706 0.00996661 0.00992967 0.00990963 0.00992681 
dune-size 131072 0.0199009 0.0198082 0.0198998 0.0198076 0.0198545 0.0198726 0.0198525 0.0198663 
