 Data for JOB [9137,1] offset 0 Total slots allocated 64

 ========================   JOB MAP   ========================

 Data for node: n003	Num slots: 64	Max slots: 0	Num procs: 64
 	Process OMPI jobid: [9137,1] App: 0 Process rank: 0 Bound: socket 0[core 0[hwt 0-1]]:[BB/../../../../../../../../../../../../../../../../../../../../../../../../../../../../../../..][../../../../../../../../../../../../../../../../../../../../../../../../../../../../../../../..]
 	Process OMPI jobid: [9137,1] App: 0 Process rank: 1 Bound: socket 0[core 1[hwt 0-1]]:[../BB/../../../../../../../../../../../../../../../../../../../../../../../../../../../../../..][../../../../../../../../../../../../../../../../../../../../../../../../../../../../../../../..]
 	Process OMPI jobid: [9137,1] App: 0 Process rank: 2 Bound: socket 0[core 2[hwt 0-1]]:[../../BB/../../../../../../../../../../../../../../../../../../../../../../../../../../../../..][../../../../../../../../../../../../../../../../../../../../../../../../../../../../../../../..]
 	Process OMPI jobid: [9137,1] App: 0 Process rank: 3 Bound: socket 0[core 3[hwt 0-1]]:[../../../BB/../../../../../../../../../../../../../../../../../../../../../../../../../../../..][../../../../../../../../../../../../../../../../../../../../../../../../../../../../../../../..]
 	Process OMPI jobid: [9137,1] App: 0 Process rank: 4 Bound: socket 0[core 8[hwt 0-1]]:[../../../../../../../../BB/../../../../../../../../../../../../../../../../../../../../../../..][../../../../../../../../../../../../../../../../../../../../../../../../../../../../../../../..]
 	Process OMPI jobid: [9137,1] App: 0 Process rank: 5 Bound: socket 0[core 9[hwt 0-1]]:[../../../../../../../../../BB/../../../../../../../../../../../../../../../../../../../../../..][../../../../../../../../../../../../../../../../../../../../../../../../../../../../../../../..]
 	Process OMPI jobid: [9137,1] App: 0 Process rank: 6 Bound: socket 0[core 10[hwt 0-1]]:[../../../../../../../../../../BB/../../../../../../../../../../../../../../../../../../../../..][../../../../../../../../../../../../../../../../../../../../../../../../../../../../../../../..]
 	Process OMPI jobid: [9137,1] App: 0 Process rank: 7 Bound: socket 0[core 11[hwt 0-1]]:[../../../../../../../../../../../BB/../../../../../../../../../../../../../../../../../../../..][../../../../../../../../../../../../../../../../../../../../../../../../../../../../../../../..]
 	Process OMPI jobid: [9137,1] App: 0 Process rank: 8 Bound: socket 0[core 16[hwt 0-1]]:[../../../../../../../../../../../../../../../../BB/../../../../../../../../../../../../../../..][../../../../../../../../../../../../../../../../../../../../../../../../../../../../../../../..]
 	Process OMPI jobid: [9137,1] App: 0 Process rank: 9 Bound: socket 0[core 17[hwt 0-1]]:[../../../../../../../../../../../../../../../../../BB/../../../../../../../../../../../../../..][../../../../../../../../../../../../../../../../../../../../../../../../../../../../../../../..]
 	Process OMPI jobid: [9137,1] App: 0 Process rank: 10 Bound: socket 0[core 18[hwt 0-1]]:[../../../../../../../../../../../../../../../../../../BB/../../../../../../../../../../../../..][../../../../../../../../../../../../../../../../../../../../../../../../../../../../../../../..]
 	Process OMPI jobid: [9137,1] App: 0 Process rank: 11 Bound: socket 0[core 19[hwt 0-1]]:[../../../../../../../../../../../../../../../../../../../BB/../../../../../../../../../../../..][../../../../../../../../../../../../../../../../../../../../../../../../../../../../../../../..]
 	Process OMPI jobid: [9137,1] App: 0 Process rank: 12 Bound: socket 0[core 24[hwt 0-1]]:[../../../../../../../../../../../../../../../../../../../../../../../../BB/../../../../../../..][../../../../../../../../../../../../../../../../../../../../../../../../../../../../../../../..]
 	Process OMPI jobid: [9137,1] App: 0 Process rank: 13 Bound: socket 0[core 25[hwt 0-1]]:[../../../../../../../../../../../../../../../../../../../../../../../../../BB/../../../../../..][../../../../../../../../../../../../../../../../../../../../../../../../../../../../../../../..]
 	Process OMPI jobid: [9137,1] App: 0 Process rank: 14 Bound: socket 0[core 26[hwt 0-1]]:[../../../../../../../../../../../../../../../../../../../../../../../../../../BB/../../../../..][../../../../../../../../../../../../../../../../../../../../../../../../../../../../../../../..]
 	Process OMPI jobid: [9137,1] App: 0 Process rank: 15 Bound: socket 0[core 27[hwt 0-1]]:[../../../../../../../../../../../../../../../../../../../../../../../../../../../BB/../../../..][../../../../../../../../../../../../../../../../../../../../../../../../../../../../../../../..]
 	Process OMPI jobid: [9137,1] App: 0 Process rank: 16 Bound: socket 1[core 32[hwt 0-1]]:[../../../../../../../../../../../../../../../../../../../../../../../../../../../../../../../..][BB/../../../../../../../../../../../../../../../../../../../../../../../../../../../../../../..]
 	Process OMPI jobid: [9137,1] App: 0 Process rank: 17 Bound: socket 1[core 33[hwt 0-1]]:[../../../../../../../../../../../../../../../../../../../../../../../../../../../../../../../..][../BB/../../../../../../../../../../../../../../../../../../../../../../../../../../../../../..]
 	Process OMPI jobid: [9137,1] App: 0 Process rank: 18 Bound: socket 1[core 34[hwt 0-1]]:[../../../../../../../../../../../../../../../../../../../../../../../../../../../../../../../..][../../BB/../../../../../../../../../../../../../../../../../../../../../../../../../../../../..]
 	Process OMPI jobid: [9137,1] App: 0 Process rank: 19 Bound: socket 1[core 35[hwt 0-1]]:[../../../../../../../../../../../../../../../../../../../../../../../../../../../../../../../..][../../../BB/../../../../../../../../../../../../../../../../../../../../../../../../../../../..]
 	Process OMPI jobid: [9137,1] App: 0 Process rank: 20 Bound: socket 1[core 40[hwt 0-1]]:[../../../../../../../../../../../../../../../../../../../../../../../../../../../../../../../..][../../../../../../../../BB/../../../../../../../../../../../../../../../../../../../../../../..]
 	Process OMPI jobid: [9137,1] App: 0 Process rank: 21 Bound: socket 1[core 41[hwt 0-1]]:[../../../../../../../../../../../../../../../../../../../../../../../../../../../../../../../..][../../../../../../../../../BB/../../../../../../../../../../../../../../../../../../../../../..]
 	Process OMPI jobid: [9137,1] App: 0 Process rank: 22 Bound: socket 1[core 42[hwt 0-1]]:[../../../../../../../../../../../../../../../../../../../../../../../../../../../../../../../..][../../../../../../../../../../BB/../../../../../../../../../../../../../../../../../../../../..]
 	Process OMPI jobid: [9137,1] App: 0 Process rank: 23 Bound: socket 1[core 43[hwt 0-1]]:[../../../../../../../../../../../../../../../../../../../../../../../../../../../../../../../..][../../../../../../../../../../../BB/../../../../../../../../../../../../../../../../../../../..]
 	Process OMPI jobid: [9137,1] App: 0 Process rank: 24 Bound: socket 1[core 48[hwt 0-1]]:[../../../../../../../../../../../../../../../../../../../../../../../../../../../../../../../..][../../../../../../../../../../../../../../../../BB/../../../../../../../../../../../../../../..]
 	Process OMPI jobid: [9137,1] App: 0 Process rank: 25 Bound: socket 1[core 49[hwt 0-1]]:[../../../../../../../../../../../../../../../../../../../../../../../../../../../../../../../..][../../../../../../../../../../../../../../../../../BB/../../../../../../../../../../../../../..]
 	Process OMPI jobid: [9137,1] App: 0 Process rank: 26 Bound: socket 1[core 50[hwt 0-1]]:[../../../../../../../../../../../../../../../../../../../../../../../../../../../../../../../..][../../../../../../../../../../../../../../../../../../BB/../../../../../../../../../../../../..]
 	Process OMPI jobid: [9137,1] App: 0 Process rank: 27 Bound: socket 1[core 51[hwt 0-1]]:[../../../../../../../../../../../../../../../../../../../../../../../../../../../../../../../..][../../../../../../../../../../../../../../../../../../../BB/../../../../../../../../../../../..]
 	Process OMPI jobid: [9137,1] App: 0 Process rank: 28 Bound: socket 1[core 56[hwt 0-1]]:[../../../../../../../../../../../../../../../../../../../../../../../../../../../../../../../..][../../../../../../../../../../../../../../../../../../../../../../../../BB/../../../../../../..]
 	Process OMPI jobid: [9137,1] App: 0 Process rank: 29 Bound: socket 1[core 57[hwt 0-1]]:[../../../../../../../../../../../../../../../../../../../../../../../../../../../../../../../..][../../../../../../../../../../../../../../../../../../../../../../../../../BB/../../../../../..]
 	Process OMPI jobid: [9137,1] App: 0 Process rank: 30 Bound: socket 1[core 58[hwt 0-1]]:[../../../../../../../../../../../../../../../../../../../../../../../../../../../../../../../..][../../../../../../../../../../../../../../../../../../../../../../../../../../BB/../../../../..]
 	Process OMPI jobid: [9137,1] App: 0 Process rank: 31 Bound: socket 1[core 59[hwt 0-1]]:[../../../../../../../../../../../../../../../../../../../../../../../../../../../../../../../..][../../../../../../../../../../../../../../../../../../../../../../../../../../../BB/../../../..]
 	Process OMPI jobid: [9137,1] App: 0 Process rank: 32 Bound: socket 0[core 4[hwt 0-1]]:[../../../../BB/../../../../../../../../../../../../../../../../../../../../../../../../../../..][../../../../../../../../../../../../../../../../../../../../../../../../../../../../../../../..]
 	Process OMPI jobid: [9137,1] App: 0 Process rank: 33 Bound: socket 0[core 5[hwt 0-1]]:[../../../../../BB/../../../../../../../../../../../../../../../../../../../../../../../../../..][../../../../../../../../../../../../../../../../../../../../../../../../../../../../../../../..]
 	Process OMPI jobid: [9137,1] App: 0 Process rank: 34 Bound: socket 0[core 6[hwt 0-1]]:[../../../../../../BB/../../../../../../../../../../../../../../../../../../../../../../../../..][../../../../../../../../../../../../../../../../../../../../../../../../../../../../../../../..]
 	Process OMPI jobid: [9137,1] App: 0 Process rank: 35 Bound: socket 0[core 7[hwt 0-1]]:[../../../../../../../BB/../../../../../../../../../../../../../../../../../../../../../../../..][../../../../../../../../../../../../../../../../../../../../../../../../../../../../../../../..]
 	Process OMPI jobid: [9137,1] App: 0 Process rank: 36 Bound: socket 0[core 12[hwt 0-1]]:[../../../../../../../../../../../../BB/../../../../../../../../../../../../../../../../../../..][../../../../../../../../../../../../../../../../../../../../../../../../../../../../../../../..]
 	Process OMPI jobid: [9137,1] App: 0 Process rank: 37 Bound: socket 0[core 13[hwt 0-1]]:[../../../../../../../../../../../../../BB/../../../../../../../../../../../../../../../../../..][../../../../../../../../../../../../../../../../../../../../../../../../../../../../../../../..]
 	Process OMPI jobid: [9137,1] App: 0 Process rank: 38 Bound: socket 0[core 14[hwt 0-1]]:[../../../../../../../../../../../../../../BB/../../../../../../../../../../../../../../../../..][../../../../../../../../../../../../../../../../../../../../../../../../../../../../../../../..]
 	Process OMPI jobid: [9137,1] App: 0 Process rank: 39 Bound: socket 0[core 15[hwt 0-1]]:[../../../../../../../../../../../../../../../BB/../../../../../../../../../../../../../../../..][../../../../../../../../../../../../../../../../../../../../../../../../../../../../../../../..]
 	Process OMPI jobid: [9137,1] App: 0 Process rank: 40 Bound: socket 0[core 20[hwt 0-1]]:[../../../../../../../../../../../../../../../../../../../../BB/../../../../../../../../../../..][../../../../../../../../../../../../../../../../../../../../../../../../../../../../../../../..]
 	Process OMPI jobid: [9137,1] App: 0 Process rank: 41 Bound: socket 0[core 21[hwt 0-1]]:[../../../../../../../../../../../../../../../../../../../../../BB/../../../../../../../../../..][../../../../../../../../../../../../../../../../../../../../../../../../../../../../../../../..]
 	Process OMPI jobid: [9137,1] App: 0 Process rank: 42 Bound: socket 0[core 22[hwt 0-1]]:[../../../../../../../../../../../../../../../../../../../../../../BB/../../../../../../../../..][../../../../../../../../../../../../../../../../../../../../../../../../../../../../../../../..]
 	Process OMPI jobid: [9137,1] App: 0 Process rank: 43 Bound: socket 0[core 23[hwt 0-1]]:[../../../../../../../../../../../../../../../../../../../../../../../BB/../../../../../../../..][../../../../../../../../../../../../../../../../../../../../../../../../../../../../../../../..]
 	Process OMPI jobid: [9137,1] App: 0 Process rank: 44 Bound: socket 0[core 28[hwt 0-1]]:[../../../../../../../../../../../../../../../../../../../../../../../../../../../../BB/../../..][../../../../../../../../../../../../../../../../../../../../../../../../../../../../../../../..]
 	Process OMPI jobid: [9137,1] App: 0 Process rank: 45 Bound: socket 0[core 29[hwt 0-1]]:[../../../../../../../../../../../../../../../../../../../../../../../../../../../../../BB/../..][../../../../../../../../../../../../../../../../../../../../../../../../../../../../../../../..]
 	Process OMPI jobid: [9137,1] App: 0 Process rank: 46 Bound: socket 0[core 30[hwt 0-1]]:[../../../../../../../../../../../../../../../../../../../../../../../../../../../../../../BB/..][../../../../../../../../../../../../../../../../../../../../../../../../../../../../../../../..]
 	Process OMPI jobid: [9137,1] App: 0 Process rank: 47 Bound: socket 0[core 31[hwt 0-1]]:[../../../../../../../../../../../../../../../../../../../../../../../../../../../../../../../BB][../../../../../../../../../../../../../../../../../../../../../../../../../../../../../../../..]
 	Process OMPI jobid: [9137,1] App: 0 Process rank: 48 Bound: socket 1[core 36[hwt 0-1]]:[../../../../../../../../../../../../../../../../../../../../../../../../../../../../../../../..][../../../../BB/../../../../../../../../../../../../../../../../../../../../../../../../../../..]
 	Process OMPI jobid: [9137,1] App: 0 Process rank: 49 Bound: socket 1[core 37[hwt 0-1]]:[../../../../../../../../../../../../../../../../../../../../../../../../../../../../../../../..][../../../../../BB/../../../../../../../../../../../../../../../../../../../../../../../../../..]
 	Process OMPI jobid: [9137,1] App: 0 Process rank: 50 Bound: socket 1[core 38[hwt 0-1]]:[../../../../../../../../../../../../../../../../../../../../../../../../../../../../../../../..][../../../../../../BB/../../../../../../../../../../../../../../../../../../../../../../../../..]
 	Process OMPI jobid: [9137,1] App: 0 Process rank: 51 Bound: socket 1[core 39[hwt 0-1]]:[../../../../../../../../../../../../../../../../../../../../../../../../../../../../../../../..][../../../../../../../BB/../../../../../../../../../../../../../../../../../../../../../../../..]
 	Process OMPI jobid: [9137,1] App: 0 Process rank: 52 Bound: socket 1[core 44[hwt 0-1]]:[../../../../../../../../../../../../../../../../../../../../../../../../../../../../../../../..][../../../../../../../../../../../../BB/../../../../../../../../../../../../../../../../../../..]
 	Process OMPI jobid: [9137,1] App: 0 Process rank: 53 Bound: socket 1[core 45[hwt 0-1]]:[../../../../../../../../../../../../../../../../../../../../../../../../../../../../../../../..][../../../../../../../../../../../../../BB/../../../../../../../../../../../../../../../../../..]
 	Process OMPI jobid: [9137,1] App: 0 Process rank: 54 Bound: socket 1[core 46[hwt 0-1]]:[../../../../../../../../../../../../../../../../../../../../../../../../../../../../../../../..][../../../../../../../../../../../../../../BB/../../../../../../../../../../../../../../../../..]
 	Process OMPI jobid: [9137,1] App: 0 Process rank: 55 Bound: socket 1[core 47[hwt 0-1]]:[../../../../../../../../../../../../../../../../../../../../../../../../../../../../../../../..][../../../../../../../../../../../../../../../BB/../../../../../../../../../../../../../../../..]
 	Process OMPI jobid: [9137,1] App: 0 Process rank: 56 Bound: socket 1[core 52[hwt 0-1]]:[../../../../../../../../../../../../../../../../../../../../../../../../../../../../../../../..][../../../../../../../../../../../../../../../../../../../../BB/../../../../../../../../../../..]
 	Process OMPI jobid: [9137,1] App: 0 Process rank: 57 Bound: socket 1[core 53[hwt 0-1]]:[../../../../../../../../../../../../../../../../../../../../../../../../../../../../../../../..][../../../../../../../../../../../../../../../../../../../../../BB/../../../../../../../../../..]
 	Process OMPI jobid: [9137,1] App: 0 Process rank: 58 Bound: socket 1[core 54[hwt 0-1]]:[../../../../../../../../../../../../../../../../../../../../../../../../../../../../../../../..][../../../../../../../../../../../../../../../../../../../../../../BB/../../../../../../../../..]
 	Process OMPI jobid: [9137,1] App: 0 Process rank: 59 Bound: socket 1[core 55[hwt 0-1]]:[../../../../../../../../../../../../../../../../../../../../../../../../../../../../../../../..][../../../../../../../../../../../../../../../../../../../../../../../BB/../../../../../../../..]
 	Process OMPI jobid: [9137,1] App: 0 Process rank: 60 Bound: socket 1[core 60[hwt 0-1]]:[../../../../../../../../../../../../../../../../../../../../../../../../../../../../../../../..][../../../../../../../../../../../../../../../../../../../../../../../../../../../../BB/../../..]
 	Process OMPI jobid: [9137,1] App: 0 Process rank: 61 Bound: socket 1[core 61[hwt 0-1]]:[../../../../../../../../../../../../../../../../../../../../../../../../../../../../../../../..][../../../../../../../../../../../../../../../../../../../../../../../../../../../../../BB/../..]
 	Process OMPI jobid: [9137,1] App: 0 Process rank: 62 Bound: socket 1[core 62[hwt 0-1]]:[../../../../../../../../../../../../../../../../../../../../../../../../../../../../../../../..][../../../../../../../../../../../../../../../../../../../../../../../../../../../../../../BB/..]
 	Process OMPI jobid: [9137,1] App: 0 Process rank: 63 Bound: socket 1[core 63[hwt 0-1]]:[../../../../../../../../../../../../../../../../../../../../../../../../../../../../../../../..][../../../../../../../../../../../../../../../../../../../../../../../../../../../../../../../BB]

 =============================================================
Single Size change topo
dune-size 249984-1.1 0.0705766 0.0676857 0.0633732 0.0587535 0.0536013 0.0489359 0.044218 0.0399947 0.0336914 0.0307952 0.0264442 0.0221172 0.0220828 0.0203735 0.0208038 0.0205079 0.0203718 0.0202171 0.0202178 0.0202261 0.0201738 0.0202203 0.0202201 0.0201828 0.0199003 0.0198894 0.0199685 0.0199671 0.0201854 0.0200702 0.0198018 0.0200663 0.0200927 0.0200727 0.0199674 0.0195133 0.0200246 0.0200978 0.0204891 0.0208062 0.0201694 0.0196412 0.0197754 0.0203313 0.0202858 0.0203125 0.0203122 0.020965 0.020806 0.0215287 0.0214976 0.0198238 0.0200427 0.0199625 0.0208367 0.0259655 0.0301867 0.0372435 0.0417802 0.0467931 0.0516971 0.0575333 0.0627006 0.0674379 
dune-size 249984-1.2 0.0132881 0.01329 0.0595876 0.0580219 0.0134413 0.0135239 0.0133228 0.0133225 0.0135772 0.0135735 0.0133746 0.0133745 0.0140818 0.0140818 0.0137615 0.0137614 0.0135537 0.013553 0.0132716 0.0132715 0.0132248 0.0132248 0.0133782 0.0133757 0.0134253 0.0134328 0.0134441 0.013446 0.0135837 0.0135838 0.0131164 0.0131141 0.0168395 0.016937 0.0133807 0.0133788 0.0137638 0.0137013 0.0135958 0.013592 0.0138625 0.0138605 0.0138615 0.0138598 0.0133569 0.0133695 0.0135701 0.0135604 0.0134676 0.013468 0.013642 0.0136406 0.0135015 0.0134984 0.0137325 0.0137335 0.0133954 0.0133902 0.0132011 0.0132011 0.0132707 0.0132708 0.0133517 0.0133533 
dune-size 249984-1.3 0.0131949 0.0137468 0.0604356 0.0132178 0.0134816 0.0138053 0.0137579 0.0137127 0.0139281 0.0136833 0.0137794 0.0136403 0.0136216 0.0138242 0.0136282 0.0135398 0.0135194 0.0134054 0.0136552 0.0134489 0.0133968 0.0134229 0.0135627 0.0138123 0.0136005 0.013388 0.0137705 0.0135677 0.0134485 0.0134086 0.013166 0.0132628 0.0131816 0.0136883 0.0584909 0.0132107 0.0134777 0.0138081 0.0137547 0.0137087 0.0139265 0.0136808 0.0137754 0.0136472 0.0136196 0.0138255 0.0136283 0.0135384 0.0135093 0.0134054 0.013656 0.0134536 0.013395 0.0134237 0.013636 0.0138131 0.0135975 0.0133845 0.0137694 0.0135643 0.0134514 0.0134025 0.013164 0.0132647 
dune-size 8064-31 0.0643503 0.0643923 0.0646215 0.0645523 0.0645024 0.0644639 0.0644415 0.0645298 0.0644206 0.0644041 0.0644527 0.064479 0.0646079 0.0643779 0.0645662 0.064365 0.064507 0.0645127 0.0645088 0.0645108 0.0645185 0.0645147 0.0645204 0.0645166 0.064528 0.0645224 0.0645261 0.0645242 0.0644303 0.0645797 0.0645922 0.0645404 0.0189025 0.0189694 0.0189543 0.0189715 0.0189215 0.0189102 0.0189084 0.0189582 0.0189657 0.0189676 0.018962 0.0189639 0.01896 0.0189413 0.0189029 0.018914 0.0189121 0.0189065 0.018903 0.0189197 0.0189375 0.0189178 0.0189563 0.0189235 0.0189158 0.0189394 0.0189355 0.0189293 0.0189336 0.0189315 0.0189255 0.0189273 
dune-size 8064-31.5 0.0641042 0.0638927 0.0644683 0.0638927 0.0642108 0.0640999 0.0642217 0.0641002 0.0641004 0.0644205 0.0643673 0.0641009 0.0641011 0.0641857 0.0641995 0.0644312 0.064335 0.0644142 0.0644397 0.0644078 0.0643839 0.0642622 0.0644564 0.0642501 0.0643091 0.0642826 0.0642715 0.0643964 0.0642933 0.0643513 0.0642375 0.0643215 0.0641016 0.0644495 0.0641045 0.0641047 0.0641047 0.0641048 0.0641047 0.0641048 0.0641048 0.0641049 0.0641048 0.0641049 0.064105 0.0641051 0.0641049 0.0641051 0.0641052 0.0641053 0.0641052 0.0641053 0.0641053 0.0641054 0.0641053 0.0641054 0.0641054 0.0641055 0.0641054 0.0641056 0.0641056 0.0641057 0.0641055 0.0641056 
dune-size 3968-63 0.0813175 1.52333 0.0813175 0.0813175 0.0813175 0.0813175 0.0813174 0.0813175 0.0813177 0.0813177 0.0813177 0.0813177 0.0813177 0.0813177 0.0813176 0.0813177 0.0813178 0.0813178 0.0813178 0.0813178 0.0813178 0.0813179 0.0813178 0.0813179 0.0813179 0.0813179 0.0813179 0.081318 0.0813181 0.0813181 0.081318 0.0813181 0.0813183 0.0813183 0.0813182 0.0813182 0.0813182 0.0813182 0.0813182 0.0813182 0.0813183 0.0813183 0.0813183 0.0813183 0.0813184 0.0813184 0.0813184 0.0813184 0.0813185 0.0813186 0.0813185 0.0813185 0.0813187 0.0813187 0.0813187 0.0813187 0.0813186 0.0813186 0.0813186 0.0813186 0.0816714 0.0813187 0.0813186 0.0813186 
dune-size 999936-1.1 0.218294 0.210891 0.19939 0.180915 0.164265 0.142137 0.128703 0.119524 0.11263 0.107012 0.0997195 0.0857949 0.0847511 0.0844626 0.0847219 0.0845093 0.0850691 0.0849834 0.0841397 0.0824063 0.0828686 0.0834952 0.0848022 0.0815082 0.081492 0.0832004 0.0830295 0.0832489 0.083536 0.0837136 0.0847662 0.0815299 0.0836167 0.0838616 0.084111 0.0841486 0.084173 0.0841705 0.0838115 0.0838115 0.0838491 0.08341 0.0837239 0.0850671 0.0844191 0.0848618 0.0848618 0.0840055 0.0841222 0.0836509 0.0841479 0.0845113 0.0844789 0.0833952 0.083339 0.0832554 0.0849528 0.104239 0.118643 0.133089 0.156097 0.175748 0.196291 0.209772 
dune-size 999936-1.2 0.0550311 0.0551375 0.0534359 0.0532579 0.0546678 0.0546386 0.0532127 0.0532189 0.0549109 0.0548172 0.0530937 0.0529984 0.0540436 0.0539315 0.0532759 0.0531965 0.0539935 0.0541718 0.0539868 0.0540993 0.0536752 0.0537219 0.0531764 0.0533175 0.0546001 0.0547489 0.0537595 0.0536503 0.054656 0.0546818 0.0546196 0.0546275 0.25539 0.248264 0.0526513 0.0526741 0.0538622 0.0539959 0.0549428 0.0550188 0.0542852 0.0542787 0.0548027 0.0548927 0.0536516 0.0535937 0.0547607 0.0546743 0.053058 0.0530499 0.0525582 0.0525579 0.0548798 0.0549601 0.0544499 0.0545346 0.0534061 0.0534142 0.0548416 0.0548396 0.0543002 0.0542381 0.0528808 0.0528264 
dune-size 999936-1.3 0.254827 0.0629289 0.0540721 0.0539532 0.0556701 0.0535902 0.0540582 0.0544867 0.0550207 0.0544851 0.0534887 0.0533982 0.0541752 0.0554736 0.053882 0.0554328 0.0543104 0.0531227 0.0533783 0.0539201 0.0544464 0.0548201 0.0538325 0.0552455 0.0539482 0.0531828 0.0544227 0.0546938 0.0530126 0.0534494 0.0544645 0.0545822 0.249162 0.0629364 0.0541256 0.053982 0.0559061 0.0536037 0.0540603 0.0546037 0.0549245 0.054388 0.0535726 0.0532913 0.054166 0.0556011 0.0538897 0.0554305 0.054399 0.0531842 0.0534715 0.0539083 0.0543694 0.0547782 0.053956 0.0552082 0.0539581 0.0532577 0.0544302 0.0546213 0.0529412 0.053441 0.0543888 0.0545625 
dune-size 32256-31 0.250333 0.249219 0.250225 0.249271 0.249768 0.249728 0.249828 0.249694 0.250144 0.249369 0.249432 0.249465 0.249648 0.249656 0.249632 0.249686 0.249507 0.24956 0.250096 0.249989 0.25013 0.250289 0.24933 0.250043 0.250182 0.24928 0.250115 0.250122 0.24989 0.249294 0.249287 0.249932 0.0717671 0.0726359 0.0718175 0.0716475 0.071796 0.0718462 0.0718391 0.0718102 0.0718318 0.0716501 0.071803 0.0716502 0.0717889 0.0717599 0.0717742 0.0718247 0.0716505 0.0716506 0.0716506 0.0716506 0.0717817 0.0716505 0.0716506 0.0716506 0.0716497 0.0716497 0.0716497 0.0716497 0.0716491 0.071649 0.0716491 0.071649 
dune-size 32256-31.5 0.253413 0.251373 0.25257 0.252571 0.252801 0.252792 0.252747 0.252756 0.252683 0.252705 0.252715 0.252674 0.252774 0.252725 0.252739 0.252783 0.252956 0.252948 0.252765 0.252818 0.252664 0.25281 0.252935 0.252893 0.252843 0.252833 0.252863 0.252875 0.25297 0.252922 0.252963 0.252901 0.252581 0.252581 0.252581 0.252581 0.252581 0.252581 0.252581 0.252581 0.252583 0.252583 0.252583 0.252583 0.252584 0.252584 0.252584 0.252584 0.252585 0.252583 0.252584 0.252583 0.252584 0.252584 0.252584 0.252584 0.252583 0.252583 0.252583 0.252583 0.252582 0.252582 0.252582 0.251372 
dune-size 15872-63 0.346629 0.305675 0.305675 0.305675 0.305675 0.305675 0.305675 0.305675 0.305675 0.305675 0.305675 0.305675 0.305677 0.305677 0.305677 0.305677 0.305679 0.305679 0.305679 0.305679 0.305679 0.305679 0.305679 0.305679 0.305678 0.305678 0.305678 0.305678 0.305677 0.305677 0.305677 0.305677 0.305676 0.305676 0.305676 0.305676 0.305677 0.305677 0.305677 0.305677 0.305679 0.305679 0.305679 0.305679 0.305679 0.305679 0.305679 0.305679 0.30568 0.30568 0.30568 0.30568 0.306685 0.30568 0.30568 0.30568 0.305679 0.305679 0.305679 0.305679 0.305678 0.305678 0.305678 0.305678 
