 Data for JOB [26536,1] offset 0 Total slots allocated 16

 ========================   JOB MAP   ========================

 Data for node: srl-login1	Num slots: 16	Max slots: 0	Num procs: 16
 	Process OMPI jobid: [26536,1] App: 0 Process rank: 0 Bound: socket 0[core 0[hwt 0-1]]:[BB/../../../../../../../../../../../../../../..][../../../../../../../../../../../../../../../..]
 	Process OMPI jobid: [26536,1] App: 0 Process rank: 1 Bound: socket 0[core 1[hwt 0-1]]:[../BB/../../../../../../../../../../../../../..][../../../../../../../../../../../../../../../..]
 	Process OMPI jobid: [26536,1] App: 0 Process rank: 2 Bound: socket 0[core 2[hwt 0-1]]:[../../BB/../../../../../../../../../../../../..][../../../../../../../../../../../../../../../..]
 	Process OMPI jobid: [26536,1] App: 0 Process rank: 3 Bound: socket 0[core 3[hwt 0-1]]:[../../../BB/../../../../../../../../../../../..][../../../../../../../../../../../../../../../..]
 	Process OMPI jobid: [26536,1] App: 0 Process rank: 4 Bound: socket 0[core 8[hwt 0-1]]:[../../../../../../../../BB/../../../../../../..][../../../../../../../../../../../../../../../..]
 	Process OMPI jobid: [26536,1] App: 0 Process rank: 5 Bound: socket 0[core 9[hwt 0-1]]:[../../../../../../../../../BB/../../../../../..][../../../../../../../../../../../../../../../..]
 	Process OMPI jobid: [26536,1] App: 0 Process rank: 6 Bound: socket 0[core 10[hwt 0-1]]:[../../../../../../../../../../BB/../../../../..][../../../../../../../../../../../../../../../..]
 	Process OMPI jobid: [26536,1] App: 0 Process rank: 7 Bound: socket 0[core 11[hwt 0-1]]:[../../../../../../../../../../../BB/../../../..][../../../../../../../../../../../../../../../..]
 	Process OMPI jobid: [26536,1] App: 0 Process rank: 8 Bound: socket 1[core 16[hwt 0-1]]:[../../../../../../../../../../../../../../../..][BB/../../../../../../../../../../../../../../..]
 	Process OMPI jobid: [26536,1] App: 0 Process rank: 9 Bound: socket 1[core 17[hwt 0-1]]:[../../../../../../../../../../../../../../../..][../BB/../../../../../../../../../../../../../..]
 	Process OMPI jobid: [26536,1] App: 0 Process rank: 10 Bound: socket 1[core 18[hwt 0-1]]:[../../../../../../../../../../../../../../../..][../../BB/../../../../../../../../../../../../..]
 	Process OMPI jobid: [26536,1] App: 0 Process rank: 11 Bound: socket 1[core 19[hwt 0-1]]:[../../../../../../../../../../../../../../../..][../../../BB/../../../../../../../../../../../..]
 	Process OMPI jobid: [26536,1] App: 0 Process rank: 12 Bound: socket 1[core 24[hwt 0-1]]:[../../../../../../../../../../../../../../../..][../../../../../../../../BB/../../../../../../..]
 	Process OMPI jobid: [26536,1] App: 0 Process rank: 13 Bound: socket 1[core 25[hwt 0-1]]:[../../../../../../../../../../../../../../../..][../../../../../../../../../BB/../../../../../..]
 	Process OMPI jobid: [26536,1] App: 0 Process rank: 14 Bound: socket 1[core 26[hwt 0-1]]:[../../../../../../../../../../../../../../../..][../../../../../../../../../../BB/../../../../..]
 	Process OMPI jobid: [26536,1] App: 0 Process rank: 15 Bound: socket 1[core 27[hwt 0-1]]:[../../../../../../../../../../../../../../../..][../../../../../../../../../../../BB/../../../..]

 =============================================================
[1578561728.074280] [srl-login1:16388:0]         mxm.c:196  MXM  WARN  The 'ulimit -s' on the system is set to 'unlimited'. This may have negative performance implications. Please set the stack size to the default value (10240) 
[1578561728.085215] [srl-login1:16381:0]         mxm.c:196  MXM  WARN  The 'ulimit -s' on the system is set to 'unlimited'. This may have negative performance implications. Please set the stack size to the default value (10240) 
[1578561728.086181] [srl-login1:16385:0]         mxm.c:196  MXM  WARN  The 'ulimit -s' on the system is set to 'unlimited'. This may have negative performance implications. Please set the stack size to the default value (10240) 
[1578561728.086808] [srl-login1:16382:0]         mxm.c:196  MXM  WARN  The 'ulimit -s' on the system is set to 'unlimited'. This may have negative performance implications. Please set the stack size to the default value (10240) 
[1578561728.087487] [srl-login1:16394:0]         mxm.c:196  MXM  WARN  The 'ulimit -s' on the system is set to 'unlimited'. This may have negative performance implications. Please set the stack size to the default value (10240) 
[1578561728.087599] [srl-login1:16398:0]         mxm.c:196  MXM  WARN  The 'ulimit -s' on the system is set to 'unlimited'. This may have negative performance implications. Please set the stack size to the default value (10240) 
[1578561728.088403] [srl-login1:16383:0]         mxm.c:196  MXM  WARN  The 'ulimit -s' on the system is set to 'unlimited'. This may have negative performance implications. Please set the stack size to the default value (10240) 
[1578561728.088384] [srl-login1:16386:0]         mxm.c:196  MXM  WARN  The 'ulimit -s' on the system is set to 'unlimited'. This may have negative performance implications. Please set the stack size to the default value (10240) 
[1578561728.089303] [srl-login1:16391:0]         mxm.c:196  MXM  WARN  The 'ulimit -s' on the system is set to 'unlimited'. This may have negative performance implications. Please set the stack size to the default value (10240) 
[1578561728.089715] [srl-login1:16387:0]         mxm.c:196  MXM  WARN  The 'ulimit -s' on the system is set to 'unlimited'. This may have negative performance implications. Please set the stack size to the default value (10240) 
[1578561728.089847] [srl-login1:16384:0]         mxm.c:196  MXM  WARN  The 'ulimit -s' on the system is set to 'unlimited'. This may have negative performance implications. Please set the stack size to the default value (10240) 
[1578561728.090136] [srl-login1:16401:0]         mxm.c:196  MXM  WARN  The 'ulimit -s' on the system is set to 'unlimited'. This may have negative performance implications. Please set the stack size to the default value (10240) 
[1578561728.091158] [srl-login1:16409:0]         mxm.c:196  MXM  WARN  The 'ulimit -s' on the system is set to 'unlimited'. This may have negative performance implications. Please set the stack size to the default value (10240) 
[1578561728.091262] [srl-login1:16404:0]         mxm.c:196  MXM  WARN  The 'ulimit -s' on the system is set to 'unlimited'. This may have negative performance implications. Please set the stack size to the default value (10240) 
[1578561728.092147] [srl-login1:16407:0]         mxm.c:196  MXM  WARN  The 'ulimit -s' on the system is set to 'unlimited'. This may have negative performance implications. Please set the stack size to the default value (10240) 
[1578561728.094778] [srl-login1:16413:0]         mxm.c:196  MXM  WARN  The 'ulimit -s' on the system is set to 'unlimited'. This may have negative performance implications. Please set the stack size to the default value (10240) 
0: 2 

Rank 0 ghostCells: 2786
Rank 1 ghostCells: 3441
Rank 2 ghostCells: 1210
Rank 3 ghostCells: 2410
Rank 4 ghostCells: 3074
Rank 5 ghostCells: 3988
Rank 6 ghostCells: 4080
Rank 7 ghostCells: 2840
Rank 8 ghostCells: 3114
Rank 9 ghostCells: 2652
Rank 10 ghostCells: 1289
Rank 11 ghostCells: 2485
Rank 12 ghostCells: 1098
Rank 13 ghostCells: 1556
Rank 14 ghostCells: 1665
Rank 15 ghostCells: 850

Rank 0 numCells: 25476
Rank 1 numCells: 27644
Rank 2 numCells: 16685
Rank 3 numCells: 25194
Rank 4 numCells: 25679
Rank 5 numCells: 25527
Rank 6 numCells: 27276
Rank 7 numCells: 27188
Rank 8 numCells: 26515
Rank 9 numCells: 25176
Rank 10 numCells: 24929
Rank 11 numCells: 23612
Rank 12 numCells: 24019
Rank 13 numCells: 25988
Rank 14 numCells: 20028
Rank 15 numCells: 23009

Rank 0 interiorCells: 22690
Rank 1 interiorCells: 24203
Rank 2 interiorCells: 15475
Rank 3 interiorCells: 22784
Rank 4 interiorCells: 22605
Rank 5 interiorCells: 21539
Rank 6 interiorCells: 23196
Rank 7 interiorCells: 24348
Rank 8 interiorCells: 23401
Rank 9 interiorCells: 22524
Rank 10 interiorCells: 23640
Rank 11 interiorCells: 21127
Rank 12 interiorCells: 22921
Rank 13 interiorCells: 24432
Rank 14 interiorCells: 18363
Rank 15 interiorCells: 22159

MeasComm+1 16: 0.00013822 0.000164028 9.3062e-05 0.000132787 0.000146832 0.000182041 0.000180689 0.000140806 0.000149628 0.000124317 9.0436e-05 0.000111863 6.371e-05 8.5528e-05 9.2316e-05 0.000108145 
MeasComm+1 16: 0.000138067 0.000163973 9.3093e-05 0.000129232 0.000145484 0.000179061 0.000179318 0.000139905 0.00014919 0.000125959 8.9984e-05 0.000112116 6.3605e-05 8.549e-05 9.207e-05 0.000107234 
MeasComm+1 16: 0.000137069 0.000164371 9.2708e-05 0.000131776 0.000144859 0.000182257 0.000174763 0.000140472 0.000149101 0.000125064 6.3351e-05 0.000111954 6.31e-05 8.4901e-05 9.1972e-05 0.000108102 
MeasComm+1 16: 0.000136137 0.000163753 9.2619e-05 0.000133065 0.00014554 0.000182931 0.000179062 0.000140366 0.000149384 0.000124737 8.9544e-05 0.000111009 6.2995e-05 8.4699e-05 9.179e-05 0.000107566 
MeasComm+1 16: 0.000137996 0.000163373 9.2487e-05 0.000129662 0.00014438 0.000180634 0.00018031 0.000134122 0.000148679 0.000125525 7.135e-05 0.000111449 6.3493e-05 8.4402e-05 9.2242e-05 0.000107284 
MeasComm+1 16: 0.000137796 0.00016447 9.2596e-05 0.000129675 0.000143482 0.000180699 0.000179097 0.000140804 0.000149212 0.000123441 8.6961e-05 0.000108446 6.3376e-05 8.5037e-05 9.1772e-05 0.000107021 
MeasComm+1 16: 0.000137065 0.000163735 9.3029e-05 0.000133482 0.000145873 0.000183299 0.000178966 0.000137288 0.000149389 0.000125585 8.9134e-05 0.000111283 6.2999e-05 8.4864e-05 9.1391e-05 0.00010739 
MeasComm+1 16: 0.000136478 0.00016306 9.2603e-05 0.00012881 0.000146471 0.000182598 0.000177535 0.000139253 0.000149713 0.000124115 9.0026e-05 0.000111283 6.2949e-05 8.5015e-05 9.1932e-05 0.000107027 
MeasComm+1 16: 0.000138287 0.000163531 9.2461e-05 0.000129038 0.000145752 0.000179592 0.000178653 0.000144889 0.000149169 0.000126983 8.8443e-05 0.00011268 6.3894e-05 8.5646e-05 9.2342e-05 0.000107544 
MeasComm+1 16: 0.000136361 0.000163337 9.2465e-05 0.000128823 0.000145163 0.000182593 0.000177853 0.00013887 0.000147977 0.000125229 8.8787e-05 0.000111197 6.3479e-05 8.4632e-05 9.1742e-05 0.000107023 

ComTab rank 0: 0 974 0 227 564 0 0 0 1012 1 0 69 0 0 63 65 
ComTab rank 1: 972 0 0 960 673 772 0 0 0 0 0 58 0 0 1 196 
ComTab rank 2: 0 0 0 771 0 0 0 0 55 0 0 0 15 364 83 0 
ComTab rank 3: 239 976 763 0 0 0 0 0 54 0 0 0 0 329 160 70 
ComTab rank 4: 567 693 0 0 0 1100 196 713 0 0 0 0 0 0 0 79 
ComTab rank 5: 0 771 0 0 1117 0 2049 233 0 0 0 0 0 0 0 13 
ComTab rank 6: 0 0 0 0 210 2063 0 1903 0 0 0 0 0 0 0 58 
ComTab rank 7: 0 0 0 0 717 249 1944 0 0 0 0 0 0 0 0 38 
ComTab rank 8: 1000 0 225 158 0 0 0 0 0 1265 0 396 0 0 187 0 
ComTab rank 9: 1 0 0 0 0 0 0 0 1422 0 704 669 0 0 0 0 
ComTab rank 10: 0 0 0 0 0 0 0 0 0 704 0 621 0 0 0 0 
ComTab rank 11: 71 113 0 0 0 0 0 0 521 1087 731 0 0 0 0 170 
ComTab rank 12: 0 0 14 0 0 0 0 0 0 0 0 0 0 692 392 0 
ComTab rank 13: 0 0 409 329 0 0 0 0 0 0 0 0 690 0 170 0 
ComTab rank 14: 98 1 167 263 0 0 0 0 260 0 0 0 533 315 0 132 
ComTab rank 15: 38 282 0 107 79 21 93 25 0 0 0 168 0 0 126 0 

Edge-cut: 27253

Wgt-cut: 6.45404e-08

[1578561769.557199] [srl-login1:16385:0]          mpool.c:38   UCX  WARN  object 0x5555657b3a80 was not returned to mpool ucp_am_bufs
[1578561769.557550] [srl-login1:16383:0]          mpool.c:38   UCX  WARN  object 0x1555393fdee0 was not returned to mpool mm_recv_desc
[1578561769.557550] [srl-login1:16382:0]          mpool.c:38   UCX  WARN  object 0x5555642a55c0 was not returned to mpool ucp_am_bufs
[1578561769.557682] [srl-login1:16391:0]          mpool.c:38   UCX  WARN  object 0x1555393eba60 was not returned to mpool mm_recv_desc
