 Data for JOB [12611,1] offset 0 Total slots allocated 1

 ========================   JOB MAP   ========================

 Data for node: srl-mds1	Num slots: 1	Max slots: 0	Num procs: 1
 	Process OMPI jobid: [12611,1] App: 0 Process rank: 0 Bound: socket 0[core 0[hwt 0-1]]:[BB/../../../../../../../../../../../../../../..][../../../../../../../../../../../../../../../..]

 =============================================================
[1578561674.874066] [srl-mds1:39552:0]         mxm.c:196  MXM  WARN  The 'ulimit -s' on the system is set to 'unlimited'. This may have negative performance implications. Please set the stack size to the default value (10240) 
0: 2 

Rank 0 ghostCells: 0

Rank 0 numCells: 355407

Rank 0 interiorCells: 355407

MeasComm+1 1: 1.039e-06 
MeasComm+1 1: 1.126e-06 
MeasComm+1 1: 1.129e-06 
MeasComm+1 1: 1.04e-06 
MeasComm+1 1: 1.172e-06 
MeasComm+1 1: 1.035e-06 
MeasComm+1 1: 1.164e-06 
MeasComm+1 1: 1.097e-06 
MeasComm+1 1: 1.075e-06 
MeasComm+1 1: 1.215e-06 

ComTab rank 0: 0 

Edge-cut: 0

Wgt-cut: 0

