 Data for JOB [19969,1] offset 0 Total slots allocated 8

 ========================   JOB MAP   ========================

 Data for node: n004	Num slots: 8	Max slots: 0	Num procs: 8
 	Process OMPI jobid: [19969,1] App: 0 Process rank: 0 Bound: socket 0[core 8[hwt 0-1]]:[../../../../../../../../BB/../../../../../../../../../../../../../../../../../../../../../../..][../../../../../../../../../../../../../../../../../../../../../../../../../../../../../../../..]
 	Process OMPI jobid: [19969,1] App: 0 Process rank: 1 Bound: socket 0[core 5[hwt 0-1]]:[../../../../../BB/../../../../../../../../../../../../../../../../../../../../../../../../../..][../../../../../../../../../../../../../../../../../../../../../../../../../../../../../../../..]
 	Process OMPI jobid: [19969,1] App: 0 Process rank: 2 Bound: socket 0[core 10[hwt 0-1]]:[../../../../../../../../../../BB/../../../../../../../../../../../../../../../../../../../../..][../../../../../../../../../../../../../../../../../../../../../../../../../../../../../../../..]
 	Process OMPI jobid: [19969,1] App: 0 Process rank: 3 Bound: socket 0[core 7[hwt 0-1]]:[../../../../../../../BB/../../../../../../../../../../../../../../../../../../../../../../../..][../../../../../../../../../../../../../../../../../../../../../../../../../../../../../../../..]
 	Process OMPI jobid: [19969,1] App: 0 Process rank: 4 Bound: socket 0[core 4[hwt 0-1]]:[../../../../BB/../../../../../../../../../../../../../../../../../../../../../../../../../../..][../../../../../../../../../../../../../../../../../../../../../../../../../../../../../../../..]
 	Process OMPI jobid: [19969,1] App: 0 Process rank: 5 Bound: socket 0[core 9[hwt 0-1]]:[../../../../../../../../../BB/../../../../../../../../../../../../../../../../../../../../../..][../../../../../../../../../../../../../../../../../../../../../../../../../../../../../../../..]
 	Process OMPI jobid: [19969,1] App: 0 Process rank: 6 Bound: socket 0[core 6[hwt 0-1]]:[../../../../../../BB/../../../../../../../../../../../../../../../../../../../../../../../../..][../../../../../../../../../../../../../../../../../../../../../../../../../../../../../../../..]
 	Process OMPI jobid: [19969,1] App: 0 Process rank: 7 Bound: socket 0[core 11[hwt 0-1]]:[../../../../../../../../../../../BB/../../../../../../../../../../../../../../../../../../../..][../../../../../../../../../../../../../../../../../../../../../../../../../../../../../../../..]

 =============================================================
7 4 6
7 5 5
7 6 4
Two group cota
0 1 3
0 2 2
0 3 1
2 3 1
2 0 0
2 1 3
3 0 2
3 1 1
3 2 0
4 5 7
4 6 6
4 7 5
5 6 4
5 7 7
5 4 6
6 7 5
6 4 4
6 5 7
1 2 0
1 3 3
1 0 2
dune-size 1 2.17507e-05 2.11115e-05 2.17784e-05 2.17665e-05 2.4985e-05 2.43557e-05 2.49471e-05 2.49554e-05 
dune-size 2 1.44327e-05 1.44549e-05 1.44339e-05 1.44478e-05 1.89153e-05 1.89648e-05 1.89323e-05 1.89427e-05 
dune-size 4 1.58331e-05 1.58249e-05 1.57773e-05 1.57944e-05 1.59482e-05 1.58984e-05 1.59271e-05 1.5956e-05 
dune-size 8 1.75073e-05 1.75253e-05 1.74743e-05 1.74804e-05 1.72205e-05 1.71898e-05 1.71599e-05 1.72034e-05 
dune-size 16 1.84933e-05 1.85456e-05 1.85172e-05 1.85232e-05 1.89538e-05 1.89105e-05 1.88835e-05 1.89323e-05 
dune-size 32 2.31251e-05 2.31928e-05 2.31499e-05 2.31611e-05 1.61069e-05 1.60949e-05 1.60969e-05 1.60945e-05 
dune-size 64 2.04124e-05 2.04167e-05 2.04132e-05 2.04158e-05 2.03105e-05 2.02826e-05 2.03183e-05 2.02916e-05 
dune-size 128 3.02467e-05 3.02661e-05 3.02805e-05 3.02674e-05 2.99619e-05 2.99018e-05 2.99476e-05 2.99161e-05 
dune-size 256 5.0854e-05 5.08201e-05 5.08423e-05 5.0853e-05 5.05623e-05 5.04957e-05 5.05327e-05 5.04975e-05 
dune-size 512 8.92187e-05 8.90514e-05 8.92074e-05 8.90966e-05 8.90331e-05 8.92062e-05 8.90894e-05 8.9194e-05 
dune-size 1024 0.00023647 0.000235954 0.000236012 0.000236254 0.000229491 0.000229285 0.000229021 0.000229035 
dune-size 2048 0.00042163 0.000422139 0.000421712 0.000422548 0.000412728 0.000412335 0.00041186 0.000411848 
dune-size 4096 0.000729226 0.000730078 0.000730681 0.000729264 0.000718585 0.000719324 0.000717687 0.000717692 
dune-size 8192 0.00126744 0.00126582 0.00126588 0.00126896 0.00125405 0.00125401 0.00125647 0.00125554 
dune-size 16384 0.00247327 0.00247509 0.00246953 0.00247016 0.0024164 0.00241619 0.00242194 0.00241857 
dune-size 32768 0.00482946 0.00482856 0.00482796 0.0048278 0.00482838 0.0048274 0.00482757 0.00482839 
dune-size 65536 0.00972199 0.00978954 0.00972338 0.0097888 0.00980213 0.00970789 0.00979835 0.00971625 
dune-size 131072 0.0198147 0.0196484 0.0198115 0.019648 0.0196467 0.0198157 0.0196469 0.0197716 
