 Data for JOB [25247,1] offset 0 Total slots allocated 8

 ========================   JOB MAP   ========================

 Data for node: n004	Num slots: 8	Max slots: 0	Num procs: 8
 	Process OMPI jobid: [25247,1] App: 0 Process rank: 0 Bound: socket 1[core 32[hwt 0-1]]:[../../../../../../../../../../../../../../../../../../../../../../../../../../../../../../../..][BB/../../../../../../../../../../../../../../../../../../../../../../../../../../../../../../..]
 	Process OMPI jobid: [25247,1] App: 0 Process rank: 1 Bound: socket 1[core 61[hwt 0-1]]:[../../../../../../../../../../../../../../../../../../../../../../../../../../../../../../../..][../../../../../../../../../../../../../../../../../../../../../../../../../../../../../BB/../..]
 	Process OMPI jobid: [25247,1] App: 0 Process rank: 2 Bound: socket 1[core 34[hwt 0-1]]:[../../../../../../../../../../../../../../../../../../../../../../../../../../../../../../../..][../../BB/../../../../../../../../../../../../../../../../../../../../../../../../../../../../..]
 	Process OMPI jobid: [25247,1] App: 0 Process rank: 3 Bound: socket 1[core 63[hwt 0-1]]:[../../../../../../../../../../../../../../../../../../../../../../../../../../../../../../../..][../../../../../../../../../../../../../../../../../../../../../../../../../../../../../../../BB]
 	Process OMPI jobid: [25247,1] App: 0 Process rank: 4 Bound: socket 1[core 60[hwt 0-1]]:[../../../../../../../../../../../../../../../../../../../../../../../../../../../../../../../..][../../../../../../../../../../../../../../../../../../../../../../../../../../../../BB/../../..]
 	Process OMPI jobid: [25247,1] App: 0 Process rank: 5 Bound: socket 1[core 33[hwt 0-1]]:[../../../../../../../../../../../../../../../../../../../../../../../../../../../../../../../..][../BB/../../../../../../../../../../../../../../../../../../../../../../../../../../../../../..]
 	Process OMPI jobid: [25247,1] App: 0 Process rank: 6 Bound: socket 1[core 62[hwt 0-1]]:[../../../../../../../../../../../../../../../../../../../../../../../../../../../../../../../..][../../../../../../../../../../../../../../../../../../../../../../../../../../../../../../BB/..]
 	Process OMPI jobid: [25247,1] App: 0 Process rank: 7 Bound: socket 1[core 35[hwt 0-1]]:[../../../../../../../../../../../../../../../../../../../../../../../../../../../../../../../..][../../../BB/../../../../../../../../../../../../../../../../../../../../../../../../../../../..]

 =============================================================
3 0 2
3 1 1
3 2 0
4 5 7
4 6 6
4 7 5
Two group cota
0 1 3
1 2 0
1 3 3
1 0 2
5 6 4
5 7 7
5 4 6
6 7 5
6 4 4
6 5 7
7 4 6
7 5 5
7 6 4
0 2 2
0 3 1
2 3 1
2 0 0
2 1 3
dune-size 1 1.60483e-05 1.60542e-05 1.605e-05 1.60607e-05 2.14161e-05 2.14423e-05 2.14815e-05 2.14656e-05 
dune-size 2 1.4999e-05 1.49882e-05 1.5013e-05 1.50256e-05 1.91856e-05 1.91755e-05 1.92298e-05 1.92154e-05 
dune-size 4 1.53611e-05 1.54076e-05 1.53824e-05 1.54057e-05 1.51162e-05 1.51637e-05 1.51271e-05 1.51499e-05 
dune-size 8 1.73242e-05 1.73486e-05 1.73865e-05 1.73754e-05 1.66273e-05 1.66691e-05 1.66499e-05 1.66714e-05 
dune-size 16 1.9173e-05 1.91969e-05 1.924e-05 1.92382e-05 1.88361e-05 1.88861e-05 1.88517e-05 1.88866e-05 
dune-size 32 2.24947e-05 2.25108e-05 2.2545e-05 2.25709e-05 1.52186e-05 1.51959e-05 1.52211e-05 1.52077e-05 
dune-size 64 2.02143e-05 2.02456e-05 2.02309e-05 2.02548e-05 2.04315e-05 2.03978e-05 2.04292e-05 2.04077e-05 
dune-size 128 3.00953e-05 3.00832e-05 3.00848e-05 3.00861e-05 3.03649e-05 3.02793e-05 3.02889e-05 3.03286e-05 
dune-size 256 5.16073e-05 5.16981e-05 5.17496e-05 5.16429e-05 5.00971e-05 4.99899e-05 5.00608e-05 5.00156e-05 
dune-size 512 8.86199e-05 8.85311e-05 8.86366e-05 8.85304e-05 8.87749e-05 8.85942e-05 8.87234e-05 8.8624e-05 
dune-size 1024 0.000228777 0.000229104 0.000228792 0.000229055 0.000231965 0.000231504 0.000231498 0.000231763 
dune-size 2048 0.000419181 0.00041959 0.000418721 0.000418687 0.000419763 0.000420142 0.000419342 0.000419365 
dune-size 4096 0.000706003 0.000704863 0.000704913 0.000705776 0.000717165 0.000716252 0.000716261 0.00071756 
dune-size 8192 0.00125474 0.0012529 0.00125303 0.00125635 0.00131199 0.00131206 0.00130967 0.00130984 
dune-size 16384 0.00240503 0.00240164 0.00240161 0.00240774 0.00241583 0.00241228 0.00241243 0.00241902 
dune-size 32768 0.00480213 0.00480175 0.00480243 0.00480171 0.00480919 0.00480034 0.00480038 0.00481038 
dune-size 65536 0.00980671 0.00984102 0.00980777 0.00984658 0.00985629 0.00981775 0.00985351 0.00981726 
dune-size 131072 0.0197996 0.0196045 0.0197991 0.0195941 0.0196156 0.0198001 0.0196135 0.0197789 
