 Data for JOB [11650,1] offset 0 Total slots allocated 4

 ========================   JOB MAP   ========================

 Data for node: n003	Num slots: 4	Max slots: 0	Num procs: 4
 	Process OMPI jobid: [11650,1] App: 0 Process rank: 0 Bound: socket 0[core 17[hwt 0-1]]:[../../../../../../../../../../../../../../../../../BB/../../../../../../../../../../../../../..][../../../../../../../../../../../../../../../../../../../../../../../../../../../../../../../..]
 	Process OMPI jobid: [11650,1] App: 0 Process rank: 1 Bound: socket 1[core 59[hwt 0-1]]:[../../../../../../../../../../../../../../../../../../../../../../../../../../../../../../../..][../../../../../../../../../../../../../../../../../../../../../../../../../../../BB/../../../..]
 	Process OMPI jobid: [11650,1] App: 0 Process rank: 2 Bound: socket 1[core 60[hwt 0-1]]:[../../../../../../../../../../../../../../../../../../../../../../../../../../../../../../../..][../../../../../../../../../../../../../../../../../../../../../../../../../../../../BB/../../..]
 	Process OMPI jobid: [11650,1] App: 0 Process rank: 3 Bound: socket 0[core 18[hwt 0-1]]:[../../../../../../../../../../../../../../../../../../BB/../../../../../../../../../../../../..][../../../../../../../../../../../../../../../../../../../../../../../../../../../../../../../..]

 =============================================================
1 0 0
2 3 3
3 2 2
Two group cota
0 1 1
dune-size 1 5.48389e-06 5.37369e-06 5.67699e-06 5.56829e-06 
dune-size 2 5.21459e-06 5.20749e-06 5.27719e-06 5.27099e-06 
dune-size 4 8.79798e-06 8.80088e-06 8.86708e-06 8.87038e-06 
dune-size 8 5.66659e-06 5.67149e-06 5.65219e-06 5.65629e-06 
dune-size 16 5.92809e-06 5.93289e-06 6.00429e-06 6.00789e-06 
dune-size 32 6.69159e-06 6.69679e-06 6.85119e-06 6.85719e-06 
dune-size 64 8.64818e-06 8.64718e-06 8.75828e-06 8.75658e-06 
dune-size 128 1.27794e-05 1.27782e-05 1.24188e-05 1.24131e-05 
dune-size 256 1.96497e-05 1.96217e-05 2.06153e-05 2.05792e-05 
dune-size 512 3.25843e-05 3.25869e-05 3.27816e-05 3.27845e-05 
dune-size 1024 0.000105046 0.000105036 0.000104454 0.000104446 
dune-size 2048 0.000195811 0.000195807 0.000198253 0.000198247 
dune-size 4096 0.000373794 0.000373798 0.000367158 0.00036715 
dune-size 8192 0.000667413 0.000667428 0.000656759 0.000656754 
dune-size 16384 0.000988065 0.000988023 0.000948596 0.000948572 
dune-size 32768 0.00167823 0.00167829 0.00167313 0.00167309 
dune-size 65536 0.00326836 0.00326711 0.00349898 0.0034996 
dune-size 131072 0.00657077 0.00658651 0.00656243 0.0065722 
