 Data for JOB [24432,1] offset 0 Total slots allocated 8

 ========================   JOB MAP   ========================

 Data for node: n004	Num slots: 8	Max slots: 0	Num procs: 8
 	Process OMPI jobid: [24432,1] App: 0 Process rank: 0 Bound: socket 0[core 24[hwt 0-1]]:[../../../../../../../../../../../../../../../../../../../../../../../../BB/../../../../../../..][../../../../../../../../../../../../../../../../../../../../../../../../../../../../../../../..]
 	Process OMPI jobid: [24432,1] App: 0 Process rank: 1 Bound: socket 1[core 53[hwt 0-1]]:[../../../../../../../../../../../../../../../../../../../../../../../../../../../../../../../..][../../../../../../../../../../../../../../../../../../../../../BB/../../../../../../../../../..]
 	Process OMPI jobid: [24432,1] App: 0 Process rank: 2 Bound: socket 0[core 26[hwt 0-1]]:[../../../../../../../../../../../../../../../../../../../../../../../../../../BB/../../../../..][../../../../../../../../../../../../../../../../../../../../../../../../../../../../../../../..]
 	Process OMPI jobid: [24432,1] App: 0 Process rank: 3 Bound: socket 1[core 55[hwt 0-1]]:[../../../../../../../../../../../../../../../../../../../../../../../../../../../../../../../..][../../../../../../../../../../../../../../../../../../../../../../../BB/../../../../../../../..]
 	Process OMPI jobid: [24432,1] App: 0 Process rank: 4 Bound: socket 1[core 52[hwt 0-1]]:[../../../../../../../../../../../../../../../../../../../../../../../../../../../../../../../..][../../../../../../../../../../../../../../../../../../../../BB/../../../../../../../../../../..]
 	Process OMPI jobid: [24432,1] App: 0 Process rank: 5 Bound: socket 0[core 25[hwt 0-1]]:[../../../../../../../../../../../../../../../../../../../../../../../../../BB/../../../../../..][../../../../../../../../../../../../../../../../../../../../../../../../../../../../../../../..]
 	Process OMPI jobid: [24432,1] App: 0 Process rank: 6 Bound: socket 1[core 54[hwt 0-1]]:[../../../../../../../../../../../../../../../../../../../../../../../../../../../../../../../..][../../../../../../../../../../../../../../../../../../../../../../BB/../../../../../../../../..]
 	Process OMPI jobid: [24432,1] App: 0 Process rank: 7 Bound: socket 0[core 27[hwt 0-1]]:[../../../../../../../../../../../../../../../../../../../../../../../../../../../BB/../../../..][../../../../../../../../../../../../../../../../../../../../../../../../../../../../../../../..]

 =============================================================
5 6 4
5 7 7
5 4 6
7 4 6
7 5 5
7 6 4
6 7 5
6 4 4
6 5 7
Two group cota
0 1 3
0 2 2
0 3 1
1 2 0
1 3 3
1 0 2
2 3 1
2 0 0
2 1 3
3 0 2
3 1 1
3 2 0
4 5 7
4 6 6
4 7 5
dune-size 1 2.08063e-05 2.09637e-05 2.15211e-05 2.22755e-05 2.07742e-05 2.08881e-05 2.14676e-05 2.21972e-05 
dune-size 2 1.74168e-05 1.74395e-05 1.74256e-05 1.74399e-05 1.81649e-05 1.81626e-05 1.81632e-05 1.81701e-05 
dune-size 4 1.8144e-05 1.81253e-05 1.81428e-05 1.81191e-05 1.8275e-05 1.82512e-05 1.82722e-05 1.82563e-05 
dune-size 8 1.71403e-05 1.71558e-05 1.71804e-05 1.7178e-05 1.97801e-05 1.97646e-05 1.97828e-05 1.97632e-05 
dune-size 16 1.59916e-05 1.60073e-05 1.60353e-05 1.60145e-05 2.19088e-05 2.1967e-05 2.19571e-05 2.19109e-05 
dune-size 32 1.961e-05 1.96371e-05 1.95983e-05 1.96371e-05 2.29988e-05 2.30213e-05 2.29952e-05 2.30111e-05 
dune-size 64 2.37271e-05 2.36825e-05 2.36939e-05 2.37288e-05 2.34323e-05 2.34773e-05 2.34516e-05 2.34771e-05 
dune-size 128 3.34018e-05 3.33321e-05 3.33736e-05 3.33431e-05 3.33324e-05 3.33717e-05 3.33413e-05 3.3365e-05 
dune-size 256 5.39421e-05 5.39839e-05 5.39455e-05 5.39924e-05 5.4075e-05 5.40515e-05 5.40699e-05 5.41095e-05 
dune-size 512 9.52416e-05 9.51911e-05 9.52207e-05 9.52349e-05 9.46781e-05 9.47393e-05 9.47375e-05 9.47363e-05 
dune-size 1024 0.000280025 0.000279479 0.000279811 0.000279569 0.000275739 0.000275963 0.000275739 0.000276169 
dune-size 2048 0.000495378 0.000495709 0.000494838 0.000494896 0.000495763 0.000494848 0.000494744 0.000495366 
dune-size 4096 0.000802815 0.000804536 0.000803716 0.000802694 0.000801386 0.000803096 0.000802283 0.000801144 
dune-size 8192 0.00130854 0.00130861 0.00131044 0.001312 0.00130504 0.00130317 0.00130327 0.00130651 
dune-size 16384 0.00244444 0.00244445 0.00244984 0.002448 0.00253375 0.00253265 0.00252917 0.00252918 
dune-size 32768 0.0048849 0.00488171 0.00488124 0.00488928 0.00488401 0.00488449 0.00488709 0.0048916 
dune-size 65536 0.0100074 0.0100359 0.0100069 0.0100231 0.0100228 0.00999771 0.0100365 0.00998886 
dune-size 131072 0.019677 0.0197738 0.0196764 0.019668 0.019771 0.0196102 0.0196086 0.0196202 
