 Data for JOB [61436,1] offset 0 Total slots allocated 2

 ========================   JOB MAP   ========================

 Data for node: n001	Num slots: 2	Max slots: 0	Num procs: 2
 	Process OMPI jobid: [61436,1] App: 0 Process rank: 0 Bound: socket 0[core 25[hwt 0-1]]:[../../../../../../../../../../../../../../../../../../../../../../../../../BB/../../../../../..][../../../../../../../../../../../../../../../../../../../../../../../../../../../../../../../..]
 	Process OMPI jobid: [61436,1] App: 0 Process rank: 1 Bound: socket 1[core 58[hwt 0-1]]:[../../../../../../../../../../../../../../../../../../../../../../../../../../../../../../../..][../../../../../../../../../../../../../../../../../../../../../../../../../../BB/../../../../..]

 =============================================================
dune-size 1 5.33358e-06 5.32879e-06 
dune-size 2 5.06519e-06 5.06799e-06 
dune-size 4 5.20238e-06 5.20048e-06 
dune-size 8 5.40809e-06 5.40789e-06 
dune-size 16 5.83898e-06 5.84298e-06 
dune-size 32 6.76009e-06 6.75869e-06 
dune-size 64 8.59998e-06 8.59478e-06 
dune-size 128 1.21099e-05 1.21108e-05 
dune-size 256 1.93055e-05 1.9299e-05 
dune-size 512 3.34493e-05 3.34539e-05 
dune-size 1024 0.000107459 0.000107454 
dune-size 2048 0.000199397 0.00019944 
dune-size 4096 0.000371437 0.000371432 
dune-size 8192 0.000624646 0.000624667 
dune-size 16384 0.000946476 0.000946433 
dune-size 32768 0.00168277 0.00168268 
dune-size 65536 0.00334868 0.00334698 
dune-size 131072 0.00660483 0.00661017 
dune-size 262144 0.0130721 0.0130666 
dune-size 524288 0.0266869 0.0266664 
dune-size 1048576 0.0514706 0.0514955 
