 Data for JOB [12472,1] offset 0 Total slots allocated 8

 ========================   JOB MAP   ========================

 Data for node: n003	Num slots: 8	Max slots: 0	Num procs: 8
 	Process OMPI jobid: [12472,1] App: 0 Process rank: 0 Bound: socket 1[core 40[hwt 0-1]]:[../../../../../../../../../../../../../../../../../../../../../../../../../../../../../../../..][../../../../../../../../BB/../../../../../../../../../../../../../../../../../../../../../../..]
 	Process OMPI jobid: [12472,1] App: 0 Process rank: 1 Bound: socket 1[core 41[hwt 0-1]]:[../../../../../../../../../../../../../../../../../../../../../../../../../../../../../../../..][../../../../../../../../../BB/../../../../../../../../../../../../../../../../../../../../../..]
 	Process OMPI jobid: [12472,1] App: 0 Process rank: 2 Bound: socket 1[core 42[hwt 0-1]]:[../../../../../../../../../../../../../../../../../../../../../../../../../../../../../../../..][../../../../../../../../../../BB/../../../../../../../../../../../../../../../../../../../../..]
 	Process OMPI jobid: [12472,1] App: 0 Process rank: 3 Bound: socket 1[core 43[hwt 0-1]]:[../../../../../../../../../../../../../../../../../../../../../../../../../../../../../../../..][../../../../../../../../../../../BB/../../../../../../../../../../../../../../../../../../../..]
 	Process OMPI jobid: [12472,1] App: 0 Process rank: 4 Bound: socket 1[core 44[hwt 0-1]]:[../../../../../../../../../../../../../../../../../../../../../../../../../../../../../../../..][../../../../../../../../../../../../BB/../../../../../../../../../../../../../../../../../../..]
 	Process OMPI jobid: [12472,1] App: 0 Process rank: 5 Bound: socket 1[core 45[hwt 0-1]]:[../../../../../../../../../../../../../../../../../../../../../../../../../../../../../../../..][../../../../../../../../../../../../../BB/../../../../../../../../../../../../../../../../../..]
 	Process OMPI jobid: [12472,1] App: 0 Process rank: 6 Bound: socket 1[core 46[hwt 0-1]]:[../../../../../../../../../../../../../../../../../../../../../../../../../../../../../../../..][../../../../../../../../../../../../../../BB/../../../../../../../../../../../../../../../../..]
 	Process OMPI jobid: [12472,1] App: 0 Process rank: 7 Bound: socket 1[core 47[hwt 0-1]]:[../../../../../../../../../../../../../../../../../../../../../../../../../../../../../../../..][../../../../../../../../../../../../../../../BB/../../../../../../../../../../../../../../../..]

 =============================================================
Two group cota
0 1 3
0 2 2
0 3 1
1 2 0
1 3 3
1 0 2
2 3 1
2 0 0
2 1 3
3 0 2
3 1 1
3 2 0
4 5 7
4 6 6
4 7 5
5 6 4
5 7 7
5 4 6
6 7 5
6 4 4
6 5 7
7 4 6
7 5 5
7 6 4
dune-size 1 7.22109e-06 8.84409e-06 7.27409e-06 8.83789e-06 7.28179e-06 8.89009e-06 7.32619e-06 8.90369e-06 
dune-size 2 6.50809e-06 7.87029e-06 7.88189e-06 7.87639e-06 6.50679e-06 7.87099e-06 7.88269e-06 7.87849e-06 
dune-size 4 9.96048e-06 9.95888e-06 9.96178e-06 9.96158e-06 8.87979e-06 8.88309e-06 8.88559e-06 8.88509e-06 
dune-size 8 7.55928e-06 7.56938e-06 7.57508e-06 7.57828e-06 7.55638e-06 7.55058e-06 7.56608e-06 7.55688e-06 
dune-size 16 8.61278e-06 8.61338e-06 8.62068e-06 8.62168e-06 8.57088e-06 8.56128e-06 8.56328e-06 8.56798e-06 
dune-size 32 1.09238e-05 1.09328e-05 1.09455e-05 1.09429e-05 1.0916e-05 1.09283e-05 1.09258e-05 1.09263e-05 
dune-size 64 1.69565e-05 1.69594e-05 1.69592e-05 1.69602e-05 1.60997e-05 1.61165e-05 1.61108e-05 1.61326e-05 
dune-size 128 2.56674e-05 2.56443e-05 2.56378e-05 2.56379e-05 2.49977e-05 2.49798e-05 2.49897e-05 2.49811e-05 
dune-size 256 4.41868e-05 4.41927e-05 4.41969e-05 4.42173e-05 4.32742e-05 4.33241e-05 4.33147e-05 4.32835e-05 
dune-size 512 7.99314e-05 7.9988e-05 8.00363e-05 7.99394e-05 7.99709e-05 7.99262e-05 8.00335e-05 7.99235e-05 
dune-size 1024 0.000174375 0.000174368 0.000174399 0.000174368 0.000173384 0.000173527 0.000173384 0.00017339 
dune-size 2048 0.000323986 0.000323987 0.000324057 0.000324395 0.000327282 0.000327311 0.000327751 0.000327329 
dune-size 4096 0.000619624 0.000621135 0.000619623 0.000620379 0.000622218 0.000622922 0.000622026 0.000622022 
dune-size 8192 0.00120114 0.00120358 0.00120114 0.00120252 0.0012044 0.00120276 0.00120582 0.00120276 
dune-size 16384 0.00236911 0.00236856 0.00236851 0.00237227 0.00237618 0.00237317 0.00237314 0.00237899 
dune-size 32768 0.00484902 0.0048477 0.00484793 0.00484769 0.00485256 0.00485257 0.0048525 0.00485578 
dune-size 65536 0.00993421 0.00993548 0.00993381 0.0099308 0.00989293 0.00990513 0.00990406 0.00989284 
dune-size 131072 0.0198679 0.019831 0.0198648 0.0198613 0.0200639 0.0200642 0.0200627 0.0200655 
