[1578557841.867706] [srl-adm2:44138:0]         mxm.c:196  MXM  WARN  The 'ulimit -s' on the system is set to 'unlimited'. This may have negative performance implications. Please set the stack size to the default value (10240) 
[1578557841.868580] [srl-adm2:44139:0]         mxm.c:196  MXM  WARN  The 'ulimit -s' on the system is set to 'unlimited'. This may have negative performance implications. Please set the stack size to the default value (10240) 
[1578557841.870023] [srl-adm2:44127:0]         mxm.c:196  MXM  WARN  The 'ulimit -s' on the system is set to 'unlimited'. This may have negative performance implications. Please set the stack size to the default value (10240) 
[1578557841.870590] [srl-adm2:44129:0]         mxm.c:196  MXM  WARN  The 'ulimit -s' on the system is set to 'unlimited'. This may have negative performance implications. Please set the stack size to the default value (10240) 
[1578557841.870778] [srl-adm2:44128:0]         mxm.c:196  MXM  WARN  The 'ulimit -s' on the system is set to 'unlimited'. This may have negative performance implications. Please set the stack size to the default value (10240) 
[1578557841.870916] [srl-adm2:44141:0]         mxm.c:196  MXM  WARN  The 'ulimit -s' on the system is set to 'unlimited'. This may have negative performance implications. Please set the stack size to the default value (10240) 
[1578557841.871214] [srl-adm2:44130:0]         mxm.c:196  MXM  WARN  The 'ulimit -s' on the system is set to 'unlimited'. This may have negative performance implications. Please set the stack size to the default value (10240) 
[1578557841.871228] [srl-adm2:44140:0]         mxm.c:196  MXM  WARN  The 'ulimit -s' on the system is set to 'unlimited'. This may have negative performance implications. Please set the stack size to the default value (10240) 
[1578557841.871621] [srl-adm2:44133:0]         mxm.c:196  MXM  WARN  The 'ulimit -s' on the system is set to 'unlimited'. This may have negative performance implications. Please set the stack size to the default value (10240) 
[1578557841.871627] [srl-adm2:44142:0]         mxm.c:196  MXM  WARN  The 'ulimit -s' on the system is set to 'unlimited'. This may have negative performance implications. Please set the stack size to the default value (10240) 
[1578557841.872345] [srl-adm2:44135:0]         mxm.c:196  MXM  WARN  The 'ulimit -s' on the system is set to 'unlimited'. This may have negative performance implications. Please set the stack size to the default value (10240) 
[1578557841.873988] [srl-adm2:44131:0]         mxm.c:196  MXM  WARN  The 'ulimit -s' on the system is set to 'unlimited'. This may have negative performance implications. Please set the stack size to the default value (10240) 
[1578557841.873895] [srl-adm2:44132:0]         mxm.c:196  MXM  WARN  The 'ulimit -s' on the system is set to 'unlimited'. This may have negative performance implications. Please set the stack size to the default value (10240) 
[1578557841.873903] [srl-adm2:44134:0]         mxm.c:196  MXM  WARN  The 'ulimit -s' on the system is set to 'unlimited'. This may have negative performance implications. Please set the stack size to the default value (10240) 
[1578557841.874342] [srl-adm2:44136:0]         mxm.c:196  MXM  WARN  The 'ulimit -s' on the system is set to 'unlimited'. This may have negative performance implications. Please set the stack size to the default value (10240) 
[1578557841.874458] [srl-adm2:44137:0]         mxm.c:196  MXM  WARN  The 'ulimit -s' on the system is set to 'unlimited'. This may have negative performance implications. Please set the stack size to the default value (10240) 
0: 10 
Edge Weight Method: 10
Cell on rank 0: 2777
Cell on rank 1: 3012
Cell on rank 2: 2524
Cell on rank 3: 2917
Cell on rank 4: 2831
Cell on rank 5: 2613
Cell on rank 6: 3054
Cell on rank 7: 2524
Cell on rank 8: 2917
Cell on rank 9: 2572
Cell on rank 10: 2711
Cell on rank 11: 2529
Cell on rank 12: 2786
Cell on rank 13: 3034
Cell on rank 14: 2830
Cell on rank 15: 2800
Edge-cut: 6996

Rank 0 ghostCells: 959
Rank 1 ghostCells: 813
Rank 2 ghostCells: 1022
Rank 3 ghostCells: 810
Rank 4 ghostCells: 673
Rank 5 ghostCells: 948
Rank 6 ghostCells: 454
Rank 7 ghostCells: 859
Rank 8 ghostCells: 508
Rank 9 ghostCells: 490
Rank 10 ghostCells: 392
Rank 11 ghostCells: 438
Rank 12 ghostCells: 528
Rank 13 ghostCells: 832
Rank 14 ghostCells: 925
Rank 15 ghostCells: 851

Rank 0 numCells: 3736
Rank 1 numCells: 3825
Rank 2 numCells: 3546
Rank 3 numCells: 3727
Rank 4 numCells: 3504
Rank 5 numCells: 3561
Rank 6 numCells: 3508
Rank 7 numCells: 3383
Rank 8 numCells: 3425
Rank 9 numCells: 3062
Rank 10 numCells: 3103
Rank 11 numCells: 2967
Rank 12 numCells: 3314
Rank 13 numCells: 3866
Rank 14 numCells: 3755
Rank 15 numCells: 3651

Rank 0 interiorCells: 2777
Rank 1 interiorCells: 3012
Rank 2 interiorCells: 2524
Rank 3 interiorCells: 2917
Rank 4 interiorCells: 2831
Rank 5 interiorCells: 2613
Rank 6 interiorCells: 3054
Rank 7 interiorCells: 2524
Rank 8 interiorCells: 2917
Rank 9 interiorCells: 2572
Rank 10 interiorCells: 2711
Rank 11 interiorCells: 2529
Rank 12 interiorCells: 2786
Rank 13 interiorCells: 3034
Rank 14 interiorCells: 2830
Rank 15 interiorCells: 2800

MeasComm+1 16: 5.3321e-05 4.6479e-05 5.6098e-05 4.4391e-05 4.1928e-05 5.2202e-05 3.1895e-05 4.7202e-05 3.6086e-05 3.6159e-05 3.4497e-05 2.5676e-05 3.4772e-05 4.4495e-05 5.6079e-05 4.6418e-05 
MeasComm+1 16: 5.3303e-05 4.6162e-05 5.5898e-05 4.4663e-05 4.2702e-05 5.2333e-05 3.166e-05 4.6596e-05 3.5685e-05 3.5965e-05 3.4349e-05 2.5737e-05 3.5883e-05 4.4742e-05 5.6132e-05 4.6518e-05 
MeasComm+1 16: 5.2854e-05 4.6473e-05 5.5877e-05 4.4797e-05 4.3332e-05 5.2503e-05 3.1096e-05 4.6322e-05 3.5947e-05 3.632e-05 3.4337e-05 2.4442e-05 3.5693e-05 4.4523e-05 5.6003e-05 4.6342e-05 
MeasComm+1 16: 5.3444e-05 4.6458e-05 5.5885e-05 4.4685e-05 4.3691e-05 5.2083e-05 3.1246e-05 4.626e-05 3.5888e-05 3.6334e-05 3.4402e-05 2.5757e-05 3.58e-05 4.4475e-05 5.6005e-05 4.6127e-05 
MeasComm+1 16: 5.3129e-05 4.6317e-05 5.5924e-05 4.4624e-05 4.4324e-05 5.2129e-05 3.1418e-05 4.6457e-05 3.5854e-05 3.6101e-05 3.4221e-05 2.4223e-05 3.5767e-05 4.4732e-05 5.5943e-05 4.6478e-05 
MeasComm+1 16: 5.3085e-05 4.5828e-05 5.5681e-05 4.4859e-05 4.4434e-05 5.2261e-05 3.123e-05 4.6135e-05 3.5802e-05 3.5844e-05 3.4444e-05 2.5859e-05 3.5831e-05 4.4414e-05 5.5715e-05 4.6418e-05 
MeasComm+1 16: 5.3088e-05 4.6073e-05 5.5809e-05 4.4757e-05 4.4287e-05 5.2232e-05 3.1254e-05 4.6015e-05 3.5539e-05 3.5887e-05 3.4369e-05 2.549e-05 3.5917e-05 4.4627e-05 5.5914e-05 4.6478e-05 
MeasComm+1 16: 5.3192e-05 4.615e-05 5.5782e-05 4.4709e-05 4.2713e-05 5.1868e-05 3.1362e-05 4.6485e-05 3.5818e-05 3.6046e-05 3.4328e-05 2.4221e-05 3.5832e-05 4.4321e-05 5.5572e-05 4.6309e-05 
MeasComm+1 16: 5.3263e-05 4.6441e-05 5.5974e-05 4.4755e-05 4.4031e-05 5.2039e-05 3.1588e-05 4.628e-05 3.5274e-05 3.626e-05 3.4363e-05 2.5977e-05 3.5803e-05 4.4419e-05 5.5873e-05 4.6308e-05 
MeasComm+1 16: 5.1939e-05 4.6278e-05 5.5987e-05 4.4811e-05 4.4474e-05 5.2023e-05 3.0779e-05 4.6618e-05 3.5242e-05 3.6012e-05 3.4252e-05 2.5837e-05 3.581e-05 4.4566e-05 5.5773e-05 4.6523e-05 

ComTab rank 0: 0 192 398 274 0 0 0 0 0 0 24 0 0 0 223 0 
ComTab rank 1: 178 0 264 132 0 0 0 186 35 136 0 0 0 0 0 0 
ComTab rank 2: 409 255 0 159 0 0 0 0 0 0 59 0 0 2 312 0 
ComTab rank 3: 269 115 168 0 162 141 0 122 0 0 0 0 0 0 0 0 
ComTab rank 4: 0 0 0 157 0 434 130 0 0 0 0 0 0 0 0 0 
ComTab rank 5: 0 0 0 148 448 0 194 168 27 49 0 0 0 0 0 0 
ComTab rank 6: 0 0 0 0 129 186 0 169 0 0 0 0 0 0 0 0 
ComTab rank 7: 0 194 0 132 0 202 170 0 61 187 0 0 0 0 0 0 
ComTab rank 8: 0 33 0 0 0 29 0 61 0 191 0 225 0 0 0 0 
ComTab rank 9: 0 135 0 0 0 34 0 179 191 0 0 0 0 0 0 0 
ComTab rank 10: 24 0 56 0 0 0 0 0 0 0 0 211 0 67 24 40 
ComTab rank 11: 0 0 0 0 0 0 0 0 230 0 208 0 0 0 0 0 
ComTab rank 12: 0 0 0 0 0 0 0 0 0 0 0 0 0 295 0 299 
ComTab rank 13: 0 0 2 0 0 0 0 0 0 0 66 0 299 0 231 327 
ComTab rank 14: 215 0 311 0 0 0 0 0 0 0 23 0 0 222 0 272 
ComTab rank 15: 0 0 0 0 0 0 0 0 0 0 43 0 290 325 270 0 

Edge-cut: 8697

Wgt-cut: 1.71475e-07

[1578557846.907332] [srl-adm2:44131:0]          mpool.c:38   UCX  WARN  object 0x1555393efb60 was not returned to mpool mm_recv_desc
[1578557846.907712] [srl-adm2:44135:0]          mpool.c:38   UCX  WARN  object 0x15554411cde0 was not returned to mpool mm_recv_desc
[1578557846.907887] [srl-adm2:44128:0]          mpool.c:38   UCX  WARN  object 0x55555896d440 was not returned to mpool ucp_am_bufs
[1578557846.907938] [srl-adm2:44129:0]          mpool.c:38   UCX  WARN  object 0x1555393f3c60 was not returned to mpool mm_recv_desc
