[1578557831.920018] [srl-login1:5728 :0]         mxm.c:196  MXM  WARN  The 'ulimit -s' on the system is set to 'unlimited'. This may have negative performance implications. Please set the stack size to the default value (10240) 
[1578557831.920018] [srl-login1:5729 :0]         mxm.c:196  MXM  WARN  The 'ulimit -s' on the system is set to 'unlimited'. This may have negative performance implications. Please set the stack size to the default value (10240) 
0: 10 
Edge Weight Method: 10
Cell on rank 0: 21449
Cell on rank 1: 22982
Edge-cut: 607

Rank 0 ghostCells: 544
Rank 1 ghostCells: 548

Rank 0 numCells: 21993
Rank 1 numCells: 23530

Rank 0 interiorCells: 21449
Rank 1 interiorCells: 22982

MeasComm+1 2: 2.85e-05 2.8715e-05 
MeasComm+1 2: 2.8097e-05 2.8406e-05 
MeasComm+1 2: 2.821e-05 2.8213e-05 
MeasComm+1 2: 2.8182e-05 2.8188e-05 
MeasComm+1 2: 2.8115e-05 2.8364e-05 
MeasComm+1 2: 2.8359e-05 2.8478e-05 
MeasComm+1 2: 2.8216e-05 2.8352e-05 
MeasComm+1 2: 2.8057e-05 2.8081e-05 
MeasComm+1 2: 2.8527e-05 2.8816e-05 
MeasComm+1 2: 2.8106e-05 2.8297e-05 

ComTab rank 0: 0 544 
ComTab rank 1: 548 0 

Edge-cut: 677

Wgt-cut: 3.55789e-09

[1578557838.647420] [srl-login1:5729 :0]          mpool.c:38   UCX  WARN  object 0x55555d965580 was not returned to mpool ucp_am_bufs
