 Data for JOB [33762,1] offset 0 Total slots allocated 4

 ========================   JOB MAP   ========================

 Data for node: n004	Num slots: 4	Max slots: 0	Num procs: 4
 	Process OMPI jobid: [33762,1] App: 0 Process rank: 0 Bound: socket 1[core 33[hwt 0-1]]:[../../../../../../../../../../../../../../../../../../../../../../../../../../../../../../../..][../BB/../../../../../../../../../../../../../../../../../../../../../../../../../../../../../..]
 	Process OMPI jobid: [33762,1] App: 0 Process rank: 1 Bound: socket 1[core 59[hwt 0-1]]:[../../../../../../../../../../../../../../../../../../../../../../../../../../../../../../../..][../../../../../../../../../../../../../../../../../../../../../../../../../../../BB/../../../..]
 	Process OMPI jobid: [33762,1] App: 0 Process rank: 2 Bound: socket 1[core 34[hwt 0-1]]:[../../../../../../../../../../../../../../../../../../../../../../../../../../../../../../../..][../../BB/../../../../../../../../../../../../../../../../../../../../../../../../../../../../..]
 	Process OMPI jobid: [33762,1] App: 0 Process rank: 3 Bound: socket 1[core 60[hwt 0-1]]:[../../../../../../../../../../../../../../../../../../../../../../../../../../../../../../../..][../../../../../../../../../../../../../../../../../../../../../../../../../../../../BB/../../..]

 =============================================================
Two group cota
0 1 1
2 3 3
3 2 2
1 0 0
dune-size 1 5.8139e-06 5.8108e-06 7.82801e-06 7.83261e-06 
dune-size 2 5.51451e-06 5.50591e-06 6.45851e-06 6.45561e-06 
dune-size 4 5.74401e-06 5.74481e-06 5.79761e-06 5.79651e-06 
dune-size 8 6.03941e-06 6.03651e-06 6.20061e-06 6.19911e-06 
dune-size 16 6.70091e-06 6.69781e-06 6.77741e-06 6.77271e-06 
dune-size 32 7.98201e-06 7.97191e-06 7.98691e-06 7.98481e-06 
dune-size 64 7.22751e-06 7.22441e-06 1.13259e-05 1.13211e-05 
dune-size 128 1.06522e-05 1.06466e-05 1.65434e-05 1.65148e-05 
dune-size 256 1.7302e-05 1.72728e-05 1.75717e-05 1.75681e-05 
dune-size 512 3.09449e-05 3.09446e-05 3.09323e-05 3.09257e-05 
dune-size 1024 8.4605e-05 8.45988e-05 8.58506e-05 8.5841e-05 
dune-size 2048 0.00016217 0.000162189 0.000163512 0.000163517 
dune-size 4096 0.000309688 0.000309689 0.000313135 0.000313178 
dune-size 8192 0.00056969 0.000569692 0.000576687 0.000576685 
dune-size 16384 0.000845943 0.000845652 0.000837992 0.000837993 
dune-size 32768 0.00160262 0.00160262 0.00161219 0.00161222 
dune-size 65536 0.00319393 0.00319404 0.00317932 0.00317872 
dune-size 131072 0.0064787 0.00647732 0.00646964 0.00646861 
