 Data for JOB [29707,1] offset 0 Total slots allocated 4

 ========================   JOB MAP   ========================

 Data for node: n004	Num slots: 4	Max slots: 0	Num procs: 4
 	Process OMPI jobid: [29707,1] App: 0 Process rank: 0 Bound: socket 0[core 1[hwt 0-1]]:[../BB/../../../../../../../../../../../../../../../../../../../../../../../../../../../../../..][../../../../../../../../../../../../../../../../../../../../../../../../../../../../../../../..]
 	Process OMPI jobid: [29707,1] App: 0 Process rank: 1 Bound: socket 1[core 43[hwt 0-1]]:[../../../../../../../../../../../../../../../../../../../../../../../../../../../../../../../..][../../../../../../../../../../../BB/../../../../../../../../../../../../../../../../../../../..]
 	Process OMPI jobid: [29707,1] App: 0 Process rank: 2 Bound: socket 0[core 2[hwt 0-1]]:[../../BB/../../../../../../../../../../../../../../../../../../../../../../../../../../../../..][../../../../../../../../../../../../../../../../../../../../../../../../../../../../../../../..]
 	Process OMPI jobid: [29707,1] App: 0 Process rank: 3 Bound: socket 1[core 44[hwt 0-1]]:[../../../../../../../../../../../../../../../../../../../../../../../../../../../../../../../..][../../../../../../../../../../../../BB/../../../../../../../../../../../../../../../../../../..]

 =============================================================
2 3 3
Two group cota
0 1 1
3 2 2
1 0 0
dune-size 1 1.28725e-05 1.28628e-05 7.16631e-06 7.17111e-06 
dune-size 2 8.87091e-06 8.86421e-06 6.73751e-06 6.73661e-06 
dune-size 4 1.02145e-05 1.02079e-05 7.7744e-06 7.7658e-06 
dune-size 8 8.66641e-06 8.66131e-06 7.39441e-06 7.38811e-06 
dune-size 16 8.14281e-06 8.13841e-06 7.96031e-06 7.95711e-06 
dune-size 32 9.63321e-06 9.64631e-06 9.58461e-06 9.58831e-06 
dune-size 64 1.2556e-05 1.25358e-05 1.17657e-05 1.17698e-05 
dune-size 128 1.81918e-05 1.81618e-05 1.24121e-05 1.24061e-05 
dune-size 256 2.00772e-05 2.00711e-05 2.03165e-05 2.03202e-05 
dune-size 512 3.3944e-05 3.39382e-05 3.40316e-05 3.40346e-05 
dune-size 1024 0.00010783 0.000107828 0.000113023 0.000113062 
dune-size 2048 0.000209409 0.000209349 0.000205691 0.000205664 
dune-size 4096 0.000373243 0.000373282 0.000389281 0.00038933 
dune-size 8192 0.000613515 0.000613494 0.000606016 0.000605992 
dune-size 16384 0.000991576 0.000991543 0.00097085 0.000970873 
dune-size 32768 0.00167789 0.00167789 0.00168831 0.00168835 
dune-size 65536 0.00335548 0.00335478 0.00334776 0.00334753 
dune-size 131072 0.00661756 0.0066076 0.00663201 0.00662237 
