[1578476893.037081] [srl-mds1:31160:0]         mxm.c:196  MXM  WARN  The 'ulimit -s' on the system is set to 'unlimited'. This may have negative performance implications. Please set the stack size to the default value (10240) 
[1578476893.037120] [srl-mds1:31162:0]         mxm.c:196  MXM  WARN  The 'ulimit -s' on the system is set to 'unlimited'. This may have negative performance implications. Please set the stack size to the default value (10240) 
[1578476893.037098] [srl-mds1:31163:0]         mxm.c:196  MXM  WARN  The 'ulimit -s' on the system is set to 'unlimited'. This may have negative performance implications. Please set the stack size to the default value (10240) 
[1578476893.037089] [srl-mds1:31164:0]         mxm.c:196  MXM  WARN  The 'ulimit -s' on the system is set to 'unlimited'. This may have negative performance implications. Please set the stack size to the default value (10240) 
0: 0 
After loadbalancing process 1 has 9593 cells.
After loadbalancing process 3 has 12113 cells.
After loadbalancing process 2 has 12586 cells.
After loadbalancing process 0 has 12398 cells.

Rank 0 ghostCells: 305
Rank 1 ghostCells: 364
Rank 2 ghostCells: 1058
Rank 3 ghostCells: 532

Rank 0 numCells: 12398
Rank 1 numCells: 9593
Rank 2 numCells: 12586
Rank 3 numCells: 12113

Rank 0 interiorCells: 12093
Rank 1 interiorCells: 9229
Rank 2 interiorCells: 11528
Rank 3 interiorCells: 11581

ComTab rank 0: 0 70 236 9 
ComTab rank 1: 59 0 312 0 
ComTab rank 2: 229 309 0 530 
ComTab rank 3: 9 0 526 0 

Edge-cut: 1427

Wgt-cut: 1.35161e-08

[1578476896.547047] [srl-mds1:31164:0]          mpool.c:38   UCX  WARN  object 0x1555390dfee0 was not returned to mpool mm_recv_desc
[1578476896.547439] [srl-mds1:31162:0]          mpool.c:38   UCX  WARN  object 0x155539500f60 was not returned to mpool mm_recv_desc
[1578476896.547657] [srl-mds1:31163:0]          mpool.c:38   UCX  WARN  object 0x1555390dde60 was not returned to mpool mm_recv_desc
