[1578476898.040766] [srl-mds1:31283:0]         mxm.c:196  MXM  WARN  The 'ulimit -s' on the system is set to 'unlimited'. This may have negative performance implications. Please set the stack size to the default value (10240) 
[1578476898.040873] [srl-mds1:31279:0]         mxm.c:196  MXM  WARN  The 'ulimit -s' on the system is set to 'unlimited'. This may have negative performance implications. Please set the stack size to the default value (10240) 
[1578476898.042881] [srl-mds1:31281:0]         mxm.c:196  MXM  WARN  The 'ulimit -s' on the system is set to 'unlimited'. This may have negative performance implications. Please set the stack size to the default value (10240) 
[1578476898.042965] [srl-mds1:31280:0]         mxm.c:196  MXM  WARN  The 'ulimit -s' on the system is set to 'unlimited'. This may have negative performance implications. Please set the stack size to the default value (10240) 
[1578476898.043035] [srl-mds1:31278:0]         mxm.c:196  MXM  WARN  The 'ulimit -s' on the system is set to 'unlimited'. This may have negative performance implications. Please set the stack size to the default value (10240) 
[1578476898.043616] [srl-mds1:31276:0]         mxm.c:196  MXM  WARN  The 'ulimit -s' on the system is set to 'unlimited'. This may have negative performance implications. Please set the stack size to the default value (10240) 
[1578476898.043762] [srl-mds1:31277:0]         mxm.c:196  MXM  WARN  The 'ulimit -s' on the system is set to 'unlimited'. This may have negative performance implications. Please set the stack size to the default value (10240) 
[1578476898.043836] [srl-mds1:31274:0]         mxm.c:196  MXM  WARN  The 'ulimit -s' on the system is set to 'unlimited'. This may have negative performance implications. Please set the stack size to the default value (10240) 
0: 0 
After loadbalancing process 7 has 5349 cells.
After loadbalancing process 1 has 6137 cells.
After loadbalancing process 4 has 6206 cells.
After loadbalancing process 5 has 6090 cells.
After loadbalancing process 3 has 6303 cells.
After loadbalancing process 0 has 6535 cells.
After loadbalancing process 6 has 6595 cells.
After loadbalancing process 2 has 6011 cells.

Rank 0 ghostCells: 919
Rank 1 ghostCells: 470
Rank 2 ghostCells: 803
Rank 3 ghostCells: 905
Rank 4 ghostCells: 292
Rank 5 ghostCells: 651
Rank 6 ghostCells: 540
Rank 7 ghostCells: 215

Rank 0 numCells: 6535
Rank 1 numCells: 6137
Rank 2 numCells: 6011
Rank 3 numCells: 6303
Rank 4 numCells: 6206
Rank 5 numCells: 6090
Rank 6 numCells: 6595
Rank 7 numCells: 5349

Rank 0 interiorCells: 5616
Rank 1 interiorCells: 5667
Rank 2 interiorCells: 5208
Rank 3 interiorCells: 5398
Rank 4 interiorCells: 5914
Rank 5 interiorCells: 5439
Rank 6 interiorCells: 6055
Rank 7 interiorCells: 5134

ComTab rank 0: 0 443 200 301 0 0 0 0 
ComTab rank 1: 445 0 27 0 0 0 0 0 
ComTab rank 2: 201 21 0 351 0 25 250 0 
ComTab rank 3: 317 0 345 0 0 293 0 0 
ComTab rank 4: 0 0 0 0 0 292 0 0 
ComTab rank 5: 0 0 25 294 291 0 63 0 
ComTab rank 6: 0 0 251 0 0 80 0 215 
ComTab rank 7: 0 0 0 0 0 0 215 0 

Edge-cut: 2949

Wgt-cut: 3.11878e-08

[1578476901.648704] [srl-mds1:31281:0]          mpool.c:38   UCX  WARN  object 0x5555586f6a80 was not returned to mpool ucp_am_bufs
[1578476901.651923] [srl-mds1:31276:0]          mpool.c:38   UCX  WARN  object 0x55555c38dc80 was not returned to mpool ucp_am_bufs
[1578476901.654167] [srl-mds1:31279:0]          mpool.c:38   UCX  WARN  object 0x555558741480 was not returned to mpool ucp_am_bufs
[1578476901.654992] [srl-mds1:31278:0]          mpool.c:38   UCX  WARN  object 0x55555d764c80 was not returned to mpool ucp_am_bufs
[1578476901.655158] [srl-mds1:31277:0]          mpool.c:38   UCX  WARN  object 0x555558741d80 was not returned to mpool ucp_am_bufs
[1578476901.655329] [srl-mds1:31280:0]          mpool.c:38   UCX  WARN  object 0x5555586f6a80 was not returned to mpool ucp_am_bufs
[1578476901.655391] [srl-mds1:31283:0]          mpool.c:38   UCX  WARN  object 0x5555586f70c0 was not returned to mpool ucp_am_bufs
