 Data for JOB [42184,1] offset 0 Total slots allocated 32

 ========================   JOB MAP   ========================

 Data for node: n004	Num slots: 32	Max slots: 0	Num procs: 32
 	Process OMPI jobid: [42184,1] App: 0 Process rank: 0 Bound: socket 1[core 32[hwt 0-1]]:[../../../../../../../../../../../../../../../../../../../../../../../../../../../../../../../..][BB/../../../../../../../../../../../../../../../../../../../../../../../../../../../../../../..]
 	Process OMPI jobid: [42184,1] App: 0 Process rank: 1 Bound: socket 1[core 33[hwt 0-1]]:[../../../../../../../../../../../../../../../../../../../../../../../../../../../../../../../..][../BB/../../../../../../../../../../../../../../../../../../../../../../../../../../../../../..]
 	Process OMPI jobid: [42184,1] App: 0 Process rank: 2 Bound: socket 1[core 34[hwt 0-1]]:[../../../../../../../../../../../../../../../../../../../../../../../../../../../../../../../..][../../BB/../../../../../../../../../../../../../../../../../../../../../../../../../../../../..]
 	Process OMPI jobid: [42184,1] App: 0 Process rank: 3 Bound: socket 1[core 35[hwt 0-1]]:[../../../../../../../../../../../../../../../../../../../../../../../../../../../../../../../..][../../../BB/../../../../../../../../../../../../../../../../../../../../../../../../../../../..]
 	Process OMPI jobid: [42184,1] App: 0 Process rank: 4 Bound: socket 1[core 36[hwt 0-1]]:[../../../../../../../../../../../../../../../../../../../../../../../../../../../../../../../..][../../../../BB/../../../../../../../../../../../../../../../../../../../../../../../../../../..]
 	Process OMPI jobid: [42184,1] App: 0 Process rank: 5 Bound: socket 1[core 37[hwt 0-1]]:[../../../../../../../../../../../../../../../../../../../../../../../../../../../../../../../..][../../../../../BB/../../../../../../../../../../../../../../../../../../../../../../../../../..]
 	Process OMPI jobid: [42184,1] App: 0 Process rank: 6 Bound: socket 1[core 38[hwt 0-1]]:[../../../../../../../../../../../../../../../../../../../../../../../../../../../../../../../..][../../../../../../BB/../../../../../../../../../../../../../../../../../../../../../../../../..]
 	Process OMPI jobid: [42184,1] App: 0 Process rank: 7 Bound: socket 1[core 39[hwt 0-1]]:[../../../../../../../../../../../../../../../../../../../../../../../../../../../../../../../..][../../../../../../../BB/../../../../../../../../../../../../../../../../../../../../../../../..]
 	Process OMPI jobid: [42184,1] App: 0 Process rank: 8 Bound: socket 1[core 40[hwt 0-1]]:[../../../../../../../../../../../../../../../../../../../../../../../../../../../../../../../..][../../../../../../../../BB/../../../../../../../../../../../../../../../../../../../../../../..]
 	Process OMPI jobid: [42184,1] App: 0 Process rank: 9 Bound: socket 1[core 41[hwt 0-1]]:[../../../../../../../../../../../../../../../../../../../../../../../../../../../../../../../..][../../../../../../../../../BB/../../../../../../../../../../../../../../../../../../../../../..]
 	Process OMPI jobid: [42184,1] App: 0 Process rank: 10 Bound: socket 1[core 42[hwt 0-1]]:[../../../../../../../../../../../../../../../../../../../../../../../../../../../../../../../..][../../../../../../../../../../BB/../../../../../../../../../../../../../../../../../../../../..]
 	Process OMPI jobid: [42184,1] App: 0 Process rank: 11 Bound: socket 1[core 43[hwt 0-1]]:[../../../../../../../../../../../../../../../../../../../../../../../../../../../../../../../..][../../../../../../../../../../../BB/../../../../../../../../../../../../../../../../../../../..]
 	Process OMPI jobid: [42184,1] App: 0 Process rank: 12 Bound: socket 1[core 44[hwt 0-1]]:[../../../../../../../../../../../../../../../../../../../../../../../../../../../../../../../..][../../../../../../../../../../../../BB/../../../../../../../../../../../../../../../../../../..]
 	Process OMPI jobid: [42184,1] App: 0 Process rank: 13 Bound: socket 1[core 45[hwt 0-1]]:[../../../../../../../../../../../../../../../../../../../../../../../../../../../../../../../..][../../../../../../../../../../../../../BB/../../../../../../../../../../../../../../../../../..]
 	Process OMPI jobid: [42184,1] App: 0 Process rank: 14 Bound: socket 1[core 46[hwt 0-1]]:[../../../../../../../../../../../../../../../../../../../../../../../../../../../../../../../..][../../../../../../../../../../../../../../BB/../../../../../../../../../../../../../../../../..]
 	Process OMPI jobid: [42184,1] App: 0 Process rank: 15 Bound: socket 1[core 47[hwt 0-1]]:[../../../../../../../../../../../../../../../../../../../../../../../../../../../../../../../..][../../../../../../../../../../../../../../../BB/../../../../../../../../../../../../../../../..]
 	Process OMPI jobid: [42184,1] App: 0 Process rank: 16 Bound: socket 1[core 48[hwt 0-1]]:[../../../../../../../../../../../../../../../../../../../../../../../../../../../../../../../..][../../../../../../../../../../../../../../../../BB/../../../../../../../../../../../../../../..]
 	Process OMPI jobid: [42184,1] App: 0 Process rank: 17 Bound: socket 1[core 49[hwt 0-1]]:[../../../../../../../../../../../../../../../../../../../../../../../../../../../../../../../..][../../../../../../../../../../../../../../../../../BB/../../../../../../../../../../../../../..]
 	Process OMPI jobid: [42184,1] App: 0 Process rank: 18 Bound: socket 1[core 50[hwt 0-1]]:[../../../../../../../../../../../../../../../../../../../../../../../../../../../../../../../..][../../../../../../../../../../../../../../../../../../BB/../../../../../../../../../../../../..]
 	Process OMPI jobid: [42184,1] App: 0 Process rank: 19 Bound: socket 1[core 51[hwt 0-1]]:[../../../../../../../../../../../../../../../../../../../../../../../../../../../../../../../..][../../../../../../../../../../../../../../../../../../../BB/../../../../../../../../../../../..]
 	Process OMPI jobid: [42184,1] App: 0 Process rank: 20 Bound: socket 1[core 52[hwt 0-1]]:[../../../../../../../../../../../../../../../../../../../../../../../../../../../../../../../..][../../../../../../../../../../../../../../../../../../../../BB/../../../../../../../../../../..]
 	Process OMPI jobid: [42184,1] App: 0 Process rank: 21 Bound: socket 1[core 53[hwt 0-1]]:[../../../../../../../../../../../../../../../../../../../../../../../../../../../../../../../..][../../../../../../../../../../../../../../../../../../../../../BB/../../../../../../../../../..]
 	Process OMPI jobid: [42184,1] App: 0 Process rank: 22 Bound: socket 1[core 54[hwt 0-1]]:[../../../../../../../../../../../../../../../../../../../../../../../../../../../../../../../..][../../../../../../../../../../../../../../../../../../../../../../BB/../../../../../../../../..]
 	Process OMPI jobid: [42184,1] App: 0 Process rank: 23 Bound: socket 1[core 55[hwt 0-1]]:[../../../../../../../../../../../../../../../../../../../../../../../../../../../../../../../..][../../../../../../../../../../../../../../../../../../../../../../../BB/../../../../../../../..]
 	Process OMPI jobid: [42184,1] App: 0 Process rank: 24 Bound: socket 1[core 56[hwt 0-1]]:[../../../../../../../../../../../../../../../../../../../../../../../../../../../../../../../..][../../../../../../../../../../../../../../../../../../../../../../../../BB/../../../../../../..]
 	Process OMPI jobid: [42184,1] App: 0 Process rank: 25 Bound: socket 1[core 57[hwt 0-1]]:[../../../../../../../../../../../../../../../../../../../../../../../../../../../../../../../..][../../../../../../../../../../../../../../../../../../../../../../../../../BB/../../../../../..]
 	Process OMPI jobid: [42184,1] App: 0 Process rank: 26 Bound: socket 1[core 58[hwt 0-1]]:[../../../../../../../../../../../../../../../../../../../../../../../../../../../../../../../..][../../../../../../../../../../../../../../../../../../../../../../../../../../BB/../../../../..]
 	Process OMPI jobid: [42184,1] App: 0 Process rank: 27 Bound: socket 1[core 59[hwt 0-1]]:[../../../../../../../../../../../../../../../../../../../../../../../../../../../../../../../..][../../../../../../../../../../../../../../../../../../../../../../../../../../../BB/../../../..]
 	Process OMPI jobid: [42184,1] App: 0 Process rank: 28 Bound: socket 1[core 60[hwt 0-1]]:[../../../../../../../../../../../../../../../../../../../../../../../../../../../../../../../..][../../../../../../../../../../../../../../../../../../../../../../../../../../../../BB/../../..]
 	Process OMPI jobid: [42184,1] App: 0 Process rank: 29 Bound: socket 1[core 61[hwt 0-1]]:[../../../../../../../../../../../../../../../../../../../../../../../../../../../../../../../..][../../../../../../../../../../../../../../../../../../../../../../../../../../../../../BB/../..]
 	Process OMPI jobid: [42184,1] App: 0 Process rank: 30 Bound: socket 1[core 62[hwt 0-1]]:[../../../../../../../../../../../../../../../../../../../../../../../../../../../../../../../..][../../../../../../../../../../../../../../../../../../../../../../../../../../../../../../BB/..]
 	Process OMPI jobid: [42184,1] App: 0 Process rank: 31 Bound: socket 1[core 63[hwt 0-1]]:[../../../../../../../../../../../../../../../../../../../../../../../../../../../../../../../..][../../../../../../../../../../../../../../../../../../../../../../../../../../../../../../../BB]

 =============================================================
[1579598558.764595] [n004:108007:0]         mxm.c:196  MXM  WARN  The 'ulimit -s' on the system is set to 'unlimited'. This may have negative performance implications. Please set the stack size to the default value (10240) 
[1579598558.765128] [n004:108008:0]         mxm.c:196  MXM  WARN  The 'ulimit -s' on the system is set to 'unlimited'. This may have negative performance implications. Please set the stack size to the default value (10240) 
[1579598558.765293] [n004:108010:0]         mxm.c:196  MXM  WARN  The 'ulimit -s' on the system is set to 'unlimited'. This may have negative performance implications. Please set the stack size to the default value (10240) 
[1579598558.765293] [n004:108012:0]         mxm.c:196  MXM  WARN  The 'ulimit -s' on the system is set to 'unlimited'. This may have negative performance implications. Please set the stack size to the default value (10240) 
[1579598558.766279] [n004:108005:0]         mxm.c:196  MXM  WARN  The 'ulimit -s' on the system is set to 'unlimited'. This may have negative performance implications. Please set the stack size to the default value (10240) 
[1579598558.766407] [n004:108013:0]         mxm.c:196  MXM  WARN  The 'ulimit -s' on the system is set to 'unlimited'. This may have negative performance implications. Please set the stack size to the default value (10240) 
[1579598558.767488] [n004:107999:0]         mxm.c:196  MXM  WARN  The 'ulimit -s' on the system is set to 'unlimited'. This may have negative performance implications. Please set the stack size to the default value (10240) 
[1579598558.767489] [n004:107997:0]         mxm.c:196  MXM  WARN  The 'ulimit -s' on the system is set to 'unlimited'. This may have negative performance implications. Please set the stack size to the default value (10240) 
[1579598558.770832] [n004:108016:0]         mxm.c:196  MXM  WARN  The 'ulimit -s' on the system is set to 'unlimited'. This may have negative performance implications. Please set the stack size to the default value (10240) 
[1579598558.773891] [n004:107998:0]         mxm.c:196  MXM  WARN  The 'ulimit -s' on the system is set to 'unlimited'. This may have negative performance implications. Please set the stack size to the default value (10240) 
[1579598558.774480] [n004:107995:0]         mxm.c:196  MXM  WARN  The 'ulimit -s' on the system is set to 'unlimited'. This may have negative performance implications. Please set the stack size to the default value (10240) 
[1579598558.774480] [n004:107994:0]         mxm.c:196  MXM  WARN  The 'ulimit -s' on the system is set to 'unlimited'. This may have negative performance implications. Please set the stack size to the default value (10240) 
[1579598558.774815] [n004:108021:0]         mxm.c:196  MXM  WARN  The 'ulimit -s' on the system is set to 'unlimited'. This may have negative performance implications. Please set the stack size to the default value (10240) 
[1579598558.774891] [n004:108023:0]         mxm.c:196  MXM  WARN  The 'ulimit -s' on the system is set to 'unlimited'. This may have negative performance implications. Please set the stack size to the default value (10240) 
[1579598558.775013] [n004:107993:0]         mxm.c:196  MXM  WARN  The 'ulimit -s' on the system is set to 'unlimited'. This may have negative performance implications. Please set the stack size to the default value (10240) 
[1579598558.775366] [n004:108018:0]         mxm.c:196  MXM  WARN  The 'ulimit -s' on the system is set to 'unlimited'. This may have negative performance implications. Please set the stack size to the default value (10240) 
[1579598558.775604] [n004:108000:0]         mxm.c:196  MXM  WARN  The 'ulimit -s' on the system is set to 'unlimited'. This may have negative performance implications. Please set the stack size to the default value (10240) 
[1579598558.775936] [n004:108002:0]         mxm.c:196  MXM  WARN  The 'ulimit -s' on the system is set to 'unlimited'. This may have negative performance implications. Please set the stack size to the default value (10240) 
[1579598558.775936] [n004:108011:0]         mxm.c:196  MXM  WARN  The 'ulimit -s' on the system is set to 'unlimited'. This may have negative performance implications. Please set the stack size to the default value (10240) 
[1579598558.776065] [n004:108019:0]         mxm.c:196  MXM  WARN  The 'ulimit -s' on the system is set to 'unlimited'. This may have negative performance implications. Please set the stack size to the default value (10240) 
[1579598558.776249] [n004:108009:0]         mxm.c:196  MXM  WARN  The 'ulimit -s' on the system is set to 'unlimited'. This may have negative performance implications. Please set the stack size to the default value (10240) 
[1579598558.776531] [n004:107996:0]         mxm.c:196  MXM  WARN  The 'ulimit -s' on the system is set to 'unlimited'. This may have negative performance implications. Please set the stack size to the default value (10240) 
[1579598558.777108] [n004:108003:0]         mxm.c:196  MXM  WARN  The 'ulimit -s' on the system is set to 'unlimited'. This may have negative performance implications. Please set the stack size to the default value (10240) 
[1579598558.777173] [n004:108001:0]         mxm.c:196  MXM  WARN  The 'ulimit -s' on the system is set to 'unlimited'. This may have negative performance implications. Please set the stack size to the default value (10240) 
[1579598558.778874] [n004:108015:0]         mxm.c:196  MXM  WARN  The 'ulimit -s' on the system is set to 'unlimited'. This may have negative performance implications. Please set the stack size to the default value (10240) 
[1579598558.780098] [n004:108006:0]         mxm.c:196  MXM  WARN  The 'ulimit -s' on the system is set to 'unlimited'. This may have negative performance implications. Please set the stack size to the default value (10240) 
[1579598558.780152] [n004:108014:0]         mxm.c:196  MXM  WARN  The 'ulimit -s' on the system is set to 'unlimited'. This may have negative performance implications. Please set the stack size to the default value (10240) 
[1579598558.780333] [n004:108024:0]         mxm.c:196  MXM  WARN  The 'ulimit -s' on the system is set to 'unlimited'. This may have negative performance implications. Please set the stack size to the default value (10240) 
[1579598558.780722] [n004:108020:0]         mxm.c:196  MXM  WARN  The 'ulimit -s' on the system is set to 'unlimited'. This may have negative performance implications. Please set the stack size to the default value (10240) 
[1579598558.781134] [n004:108017:0]         mxm.c:196  MXM  WARN  The 'ulimit -s' on the system is set to 'unlimited'. This may have negative performance implications. Please set the stack size to the default value (10240) 
[1579598558.781279] [n004:108022:0]         mxm.c:196  MXM  WARN  The 'ulimit -s' on the system is set to 'unlimited'. This may have negative performance implications. Please set the stack size to the default value (10240) 
[1579598558.783983] [n004:108004:0]         mxm.c:196  MXM  WARN  The 'ulimit -s' on the system is set to 'unlimited'. This may have negative performance implications. Please set the stack size to the default value (10240) 
0: 1 

Rank 0 ghostCells: 606
Rank 1 ghostCells: 622
Rank 2 ghostCells: 412
Rank 3 ghostCells: 776
Rank 4 ghostCells: 489
Rank 5 ghostCells: 493
Rank 6 ghostCells: 553
Rank 7 ghostCells: 763
Rank 8 ghostCells: 920
Rank 9 ghostCells: 851
Rank 10 ghostCells: 1227
Rank 11 ghostCells: 1426
Rank 12 ghostCells: 752
Rank 13 ghostCells: 1013
Rank 14 ghostCells: 612
Rank 15 ghostCells: 222
Rank 16 ghostCells: 915
Rank 17 ghostCells: 1117
Rank 18 ghostCells: 1018
Rank 19 ghostCells: 767
Rank 20 ghostCells: 1105
Rank 21 ghostCells: 1663
Rank 22 ghostCells: 884
Rank 23 ghostCells: 1038
Rank 24 ghostCells: 1223
Rank 25 ghostCells: 1318
Rank 26 ghostCells: 1385
Rank 27 ghostCells: 326
Rank 28 ghostCells: 406
Rank 29 ghostCells: 973
Rank 30 ghostCells: 948
Rank 31 ghostCells: 703

Rank 0 numCells: 2029
Rank 1 numCells: 1277
Rank 2 numCells: 885
Rank 3 numCells: 2303
Rank 4 numCells: 1882
Rank 5 numCells: 1768
Rank 6 numCells: 2042
Rank 7 numCells: 2251
Rank 8 numCells: 2371
Rank 9 numCells: 2339
Rank 10 numCells: 2686
Rank 11 numCells: 2953
Rank 12 numCells: 2185
Rank 13 numCells: 2537
Rank 14 numCells: 2133
Rank 15 numCells: 1355
Rank 16 numCells: 2441
Rank 17 numCells: 2561
Rank 18 numCells: 2543
Rank 19 numCells: 2275
Rank 20 numCells: 2459
Rank 21 numCells: 3109
Rank 22 numCells: 2361
Rank 23 numCells: 2565
Rank 24 numCells: 2687
Rank 25 numCells: 2756
Rank 26 numCells: 2881
Rank 27 numCells: 1436
Rank 28 numCells: 1866
Rank 29 numCells: 2484
Rank 30 numCells: 2318
Rank 31 numCells: 2219

Rank 0 interiorCells: 1423
Rank 1 interiorCells: 655
Rank 2 interiorCells: 473
Rank 3 interiorCells: 1527
Rank 4 interiorCells: 1393
Rank 5 interiorCells: 1275
Rank 6 interiorCells: 1489
Rank 7 interiorCells: 1488
Rank 8 interiorCells: 1451
Rank 9 interiorCells: 1488
Rank 10 interiorCells: 1459
Rank 11 interiorCells: 1527
Rank 12 interiorCells: 1433
Rank 13 interiorCells: 1524
Rank 14 interiorCells: 1521
Rank 15 interiorCells: 1133
Rank 16 interiorCells: 1526
Rank 17 interiorCells: 1444
Rank 18 interiorCells: 1525
Rank 19 interiorCells: 1508
Rank 20 interiorCells: 1354
Rank 21 interiorCells: 1446
Rank 22 interiorCells: 1477
Rank 23 interiorCells: 1527
Rank 24 interiorCells: 1464
Rank 25 interiorCells: 1438
Rank 26 interiorCells: 1496
Rank 27 interiorCells: 1110
Rank 28 interiorCells: 1460
Rank 29 interiorCells: 1511
Rank 30 interiorCells: 1370
Rank 31 interiorCells: 1516

MeasComm+1 32: 9.374e-05 7.622e-05 6.586e-05 9.644e-05 7.144e-05 8.313e-05 7.219e-05 8.131e-05 0.00010804 0.00010302 0.00012547 0.00014284 8.8801e-05 0.00012997 9.7941e-05 6.191e-05 0.00012352 0.0001209 0.00010889 9.85e-05 0.00011629 0.00016828 0.00010378 0.00010686 0.0001374 0.00016399 0.000152601 8.862e-05 9.762e-05 0.000135771 0.00012798 9.831e-05 
MeasComm+1 32: 9.368e-05 7.61e-05 6.561e-05 9.876e-05 7.223e-05 8.303e-05 7.182e-05 8.198e-05 0.00010896 0.00010364 0.00012213 0.00014237 8.894e-05 0.00013269 9.861e-05 6.143e-05 0.00012479 0.00012055 0.00010792 9.952e-05 0.000115671 0.00016673 0.00010197 0.000106181 0.00013743 0.00016276 0.00014926 8.508e-05 9.4111e-05 0.000134491 0.00012627 9.8111e-05 
MeasComm+1 32: 9.259e-05 7.472e-05 6.5461e-05 9.698e-05 7.116e-05 8.221e-05 7.157e-05 8.081e-05 0.00010507 0.00010198 0.000123 0.00014217 8.767e-05 0.00013105 9.208e-05 6.146e-05 0.00012346 0.00011943 0.00010522 9.735e-05 0.00011426 0.00016623 0.00010207 0.0001064 0.00013559 0.00016108 0.00015068 8.395e-05 9.383e-05 0.00013353 0.00012652 9.757e-05 
MeasComm+1 32: 9.173e-05 7.601e-05 6.584e-05 9.552e-05 7.194e-05 8.287e-05 7.221e-05 8.169e-05 0.00010995 0.00010425 0.00012544 0.00014287 8.864e-05 0.00013114 9.844e-05 6.178e-05 0.00012485 0.00011967 0.00010571 9.766e-05 0.00011392 0.00016588 0.0001016 0.00010562 0.00013843 0.00016275 0.00014589 8.059e-05 9.275e-05 0.00013281 0.0001251 9.625e-05 
MeasComm+1 32: 9.217e-05 7.587e-05 6.5e-05 9.36e-05 7.194e-05 8.312e-05 7.085e-05 7.888e-05 0.000105981 0.00010185 0.000126821 0.00014204 8.797e-05 0.00013301 9.3011e-05 6.131e-05 0.00012515 0.0001205 0.0001073 9.993e-05 0.00011472 0.00016645 0.00010157 0.00010675 0.0001381 0.0001627 0.00015207 8.497e-05 9.385e-05 0.00013512 0.00012617 9.739e-05 
MeasComm+1 32: 9.2831e-05 7.613e-05 6.556e-05 9.711e-05 7.17e-05 8.293e-05 7.219e-05 8.02e-05 0.00010724 0.00010449 0.00012508 0.000142061 8.889e-05 0.00013173 9.755e-05 6.145e-05 0.00012447 0.00011956 0.00010711 9.82e-05 0.00011629 0.000166361 0.000101451 0.000107291 0.000137961 0.00016063 0.00014635 8.216e-05 9.487e-05 0.00013455 0.00012725 9.7491e-05 
MeasComm+1 32: 9.031e-05 7.353e-05 5.768e-05 9.664e-05 7.07e-05 8.255e-05 7.129e-05 8.106e-05 0.00010549 0.00010488 0.00012563 0.00014213 8.846e-05 0.00012781 9.313e-05 6.157e-05 0.00011904 0.00011994 0.00010613 9.743e-05 0.00011461 0.00016609 0.00010174 0.00010628 0.000137031 0.00016163 0.00014492 8.124e-05 9.274e-05 0.000132771 0.00012466 9.787e-05 
MeasComm+1 32: 9.2381e-05 7.664e-05 6.518e-05 9.9161e-05 7.279e-05 8.3211e-05 7.194e-05 8.035e-05 0.00010231 9.793e-05 0.00012373 0.000142231 8.782e-05 0.0001307 9.782e-05 6.158e-05 0.00012348 0.00012002 9.394e-05 9.796e-05 0.00011453 0.00016649 0.0001011 0.00010622 0.00013604 0.00016251 0.00014572 8.318e-05 9.265e-05 0.00013246 0.000126381 9.787e-05 
MeasComm+1 32: 9.147e-05 7.458e-05 6.563e-05 9.513e-05 7.038e-05 8.318e-05 7.132e-05 8.071e-05 0.000105341 0.00010192 0.00011773 0.00014204 8.873e-05 0.00013183 9.154e-05 6.166e-05 0.000123371 0.00011984 0.00010589 9.674e-05 0.00011454 0.000166111 0.00010085 0.00010384 0.000136491 0.000161151 0.00014332 8.183e-05 9.206e-05 0.00013239 0.00012586 9.747e-05 
MeasComm+1 32: 9.248e-05 7.432e-05 6.547e-05 9.471e-05 7.18e-05 8.249e-05 7.068e-05 8.2301e-05 0.00010319 0.000102461 0.00010694 0.00014225 8.802e-05 0.00013063 8.423e-05 5.772e-05 0.00012127 0.00012018 0.00010587 9.7981e-05 0.00011426 0.000166461 0.00010248 0.00010316 0.00013658 0.00016174 0.000152221 8.486e-05 9.3911e-05 0.00013316 0.0001211 9.632e-05 

MeasCopy 32: 2.841e-05 2.913e-05 1.933e-05 3.634e-05 2.292e-05 2.306e-05 2.591e-05 3.576e-05 4.313e-05 3.987e-05 5.75e-05 6.677e-05 3.521e-05 4.75e-05 2.87e-05 1.043e-05 4.287e-05 5.236e-05 4.77e-05 3.596e-05 5.18e-05 7.796e-05 4.144e-05 4.862e-05 5.729e-05 6.186e-05 6.496e-05 1.528e-05 1.902e-05 4.562e-05 4.439e-05 3.295e-05 
MeasCopy 32: 2.84e-05 2.9171e-05 1.931e-05 3.637e-05 2.292e-05 2.312e-05 2.589e-05 3.578e-05 4.312e-05 3.987e-05 5.752e-05 6.682e-05 3.524e-05 4.7511e-05 2.868e-05 1.041e-05 4.284e-05 5.232e-05 4.771e-05 3.592e-05 5.173e-05 7.797e-05 4.143e-05 4.859e-05 5.734e-05 6.185e-05 6.495e-05 1.53e-05 1.902e-05 4.561e-05 4.443e-05 3.295e-05 
MeasCopy 32: 2.84e-05 2.917e-05 1.932e-05 3.636e-05 2.29e-05 2.31e-05 2.59e-05 3.568e-05 4.309e-05 3.986e-05 5.752e-05 6.684e-05 3.527e-05 4.749e-05 2.869e-05 1.042e-05 4.291e-05 5.238e-05 4.771e-05 3.597e-05 5.175e-05 7.795e-05 4.142e-05 4.864e-05 5.734e-05 6.189e-05 6.494e-05 1.526e-05 1.9e-05 4.56e-05 4.44e-05 3.289e-05 
MeasCopy 32: 2.842e-05 2.916e-05 1.933e-05 3.637e-05 2.29e-05 2.312e-05 2.59e-05 3.579e-05 4.309e-05 3.986e-05 5.749e-05 6.687e-05 3.524e-05 4.745e-05 2.87e-05 1.041e-05 4.29e-05 5.231e-05 4.772e-05 3.597e-05 5.178e-05 7.797e-05 4.143e-05 4.865e-05 5.731e-05 6.183e-05 6.4931e-05 1.527e-05 1.902e-05 4.563e-05 4.443e-05 3.293e-05 
MeasCopy 32: 2.844e-05 2.916e-05 1.93e-05 3.635e-05 2.292e-05 2.311e-05 2.59e-05 3.575e-05 4.31e-05 3.988e-05 5.754e-05 6.678e-05 3.524e-05 4.748e-05 2.87e-05 1.043e-05 4.288e-05 5.234e-05 4.774e-05 3.594e-05 5.182e-05 7.796e-05 4.144e-05 4.864e-05 5.732e-05 6.187e-05 6.493e-05 1.53e-05 1.901e-05 4.56e-05 4.445e-05 3.295e-05 
MeasCopy 32: 2.843e-05 2.912e-05 1.93e-05 3.64e-05 2.29e-05 2.313e-05 2.591e-05 3.575e-05 4.309e-05 3.988e-05 5.751e-05 6.686e-05 3.525e-05 4.75e-05 2.869e-05 1.041e-05 4.289e-05 5.237e-05 4.768e-05 3.596e-05 5.179e-05 7.799e-05 4.145e-05 4.865e-05 5.73e-05 6.187e-05 6.494e-05 1.529e-05 1.902e-05 4.563e-05 4.445e-05 3.296e-05 
MeasCopy 32: 2.84e-05 2.913e-05 1.93e-05 3.638e-05 2.293e-05 2.312e-05 2.592e-05 3.577e-05 4.313e-05 3.987e-05 5.746e-05 6.685e-05 3.524e-05 4.746e-05 2.867e-05 1.043e-05 4.285e-05 5.237e-05 4.767e-05 3.5921e-05 5.179e-05 7.791e-05 4.14e-05 4.864e-05 5.7331e-05 6.188e-05 6.492e-05 1.528e-05 1.903e-05 4.56e-05 4.4431e-05 3.293e-05 
MeasCopy 32: 2.842e-05 2.914e-05 1.932e-05 3.636e-05 2.295e-05 2.303e-05 2.593e-05 3.573e-05 4.31e-05 3.988e-05 5.746e-05 6.681e-05 3.522e-05 4.747e-05 2.869e-05 1.042e-05 4.286e-05 5.2381e-05 4.77e-05 3.595e-05 5.179e-05 7.795e-05 4.138e-05 4.867e-05 5.728e-05 6.188e-05 6.49e-05 1.529e-05 1.905e-05 4.559e-05 4.439e-05 3.294e-05 
MeasCopy 32: 2.841e-05 2.917e-05 1.931e-05 3.636e-05 2.29e-05 2.311e-05 2.593e-05 3.574e-05 4.31e-05 3.986e-05 5.753e-05 6.675e-05 3.524e-05 4.747e-05 2.868e-05 1.041e-05 4.289e-05 5.236e-05 4.769e-05 3.593e-05 5.18e-05 7.7991e-05 4.145e-05 4.863e-05 5.731e-05 6.182e-05 6.495e-05 1.529e-05 1.903e-05 4.562e-05 4.443e-05 3.296e-05 
MeasCopy 32: 2.839e-05 2.919e-05 1.931e-05 3.634e-05 2.292e-05 2.311e-05 2.591e-05 3.575e-05 4.31e-05 3.987e-05 5.754e-05 6.68e-05 3.525e-05 4.75e-05 2.869e-05 1.042e-05 4.286e-05 5.239e-05 4.773e-05 3.595e-05 5.176e-05 7.795e-05 4.142e-05 4.862e-05 5.733e-05 6.184e-05 6.49e-05 1.529e-05 1.904e-05 4.559e-05 4.441e-05 3.299e-05 

ComTab rank 0: 0 199 70 115 0 68 0 57 0 0 0 22 0 3 3 0 0 0 0 0 0 54 0 0 0 0 76 10 67 0 164 38 
ComTab rank 1: 216 0 31 84 95 5 153 103 0 0 0 0 0 0 0 0 0 0 0 0 0 0 0 0 0 0 0 23 0 33 109 0 
ComTab rank 2: 69 31 0 203 6 53 0 90 0 0 0 0 23 39 0 5 0 0 0 0 0 0 0 0 0 0 0 0 0 0 0 0 
ComTab rank 3: 97 84 178 0 90 48 0 83 2 130 122 23 15 0 32 0 54 0 0 0 0 0 0 0 0 0 0 0 13 0 0 0 
ComTab rank 4: 0 88 11 86 0 70 158 134 0 0 0 0 0 0 0 0 0 0 0 0 0 0 0 0 0 0 0 12 0 24 13 4 
ComTab rank 5: 68 5 53 48 77 0 15 79 1 50 53 22 5 38 68 0 6 0 0 3 0 0 0 0 0 0 0 0 29 0 0 0 
ComTab rank 6: 0 131 0 0 149 15 0 277 0 0 0 0 0 0 0 0 0 0 0 0 0 0 0 0 0 0 0 21 0 49 63 23 
ComTab rank 7: 46 94 90 93 117 75 275 0 0 0 0 0 0 0 0 0 0 0 0 0 0 0 0 0 0 0 0 0 0 105 51 51 
ComTab rank 8: 0 0 0 2 0 1 0 0 0 402 112 262 67 155 199 0 74 5 0 0 0 20 0 0 0 26 0 27 0 0 0 0 
ComTab rank 9: 0 0 0 62 0 28 0 0 406 0 295 269 60 81 53 0 31 0 0 0 0 0 0 0 0 7 0 0 0 0 0 0 
ComTab rank 10: 0 0 0 57 0 34 0 0 133 279 0 399 126 257 274 0 60 0 0 96 0 4 0 0 14 55 0 0 0 0 0 0 
ComTab rank 11: 79 0 0 26 0 33 0 0 268 274 383 0 195 389 141 0 110 70 0 5 0 70 0 0 0 74 30 44 29 16 0 0 
ComTab rank 12: 0 0 25 12 0 12 0 0 67 50 116 189 0 302 52 177 0 0 0 0 0 0 0 0 0 0 0 0 0 0 0 0 
ComTab rank 13: 3 0 19 0 0 15 0 0 141 70 238 415 300 0 54 46 15 46 0 0 0 56 0 0 18 67 6 14 1 5 0 0 
ComTab rank 14: 3 0 0 31 0 74 0 0 182 55 165 137 58 51 0 54 33 0 0 0 0 0 0 0 0 0 2 36 1 12 0 0 
ComTab rank 15: 0 0 5 0 0 0 0 0 0 0 0 0 165 39 57 0 0 0 0 0 0 0 0 0 0 0 0 0 0 0 0 0 
ComTab rank 16: 0 0 0 33 0 4 0 0 78 21 51 113 0 16 33 0 0 120 187 145 0 57 0 0 97 222 94 0 57 37 0 0 
ComTab rank 17: 0 0 0 0 0 0 0 0 5 0 0 68 0 52 0 0 111 0 118 0 34 337 137 76 70 117 432 0 12 71 30 0 
ComTab rank 18: 0 0 0 0 0 0 0 0 0 0 0 0 0 0 0 0 189 111 0 260 207 141 96 93 29 179 3 0 6 19 13 0 
ComTab rank 19: 0 0 0 0 0 3 0 0 0 0 110 5 0 0 0 0 143 0 242 0 86 76 86 17 197 73 4 0 14 0 0 0 
ComTab rank 20: 0 0 0 0 0 0 0 0 0 0 0 0 0 0 0 0 0 33 199 81 0 103 169 244 322 135 20 12 0 82 118 46 
ComTab rank 21: 54 0 0 0 0 0 0 0 19 0 4 85 0 60 0 0 59 331 146 69 98 0 173 160 221 508 256 0 16 162 154 27 
ComTab rank 22: 0 0 0 0 0 0 0 0 0 0 0 0 0 0 0 0 0 129 102 91 151 166 0 415 60 70 143 2 5 16 59 12 
ComTab rank 23: 0 0 0 0 0 0 0 0 0 0 0 0 0 0 0 0 0 76 81 17 242 175 428 0 222 130 116 7 1 68 4 0 
ComTab rank 24: 0 0 0 0 0 0 0 0 0 0 13 0 0 18 0 0 84 70 25 195 290 201 54 212 0 215 326 0 0 58 0 15 
ComTab rank 25: 0 0 0 0 0 0 0 0 23 7 48 73 0 61 0 0 223 107 166 71 110 433 53 116 220 0 317 0 12 103 39 32 
ComTab rank 26: 77 0 0 0 0 0 0 0 0 0 0 20 0 6 2 0 69 414 3 4 20 244 143 101 359 331 0 8 57 66 44 200 
ComTab rank 27: 10 37 0 0 12 0 30 0 27 0 0 30 0 14 64 0 0 0 0 0 3 0 2 7 0 0 10 0 89 58 71 17 
ComTab rank 28: 67 0 0 12 0 28 0 0 0 0 0 22 0 1 1 0 47 9 6 20 0 16 6 1 0 3 66 89 0 97 10 5 
ComTab rank 29: 0 52 0 0 21 0 53 102 0 0 0 10 0 5 11 0 65 67 21 0 85 165 15 70 57 109 97 57 86 0 90 199 
ComTab rank 30: 184 101 0 0 9 0 67 49 0 0 0 0 0 0 0 0 0 32 6 0 118 137 42 4 0 39 55 36 13 98 0 341 
ComTab rank 31: 49 0 0 0 3 0 23 55 0 0 0 0 0 0 0 0 0 0 0 0 46 28 12 0 15 31 180 12 6 184 326 0 

Edge-cut: 21541

Wgt-cut: 1.28504e-08

[1579598565.865627] [n004:107994:0]          mpool.c:38   UCX  WARN  object 0x55555ca9a7c0 was not returned to mpool ucp_am_bufs
[1579598565.882464] [n004:107995:0]          mpool.c:38   UCX  WARN  object 0x55555d85f380 was not returned to mpool ucp_am_bufs
[1579598565.885339] [n004:107998:0]          mpool.c:38   UCX  WARN  object 0x5555587e0480 was not returned to mpool ucp_am_bufs
[1579598565.972891] [n004:108002:0]          mpool.c:38   UCX  WARN  object 0x155544114be0 was not returned to mpool mm_recv_desc
[1579598565.973687] [n004:108009:0]          mpool.c:38   UCX  WARN  object 0x15554411cde0 was not returned to mpool mm_recv_desc
