 Data for JOB [53672,1] offset 0 Total slots allocated 32

 ========================   JOB MAP   ========================

 Data for node: n004	Num slots: 32	Max slots: 0	Num procs: 32
 	Process OMPI jobid: [53672,1] App: 0 Process rank: 0 Bound: socket 0[core 0[hwt 0-1]]:[BB/../../../../../../../../../../../../../../../../../../../../../../../../../../../../../../..][../../../../../../../../../../../../../../../../../../../../../../../../../../../../../../../..]
 	Process OMPI jobid: [53672,1] App: 0 Process rank: 1 Bound: socket 0[core 1[hwt 0-1]]:[../BB/../../../../../../../../../../../../../../../../../../../../../../../../../../../../../..][../../../../../../../../../../../../../../../../../../../../../../../../../../../../../../../..]
 	Process OMPI jobid: [53672,1] App: 0 Process rank: 2 Bound: socket 0[core 2[hwt 0-1]]:[../../BB/../../../../../../../../../../../../../../../../../../../../../../../../../../../../..][../../../../../../../../../../../../../../../../../../../../../../../../../../../../../../../..]
 	Process OMPI jobid: [53672,1] App: 0 Process rank: 3 Bound: socket 0[core 3[hwt 0-1]]:[../../../BB/../../../../../../../../../../../../../../../../../../../../../../../../../../../..][../../../../../../../../../../../../../../../../../../../../../../../../../../../../../../../..]
 	Process OMPI jobid: [53672,1] App: 0 Process rank: 4 Bound: socket 0[core 4[hwt 0-1]]:[../../../../BB/../../../../../../../../../../../../../../../../../../../../../../../../../../..][../../../../../../../../../../../../../../../../../../../../../../../../../../../../../../../..]
 	Process OMPI jobid: [53672,1] App: 0 Process rank: 5 Bound: socket 0[core 5[hwt 0-1]]:[../../../../../BB/../../../../../../../../../../../../../../../../../../../../../../../../../..][../../../../../../../../../../../../../../../../../../../../../../../../../../../../../../../..]
 	Process OMPI jobid: [53672,1] App: 0 Process rank: 6 Bound: socket 0[core 6[hwt 0-1]]:[../../../../../../BB/../../../../../../../../../../../../../../../../../../../../../../../../..][../../../../../../../../../../../../../../../../../../../../../../../../../../../../../../../..]
 	Process OMPI jobid: [53672,1] App: 0 Process rank: 7 Bound: socket 0[core 7[hwt 0-1]]:[../../../../../../../BB/../../../../../../../../../../../../../../../../../../../../../../../..][../../../../../../../../../../../../../../../../../../../../../../../../../../../../../../../..]
 	Process OMPI jobid: [53672,1] App: 0 Process rank: 8 Bound: socket 0[core 8[hwt 0-1]]:[../../../../../../../../BB/../../../../../../../../../../../../../../../../../../../../../../..][../../../../../../../../../../../../../../../../../../../../../../../../../../../../../../../..]
 	Process OMPI jobid: [53672,1] App: 0 Process rank: 9 Bound: socket 0[core 9[hwt 0-1]]:[../../../../../../../../../BB/../../../../../../../../../../../../../../../../../../../../../..][../../../../../../../../../../../../../../../../../../../../../../../../../../../../../../../..]
 	Process OMPI jobid: [53672,1] App: 0 Process rank: 10 Bound: socket 0[core 10[hwt 0-1]]:[../../../../../../../../../../BB/../../../../../../../../../../../../../../../../../../../../..][../../../../../../../../../../../../../../../../../../../../../../../../../../../../../../../..]
 	Process OMPI jobid: [53672,1] App: 0 Process rank: 11 Bound: socket 0[core 11[hwt 0-1]]:[../../../../../../../../../../../BB/../../../../../../../../../../../../../../../../../../../..][../../../../../../../../../../../../../../../../../../../../../../../../../../../../../../../..]
 	Process OMPI jobid: [53672,1] App: 0 Process rank: 12 Bound: socket 0[core 12[hwt 0-1]]:[../../../../../../../../../../../../BB/../../../../../../../../../../../../../../../../../../..][../../../../../../../../../../../../../../../../../../../../../../../../../../../../../../../..]
 	Process OMPI jobid: [53672,1] App: 0 Process rank: 13 Bound: socket 0[core 13[hwt 0-1]]:[../../../../../../../../../../../../../BB/../../../../../../../../../../../../../../../../../..][../../../../../../../../../../../../../../../../../../../../../../../../../../../../../../../..]
 	Process OMPI jobid: [53672,1] App: 0 Process rank: 14 Bound: socket 0[core 14[hwt 0-1]]:[../../../../../../../../../../../../../../BB/../../../../../../../../../../../../../../../../..][../../../../../../../../../../../../../../../../../../../../../../../../../../../../../../../..]
 	Process OMPI jobid: [53672,1] App: 0 Process rank: 15 Bound: socket 0[core 15[hwt 0-1]]:[../../../../../../../../../../../../../../../BB/../../../../../../../../../../../../../../../..][../../../../../../../../../../../../../../../../../../../../../../../../../../../../../../../..]
 	Process OMPI jobid: [53672,1] App: 0 Process rank: 16 Bound: socket 0[core 16[hwt 0-1]]:[../../../../../../../../../../../../../../../../BB/../../../../../../../../../../../../../../..][../../../../../../../../../../../../../../../../../../../../../../../../../../../../../../../..]
 	Process OMPI jobid: [53672,1] App: 0 Process rank: 17 Bound: socket 0[core 17[hwt 0-1]]:[../../../../../../../../../../../../../../../../../BB/../../../../../../../../../../../../../..][../../../../../../../../../../../../../../../../../../../../../../../../../../../../../../../..]
 	Process OMPI jobid: [53672,1] App: 0 Process rank: 18 Bound: socket 0[core 18[hwt 0-1]]:[../../../../../../../../../../../../../../../../../../BB/../../../../../../../../../../../../..][../../../../../../../../../../../../../../../../../../../../../../../../../../../../../../../..]
 	Process OMPI jobid: [53672,1] App: 0 Process rank: 19 Bound: socket 0[core 19[hwt 0-1]]:[../../../../../../../../../../../../../../../../../../../BB/../../../../../../../../../../../..][../../../../../../../../../../../../../../../../../../../../../../../../../../../../../../../..]
 	Process OMPI jobid: [53672,1] App: 0 Process rank: 20 Bound: socket 0[core 20[hwt 0-1]]:[../../../../../../../../../../../../../../../../../../../../BB/../../../../../../../../../../..][../../../../../../../../../../../../../../../../../../../../../../../../../../../../../../../..]
 	Process OMPI jobid: [53672,1] App: 0 Process rank: 21 Bound: socket 0[core 21[hwt 0-1]]:[../../../../../../../../../../../../../../../../../../../../../BB/../../../../../../../../../..][../../../../../../../../../../../../../../../../../../../../../../../../../../../../../../../..]
 	Process OMPI jobid: [53672,1] App: 0 Process rank: 22 Bound: socket 0[core 22[hwt 0-1]]:[../../../../../../../../../../../../../../../../../../../../../../BB/../../../../../../../../..][../../../../../../../../../../../../../../../../../../../../../../../../../../../../../../../..]
 	Process OMPI jobid: [53672,1] App: 0 Process rank: 23 Bound: socket 0[core 23[hwt 0-1]]:[../../../../../../../../../../../../../../../../../../../../../../../BB/../../../../../../../..][../../../../../../../../../../../../../../../../../../../../../../../../../../../../../../../..]
 	Process OMPI jobid: [53672,1] App: 0 Process rank: 24 Bound: socket 0[core 24[hwt 0-1]]:[../../../../../../../../../../../../../../../../../../../../../../../../BB/../../../../../../..][../../../../../../../../../../../../../../../../../../../../../../../../../../../../../../../..]
 	Process OMPI jobid: [53672,1] App: 0 Process rank: 25 Bound: socket 0[core 25[hwt 0-1]]:[../../../../../../../../../../../../../../../../../../../../../../../../../BB/../../../../../..][../../../../../../../../../../../../../../../../../../../../../../../../../../../../../../../..]
 	Process OMPI jobid: [53672,1] App: 0 Process rank: 26 Bound: socket 0[core 26[hwt 0-1]]:[../../../../../../../../../../../../../../../../../../../../../../../../../../BB/../../../../..][../../../../../../../../../../../../../../../../../../../../../../../../../../../../../../../..]
 	Process OMPI jobid: [53672,1] App: 0 Process rank: 27 Bound: socket 0[core 27[hwt 0-1]]:[../../../../../../../../../../../../../../../../../../../../../../../../../../../BB/../../../..][../../../../../../../../../../../../../../../../../../../../../../../../../../../../../../../..]
 	Process OMPI jobid: [53672,1] App: 0 Process rank: 28 Bound: socket 0[core 28[hwt 0-1]]:[../../../../../../../../../../../../../../../../../../../../../../../../../../../../BB/../../..][../../../../../../../../../../../../../../../../../../../../../../../../../../../../../../../..]
 	Process OMPI jobid: [53672,1] App: 0 Process rank: 29 Bound: socket 0[core 29[hwt 0-1]]:[../../../../../../../../../../../../../../../../../../../../../../../../../../../../../BB/../..][../../../../../../../../../../../../../../../../../../../../../../../../../../../../../../../..]
 	Process OMPI jobid: [53672,1] App: 0 Process rank: 30 Bound: socket 0[core 30[hwt 0-1]]:[../../../../../../../../../../../../../../../../../../../../../../../../../../../../../../BB/..][../../../../../../../../../../../../../../../../../../../../../../../../../../../../../../../..]
 	Process OMPI jobid: [53672,1] App: 0 Process rank: 31 Bound: socket 0[core 31[hwt 0-1]]:[../../../../../../../../../../../../../../../../../../../../../../../../../../../../../../../BB][../../../../../../../../../../../../../../../../../../../../../../../../../../../../../../../..]

 =============================================================
[1579601945.849259] [n004:118998:0]         mxm.c:196  MXM  WARN  The 'ulimit -s' on the system is set to 'unlimited'. This may have negative performance implications. Please set the stack size to the default value (10240) 
[1579601945.851365] [n004:118992:0]         mxm.c:196  MXM  WARN  The 'ulimit -s' on the system is set to 'unlimited'. This may have negative performance implications. Please set the stack size to the default value (10240) 
[1579601945.853273] [n004:118994:0]         mxm.c:196  MXM  WARN  The 'ulimit -s' on the system is set to 'unlimited'. This may have negative performance implications. Please set the stack size to the default value (10240) 
[1579601945.853481] [n004:119002:0]         mxm.c:196  MXM  WARN  The 'ulimit -s' on the system is set to 'unlimited'. This may have negative performance implications. Please set the stack size to the default value (10240) 
[1579601945.854016] [n004:118978:0]         mxm.c:196  MXM  WARN  The 'ulimit -s' on the system is set to 'unlimited'. This may have negative performance implications. Please set the stack size to the default value (10240) 
[1579601945.853996] [n004:118985:0]         mxm.c:196  MXM  WARN  The 'ulimit -s' on the system is set to 'unlimited'. This may have negative performance implications. Please set the stack size to the default value (10240) 
[1579601945.854180] [n004:118993:0]         mxm.c:196  MXM  WARN  The 'ulimit -s' on the system is set to 'unlimited'. This may have negative performance implications. Please set the stack size to the default value (10240) 
[1579601945.854337] [n004:118977:0]         mxm.c:196  MXM  WARN  The 'ulimit -s' on the system is set to 'unlimited'. This may have negative performance implications. Please set the stack size to the default value (10240) 
[1579601945.854415] [n004:119001:0]         mxm.c:196  MXM  WARN  The 'ulimit -s' on the system is set to 'unlimited'. This may have negative performance implications. Please set the stack size to the default value (10240) 
[1579601945.854663] [n004:118979:0]         mxm.c:196  MXM  WARN  The 'ulimit -s' on the system is set to 'unlimited'. This may have negative performance implications. Please set the stack size to the default value (10240) 
[1579601945.855967] [n004:118983:0]         mxm.c:196  MXM  WARN  The 'ulimit -s' on the system is set to 'unlimited'. This may have negative performance implications. Please set the stack size to the default value (10240) 
[1579601945.856314] [n004:118986:0]         mxm.c:196  MXM  WARN  The 'ulimit -s' on the system is set to 'unlimited'. This may have negative performance implications. Please set the stack size to the default value (10240) 
[1579601945.857440] [n004:118981:0]         mxm.c:196  MXM  WARN  The 'ulimit -s' on the system is set to 'unlimited'. This may have negative performance implications. Please set the stack size to the default value (10240) 
[1579601945.857548] [n004:118982:0]         mxm.c:196  MXM  WARN  The 'ulimit -s' on the system is set to 'unlimited'. This may have negative performance implications. Please set the stack size to the default value (10240) 
[1579601945.858134] [n004:118991:0]         mxm.c:196  MXM  WARN  The 'ulimit -s' on the system is set to 'unlimited'. This may have negative performance implications. Please set the stack size to the default value (10240) 
[1579601945.858573] [n004:118988:0]         mxm.c:196  MXM  WARN  The 'ulimit -s' on the system is set to 'unlimited'. This may have negative performance implications. Please set the stack size to the default value (10240) 
[1579601945.859233] [n004:118975:0]         mxm.c:196  MXM  WARN  The 'ulimit -s' on the system is set to 'unlimited'. This may have negative performance implications. Please set the stack size to the default value (10240) 
[1579601945.860206] [n004:118996:0]         mxm.c:196  MXM  WARN  The 'ulimit -s' on the system is set to 'unlimited'. This may have negative performance implications. Please set the stack size to the default value (10240) 
[1579601945.860510] [n004:118990:0]         mxm.c:196  MXM  WARN  The 'ulimit -s' on the system is set to 'unlimited'. This may have negative performance implications. Please set the stack size to the default value (10240) 
[1579601945.860664] [n004:118980:0]         mxm.c:196  MXM  WARN  The 'ulimit -s' on the system is set to 'unlimited'. This may have negative performance implications. Please set the stack size to the default value (10240) 
[1579601945.861070] [n004:118989:0]         mxm.c:196  MXM  WARN  The 'ulimit -s' on the system is set to 'unlimited'. This may have negative performance implications. Please set the stack size to the default value (10240) 
[1579601945.861310] [n004:119000:0]         mxm.c:196  MXM  WARN  The 'ulimit -s' on the system is set to 'unlimited'. This may have negative performance implications. Please set the stack size to the default value (10240) 
[1579601945.861361] [n004:118997:0]         mxm.c:196  MXM  WARN  The 'ulimit -s' on the system is set to 'unlimited'. This may have negative performance implications. Please set the stack size to the default value (10240) 
[1579601945.861830] [n004:118995:0]         mxm.c:196  MXM  WARN  The 'ulimit -s' on the system is set to 'unlimited'. This may have negative performance implications. Please set the stack size to the default value (10240) 
[1579601945.862232] [n004:118972:0]         mxm.c:196  MXM  WARN  The 'ulimit -s' on the system is set to 'unlimited'. This may have negative performance implications. Please set the stack size to the default value (10240) 
[1579601945.862266] [n004:118973:0]         mxm.c:196  MXM  WARN  The 'ulimit -s' on the system is set to 'unlimited'. This may have negative performance implications. Please set the stack size to the default value (10240) 
[1579601945.862347] [n004:118971:0]         mxm.c:196  MXM  WARN  The 'ulimit -s' on the system is set to 'unlimited'. This may have negative performance implications. Please set the stack size to the default value (10240) 
[1579601945.862795] [n004:118987:0]         mxm.c:196  MXM  WARN  The 'ulimit -s' on the system is set to 'unlimited'. This may have negative performance implications. Please set the stack size to the default value (10240) 
[1579601945.862907] [n004:118999:0]         mxm.c:196  MXM  WARN  The 'ulimit -s' on the system is set to 'unlimited'. This may have negative performance implications. Please set the stack size to the default value (10240) 
[1579601945.863967] [n004:118976:0]         mxm.c:196  MXM  WARN  The 'ulimit -s' on the system is set to 'unlimited'. This may have negative performance implications. Please set the stack size to the default value (10240) 
[1579601945.864956] [n004:118974:0]         mxm.c:196  MXM  WARN  The 'ulimit -s' on the system is set to 'unlimited'. This may have negative performance implications. Please set the stack size to the default value (10240) 
[1579601945.873565] [n004:118984:0]         mxm.c:196  MXM  WARN  The 'ulimit -s' on the system is set to 'unlimited'. This may have negative performance implications. Please set the stack size to the default value (10240) 
0: 0 

Rank 0 ghostCells: 2312
Rank 1 ghostCells: 1792
Rank 2 ghostCells: 2253
Rank 3 ghostCells: 579
Rank 4 ghostCells: 2027
Rank 5 ghostCells: 2129
Rank 6 ghostCells: 419
Rank 7 ghostCells: 759
Rank 8 ghostCells: 1422
Rank 9 ghostCells: 2051
Rank 10 ghostCells: 1804
Rank 11 ghostCells: 2044
Rank 12 ghostCells: 2172
Rank 13 ghostCells: 2470
Rank 14 ghostCells: 1468
Rank 15 ghostCells: 2074
Rank 16 ghostCells: 1406
Rank 17 ghostCells: 1332
Rank 18 ghostCells: 1203
Rank 19 ghostCells: 753
Rank 20 ghostCells: 1175
Rank 21 ghostCells: 1963
Rank 22 ghostCells: 1922
Rank 23 ghostCells: 1570
Rank 24 ghostCells: 1854
Rank 25 ghostCells: 2005
Rank 26 ghostCells: 2129
Rank 27 ghostCells: 1115
Rank 28 ghostCells: 622
Rank 29 ghostCells: 1520
Rank 30 ghostCells: 2234
Rank 31 ghostCells: 931

Rank 0 numCells: 13981
Rank 1 numCells: 12082
Rank 2 numCells: 13253
Rank 3 numCells: 5221
Rank 4 numCells: 13586
Rank 5 numCells: 13654
Rank 6 numCells: 11514
Rank 7 numCells: 8327
Rank 8 numCells: 12717
Rank 9 numCells: 13940
Rank 10 numCells: 12233
Rank 11 numCells: 12850
Rank 12 numCells: 13021
Rank 13 numCells: 14282
Rank 14 numCells: 12798
Rank 15 numCells: 13405
Rank 16 numCells: 12863
Rank 17 numCells: 13150
Rank 18 numCells: 13055
Rank 19 numCells: 12622
Rank 20 numCells: 12643
Rank 21 numCells: 12970
Rank 22 numCells: 14085
Rank 23 numCells: 13204
Rank 24 numCells: 13703
Rank 25 numCells: 13936
Rank 26 numCells: 13260
Rank 27 numCells: 11614
Rank 28 numCells: 12375
Rank 29 numCells: 13587
Rank 30 numCells: 14144
Rank 31 numCells: 12841

Rank 0 interiorCells: 11669
Rank 1 interiorCells: 10290
Rank 2 interiorCells: 11000
Rank 3 interiorCells: 4642
Rank 4 interiorCells: 11559
Rank 5 interiorCells: 11525
Rank 6 interiorCells: 11095
Rank 7 interiorCells: 7568
Rank 8 interiorCells: 11295
Rank 9 interiorCells: 11889
Rank 10 interiorCells: 10429
Rank 11 interiorCells: 10806
Rank 12 interiorCells: 10849
Rank 13 interiorCells: 11812
Rank 14 interiorCells: 11330
Rank 15 interiorCells: 11331
Rank 16 interiorCells: 11457
Rank 17 interiorCells: 11818
Rank 18 interiorCells: 11852
Rank 19 interiorCells: 11869
Rank 20 interiorCells: 11468
Rank 21 interiorCells: 11007
Rank 22 interiorCells: 12163
Rank 23 interiorCells: 11634
Rank 24 interiorCells: 11849
Rank 25 interiorCells: 11931
Rank 26 interiorCells: 11131
Rank 27 interiorCells: 10499
Rank 28 interiorCells: 11753
Rank 29 interiorCells: 12067
Rank 30 interiorCells: 11910
Rank 31 interiorCells: 11910

MeasComm+1 32: 0.00023028 0.000206041 0.000233231 0.000102201 0.000188391 0.0001705 0.00010103 0.00010964 9.682e-05 0.00013426 0.00015188 0.000195671 0.000205471 0.000226961 0.00011297 0.000206321 9.726e-05 8.33e-05 7.495e-05 6.992e-05 9.121e-05 0.000150251 0.0001608 0.00017158 0.000186381 0.00019907 0.00018524 0.000112241 6.45e-05 0.00014573 0.00017757 0.00012775 
MeasComm+1 32: 0.000232911 0.000211721 0.000230481 0.00010178 0.00018158 0.00016484 0.00010133 0.00010648 0.00010274 0.000133991 0.0001504 0.00018789 0.00021571 0.00022991 0.00011759 0.00019524 9.854e-05 8.4001e-05 7.534e-05 6.8551e-05 8.288e-05 0.00015307 0.00014924 0.00016433 0.00020483 0.000211981 0.00017226 0.00011266 6.757e-05 0.00014775 0.000185171 0.00012546 
MeasComm+1 32: 0.000233221 0.00019815 0.00022329 0.00010037 0.000186041 0.00016785 0.000101091 0.00010546 9.526e-05 0.0001343 0.000146841 0.000189321 0.000212351 0.00022529 0.00011191 0.000199381 9.864e-05 8.4041e-05 7.458e-05 6.919e-05 8.448e-05 0.00016095 0.00015515 0.000158191 0.0001895 0.00017813 0.00017402 0.00011051 6.869e-05 0.00013909 0.000192231 0.000130671 
MeasComm+1 32: 0.000231351 0.00021492 0.00022996 0.00010118 0.000187931 0.00015813 0.00010037 0.00010619 9.123e-05 0.000134051 0.000161831 0.00017843 0.00020354 0.00020043 0.00011408 0.00017617 0.00010328 8.391e-05 7.526e-05 6.943e-05 8.6591e-05 0.00013238 0.000158991 0.00013367 0.000171561 0.000204691 0.00017171 0.00011181 6.3201e-05 0.00010029 0.000182731 7.197e-05 
MeasComm+1 32: 0.00022863 0.00020185 0.00022313 0.00010138 0.00018828 0.00016517 0.00010011 0.00010682 9.294e-05 0.00013437 0.00014576 0.00018957 0.000199271 0.000225571 0.00011232 0.00019232 9.363e-05 8.405e-05 7.471e-05 6.9071e-05 8.3661e-05 0.00015593 0.000157171 0.00016059 0.00017526 0.00019545 0.00017942 0.00011248 6.6581e-05 0.0001514 0.00017783 0.00011844 
MeasComm+1 32: 0.00023113 0.00020859 0.0002281 0.00010139 0.00017473 0.00017435 0.00010019 0.0001071 0.00010449 0.00013403 0.000161501 0.00019764 0.000208501 0.00023267 0.00011325 0.0001928 0.0001056 8.386e-05 7.537e-05 6.905e-05 8.63e-05 0.0001555 0.00015495 0.000159761 0.00019963 0.000197331 0.000185951 0.00011365 7.02e-05 0.00014299 0.00018952 0.000124611 
MeasComm+1 32: 0.00022546 0.00020407 0.00022991 0.00010129 0.00018054 0.00017411 0.0001016 0.000107161 9.66e-05 0.0001342 0.000159221 0.00019048 0.0002096 0.00023258 0.00010629 0.000203491 9.826e-05 8.388e-05 7.515e-05 6.944e-05 9.147e-05 0.000164181 0.000157061 0.00016488 0.00018666 0.00020398 0.00018215 0.000112251 7.461e-05 0.00013364 0.000187961 0.00013709 
MeasComm+1 32: 0.00023028 0.00017157 0.00023056 0.00010109 0.000182241 0.00016276 0.00010104 0.00010638 9.583e-05 0.00013413 0.0001639 0.0002009 0.00019621 0.00022747 0.00011066 0.000204511 0.00010555 8.402e-05 7.517e-05 6.903e-05 8.533e-05 0.00016297 0.000150831 0.00016259 0.00016911 0.00018468 0.00018057 0.000112191 7.077e-05 0.00013378 0.00017353 0.000125941 
MeasComm+1 32: 0.00022966 0.00020761 0.00023373 0.00010078 0.00018031 0.00017257 0.00010153 0.0001061 9.6171e-05 0.00013448 0.0001549 0.00019076 0.00021508 0.000229931 0.000109241 0.00020275 0.00010638 8.415e-05 7.498e-05 6.913e-05 8.3661e-05 0.00015095 0.00014654 0.000159771 0.000203631 0.000204561 0.000187341 0.00011176 6.6561e-05 0.00014112 0.00019515 0.00012414 
MeasComm+1 32: 0.0002331 0.00021088 0.0002294 0.0001009 0.00017552 0.00016408 0.00010136 0.00010622 0.00010603 0.000134581 0.00015092 0.000203041 0.00020581 0.00022887 0.00011384 0.00019384 0.00010291 8.415e-05 7.495e-05 6.888e-05 8.517e-05 0.00016579 0.000153491 0.00015279 0.00021064 0.000210461 0.000191471 0.0001129 6.673e-05 0.00014732 0.00019265 0.00013461 

MeasCopy 32: 0.00010841 8.398e-05 0.00010562 2.719e-05 9.502e-05 9.98e-05 1.965e-05 3.559e-05 6.658e-05 9.621e-05 8.46e-05 9.5901e-05 0.00010181 0.0001159 6.895e-05 9.7341e-05 6.593e-05 6.241e-05 5.642e-05 3.528e-05 5.508e-05 9.206e-05 9.015e-05 7.355e-05 8.705e-05 9.405e-05 9.988e-05 5.223e-05 2.918e-05 7.116e-05 0.00010487 4.367e-05 
MeasCopy 32: 0.00010846 8.4021e-05 0.00010567 2.724e-05 9.508e-05 9.987e-05 1.963e-05 3.553e-05 6.667e-05 9.622e-05 8.453e-05 9.583e-05 0.00010183 0.00011586 6.8901e-05 9.717e-05 6.593e-05 6.245e-05 5.636e-05 3.529e-05 5.508e-05 9.214e-05 9.011e-05 7.364e-05 8.711e-05 9.4e-05 9.9801e-05 5.226e-05 2.918e-05 7.124e-05 0.00010491 4.367e-05 
MeasCopy 32: 0.0001084 8.406e-05 0.00010568 2.722e-05 9.507e-05 9.989e-05 1.969e-05 3.56e-05 6.667e-05 9.616e-05 8.455e-05 9.5871e-05 0.00010185 0.00011586 6.892e-05 9.7201e-05 6.594e-05 6.247e-05 5.641e-05 3.532e-05 5.509e-05 9.202e-05 9.0061e-05 7.357e-05 8.711e-05 9.398e-05 9.981e-05 5.224e-05 2.918e-05 7.1181e-05 0.00010479 4.366e-05 
MeasCopy 32: 0.00010852 8.4061e-05 0.00010569 2.716e-05 9.52e-05 9.987e-05 1.965e-05 3.565e-05 6.669e-05 9.614e-05 8.455e-05 9.597e-05 0.00010189 0.00011588 6.89e-05 9.728e-05 6.596e-05 6.249e-05 5.6401e-05 3.531e-05 5.5071e-05 9.2061e-05 9.011e-05 7.364e-05 8.6991e-05 9.4051e-05 9.9901e-05 5.231e-05 2.92e-05 7.13e-05 0.00010496 4.3691e-05 
MeasCopy 32: 0.00010847 8.406e-05 0.00010558 2.723e-05 9.515e-05 9.974e-05 1.965e-05 3.558e-05 6.667e-05 9.621e-05 8.45e-05 9.588e-05 0.00010182 0.00011582 6.8971e-05 9.733e-05 6.59e-05 6.246e-05 5.64e-05 3.531e-05 5.508e-05 9.202e-05 9.017e-05 7.36e-05 8.704e-05 9.398e-05 9.985e-05 5.231e-05 2.915e-05 7.131e-05 0.00010492 4.362e-05 
MeasCopy 32: 0.000108451 8.3981e-05 0.00010569 2.723e-05 9.5131e-05 9.99e-05 1.965e-05 3.562e-05 6.664e-05 9.619e-05 8.452e-05 9.5811e-05 0.000101851 0.00011591 6.8891e-05 9.731e-05 6.594e-05 6.246e-05 5.637e-05 3.536e-05 5.511e-05 9.209e-05 9.014e-05 7.362e-05 8.7111e-05 9.405e-05 9.988e-05 5.2271e-05 2.921e-05 7.128e-05 0.00010491 4.371e-05 
MeasCopy 32: 0.0001087 8.406e-05 0.00010568 2.725e-05 9.511e-05 9.995e-05 1.966e-05 3.564e-05 6.664e-05 9.6171e-05 8.463e-05 9.593e-05 0.00010193 0.00011592 6.895e-05 9.7261e-05 6.594e-05 6.241e-05 5.64e-05 3.532e-05 5.514e-05 9.213e-05 9.014e-05 7.367e-05 8.698e-05 9.41e-05 9.9811e-05 5.2311e-05 2.917e-05 7.131e-05 0.00010493 4.367e-05 
MeasCopy 32: 0.00010846 8.405e-05 0.00010569 2.72e-05 9.505e-05 9.981e-05 1.967e-05 3.559e-05 6.665e-05 9.617e-05 8.454e-05 9.589e-05 0.000101841 0.00011584 6.893e-05 9.721e-05 6.591e-05 6.248e-05 5.638e-05 3.532e-05 5.512e-05 9.203e-05 9.013e-05 7.354e-05 8.7e-05 9.392e-05 9.9851e-05 5.228e-05 2.917e-05 7.129e-05 0.00010488 4.364e-05 
MeasCopy 32: 0.000108371 8.408e-05 0.00010565 2.722e-05 9.51e-05 9.9831e-05 1.968e-05 3.5571e-05 6.6581e-05 9.615e-05 8.462e-05 9.5941e-05 0.00010184 0.00011591 6.889e-05 9.729e-05 6.5871e-05 6.25e-05 5.64e-05 3.534e-05 5.513e-05 9.2081e-05 9.001e-05 7.36e-05 8.703e-05 9.403e-05 9.984e-05 5.226e-05 2.921e-05 7.129e-05 0.00010491 4.366e-05 
MeasCopy 32: 0.00010841 8.399e-05 0.00010566 2.718e-05 9.512e-05 9.979e-05 1.965e-05 3.557e-05 6.671e-05 9.617e-05 8.455e-05 9.595e-05 0.00010181 0.000115841 6.889e-05 9.7211e-05 6.591e-05 6.248e-05 5.639e-05 3.524e-05 5.506e-05 9.201e-05 9.012e-05 7.359e-05 8.694e-05 9.401e-05 9.982e-05 5.22e-05 2.918e-05 7.125e-05 0.000104851 4.366e-05 

ComTab rank 0: 0 670 557 14 290 218 4 13 0 0 222 44 299 57 0 0 0 0 0 0 0 0 0 0 0 234 0 0 0 0 0 0 
ComTab rank 1: 694 0 469 48 0 0 0 0 0 0 0 0 0 0 0 0 0 0 0 0 0 0 0 0 0 520 229 3 0 0 0 0 
ComTab rank 2: 552 454 0 162 157 316 6 84 0 0 8 254 15 295 0 0 0 0 0 0 0 0 0 13 0 202 0 21 0 0 0 0 
ComTab rank 3: 4 18 143 0 0 0 65 217 0 0 0 5 0 0 0 0 0 0 0 0 0 0 0 0 0 0 45 134 0 0 0 0 
ComTab rank 4: 293 0 157 0 0 754 0 68 0 0 0 0 0 0 0 0 0 0 0 0 0 583 153 208 0 52 0 0 0 0 0 0 
ComTab rank 5: 218 0 316 0 754 0 0 69 0 0 0 0 567 361 0 0 0 0 0 0 0 0 0 0 0 0 0 0 0 0 0 0 
ComTab rank 6: 4 0 4 65 0 0 0 267 11 0 0 25 0 6 36 24 0 0 0 0 0 0 0 0 0 0 0 0 0 0 0 0 
ComTab rank 7: 13 0 84 219 62 37 274 0 0 0 0 3 0 12 0 3 0 0 0 0 0 6 0 117 0 8 0 0 0 0 0 0 
ComTab rank 8: 0 0 0 0 0 0 29 0 0 753 345 374 0 0 0 0 0 0 0 0 0 0 0 0 0 0 0 0 0 0 0 0 
ComTab rank 9: 0 0 0 0 0 0 0 0 755 0 206 246 0 90 707 255 0 0 0 0 0 0 0 0 0 0 0 0 0 0 0 0 
ComTab rank 10: 220 0 8 0 0 0 0 0 349 204 0 626 325 105 0 203 0 0 0 0 0 0 0 0 0 0 0 0 0 0 0 0 
ComTab rank 11: 47 0 250 4 0 0 37 3 410 265 674 0 0 528 0 76 0 0 0 0 0 0 0 0 0 0 0 0 0 0 0 0 
ComTab rank 12: 297 0 15 0 0 585 0 0 0 0 323 0 0 666 0 490 0 0 0 0 0 0 0 0 0 0 0 0 0 0 0 0 
ComTab rank 13: 59 0 295 0 0 352 6 9 0 87 107 532 661 0 110 557 0 0 0 0 0 0 0 0 0 0 0 0 0 0 0 0 
ComTab rank 14: 0 0 0 0 0 0 42 0 0 707 0 0 0 110 0 676 0 0 0 0 0 0 0 0 0 0 0 0 0 0 0 0 
ComTab rank 15: 0 0 0 0 0 0 24 3 0 255 203 76 486 557 684 0 0 0 0 0 0 0 0 0 0 0 0 0 0 0 0 0 
ComTab rank 16: 0 0 0 0 0 0 0 0 0 0 0 0 0 0 0 0 0 723 0 0 0 0 628 55 0 0 0 0 0 0 0 0 
ComTab rank 17: 0 0 0 0 0 0 0 0 0 0 0 0 0 0 0 0 723 0 605 8 0 0 0 0 0 0 0 0 0 0 0 0 
ComTab rank 18: 0 0 0 0 0 0 0 0 0 0 0 0 0 0 0 0 0 605 0 606 0 0 0 0 0 0 0 0 0 0 0 0 
ComTab rank 19: 0 0 0 0 0 0 0 0 0 0 0 0 0 0 0 0 0 10 605 0 0 0 0 144 0 0 0 0 0 0 0 0 
ComTab rank 20: 0 0 0 0 0 0 0 0 0 0 0 0 0 0 0 0 0 0 0 0 0 668 337 174 68 8 0 0 0 0 0 0 
ComTab rank 21: 0 0 0 0 588 0 0 6 0 0 0 0 0 0 0 0 0 0 0 0 674 0 448 344 7 66 0 0 0 0 0 0 
ComTab rank 22: 0 0 0 0 153 0 0 0 0 0 0 0 0 0 0 0 650 0 0 0 309 447 0 513 0 0 0 0 0 0 0 0 
ComTab rank 23: 0 0 13 0 204 0 0 117 0 0 0 0 0 0 0 0 31 0 0 144 152 333 586 0 123 97 0 0 0 0 0 0 
ComTab rank 24: 0 0 0 0 0 0 0 0 0 0 0 0 0 0 0 0 0 0 0 0 57 7 0 123 0 681 477 100 0 0 458 97 
ComTab rank 25: 232 511 204 0 50 0 0 8 0 0 0 0 0 0 0 0 0 0 0 0 9 64 0 99 689 0 329 47 0 0 0 0 
ComTab rank 26: 0 230 0 45 0 0 0 0 0 0 0 0 0 0 0 0 0 0 0 0 0 0 0 0 509 374 0 631 0 257 305 4 
ComTab rank 27: 0 2 21 137 0 0 0 0 0 0 0 0 0 0 0 0 0 0 0 0 0 0 0 0 99 43 573 0 0 0 304 70 
ComTab rank 28: 0 0 0 0 0 0 0 0 0 0 0 0 0 0 0 0 0 0 0 0 0 0 0 0 0 0 0 0 0 485 25 157 
ComTab rank 29: 0 0 0 0 0 0 0 0 0 0 0 0 0 0 0 0 0 0 0 0 0 0 0 0 0 0 259 0 494 0 760 96 
ComTab rank 30: 0 0 0 0 0 0 0 0 0 0 0 0 0 0 0 0 0 0 0 0 0 0 0 0 497 0 300 302 25 752 0 585 
ComTab rank 31: 0 0 0 0 0 0 0 0 0 0 0 0 0 0 0 0 0 0 0 0 0 0 0 0 97 0 4 70 155 93 597 0 

Edge-cut: 33877

Wgt-cut: 4.96232e-07

[1579602033.944074] [n004:118981:0]          mpool.c:38   UCX  WARN  object 0x155544112b60 was not returned to mpool mm_recv_desc
[1579602033.970289] [n004:118972:0]          mpool.c:38   UCX  WARN  object 0x55555b6259c0 was not returned to mpool ucp_am_bufs
[1579602033.973723] [n004:118990:0]          mpool.c:38   UCX  WARN  object 0x1555440fe660 was not returned to mpool mm_recv_desc
[1579602033.974119] [n004:118978:0]          mpool.c:38   UCX  WARN  object 0x55556202be00 was not returned to mpool ucp_am_bufs
[1579602033.977557] [n004:118973:0]          mpool.c:38   UCX  WARN  object 0x555562044600 was not returned to mpool ucp_am_bufs
