 Data for JOB [53118,1] offset 0 Total slots allocated 8

 ========================   JOB MAP   ========================

 Data for node: n004	Num slots: 8	Max slots: 0	Num procs: 8
 	Process OMPI jobid: [53118,1] App: 0 Process rank: 0 Bound: socket 0[core 0[hwt 0-1]]:[BB/../../../../../../../../../../../../../../../../../../../../../../../../../../../../../../..][../../../../../../../../../../../../../../../../../../../../../../../../../../../../../../../..]
 	Process OMPI jobid: [53118,1] App: 0 Process rank: 1 Bound: socket 0[core 1[hwt 0-1]]:[../BB/../../../../../../../../../../../../../../../../../../../../../../../../../../../../../..][../../../../../../../../../../../../../../../../../../../../../../../../../../../../../../../..]
 	Process OMPI jobid: [53118,1] App: 0 Process rank: 2 Bound: socket 0[core 8[hwt 0-1]]:[../../../../../../../../BB/../../../../../../../../../../../../../../../../../../../../../../..][../../../../../../../../../../../../../../../../../../../../../../../../../../../../../../../..]
 	Process OMPI jobid: [53118,1] App: 0 Process rank: 3 Bound: socket 0[core 9[hwt 0-1]]:[../../../../../../../../../BB/../../../../../../../../../../../../../../../../../../../../../..][../../../../../../../../../../../../../../../../../../../../../../../../../../../../../../../..]
 	Process OMPI jobid: [53118,1] App: 0 Process rank: 4 Bound: socket 0[core 16[hwt 0-1]]:[../../../../../../../../../../../../../../../../BB/../../../../../../../../../../../../../../..][../../../../../../../../../../../../../../../../../../../../../../../../../../../../../../../..]
 	Process OMPI jobid: [53118,1] App: 0 Process rank: 5 Bound: socket 0[core 17[hwt 0-1]]:[../../../../../../../../../../../../../../../../../BB/../../../../../../../../../../../../../..][../../../../../../../../../../../../../../../../../../../../../../../../../../../../../../../..]
 	Process OMPI jobid: [53118,1] App: 0 Process rank: 6 Bound: socket 0[core 24[hwt 0-1]]:[../../../../../../../../../../../../../../../../../../../../../../../../BB/../../../../../../..][../../../../../../../../../../../../../../../../../../../../../../../../../../../../../../../..]
 	Process OMPI jobid: [53118,1] App: 0 Process rank: 7 Bound: socket 0[core 25[hwt 0-1]]:[../../../../../../../../../../../../../../../../../../../../../../../../../BB/../../../../../..][../../../../../../../../../../../../../../../../../../../../../../../../../../../../../../../..]

 =============================================================
[1579601792.252387] [n004:118419:0]         mxm.c:196  MXM  WARN  The 'ulimit -s' on the system is set to 'unlimited'. This may have negative performance implications. Please set the stack size to the default value (10240) 
[1579601792.252403] [n004:118420:0]         mxm.c:196  MXM  WARN  The 'ulimit -s' on the system is set to 'unlimited'. This may have negative performance implications. Please set the stack size to the default value (10240) 
[1579601792.252923] [n004:118415:0]         mxm.c:196  MXM  WARN  The 'ulimit -s' on the system is set to 'unlimited'. This may have negative performance implications. Please set the stack size to the default value (10240) 
[1579601792.252907] [n004:118416:0]         mxm.c:196  MXM  WARN  The 'ulimit -s' on the system is set to 'unlimited'. This may have negative performance implications. Please set the stack size to the default value (10240) 
[1579601792.253088] [n004:118417:0]         mxm.c:196  MXM  WARN  The 'ulimit -s' on the system is set to 'unlimited'. This may have negative performance implications. Please set the stack size to the default value (10240) 
[1579601792.253088] [n004:118418:0]         mxm.c:196  MXM  WARN  The 'ulimit -s' on the system is set to 'unlimited'. This may have negative performance implications. Please set the stack size to the default value (10240) 
[1579601792.253579] [n004:118413:0]         mxm.c:196  MXM  WARN  The 'ulimit -s' on the system is set to 'unlimited'. This may have negative performance implications. Please set the stack size to the default value (10240) 
[1579601792.253579] [n004:118414:0]         mxm.c:196  MXM  WARN  The 'ulimit -s' on the system is set to 'unlimited'. This may have negative performance implications. Please set the stack size to the default value (10240) 
0: 0 

Rank 0 ghostCells: 2626
Rank 1 ghostCells: 1160
Rank 2 ghostCells: 2040
Rank 3 ghostCells: 861
Rank 4 ghostCells: 4305
Rank 5 ghostCells: 2155
Rank 6 ghostCells: 3660
Rank 7 ghostCells: 1839

Rank 0 numCells: 49140
Rank 1 numCells: 48216
Rank 2 numCells: 49564
Rank 3 numCells: 47010
Rank 4 numCells: 52127
Rank 5 numCells: 32208
Rank 6 numCells: 48117
Rank 7 numCells: 47671

Rank 0 interiorCells: 46514
Rank 1 interiorCells: 47056
Rank 2 interiorCells: 47524
Rank 3 interiorCells: 46149
Rank 4 interiorCells: 47822
Rank 5 interiorCells: 30053
Rank 6 interiorCells: 44457
Rank 7 interiorCells: 45832

MeasComm+1 8: 0.000209331 0.000144281 0.000141501 9.8741e-05 0.000248421 0.000174901 0.000216331 0.000168511 
MeasComm+1 8: 0.00020789 0.00014671 0.00014109 9.794e-05 0.00024847 0.00017524 0.000217801 0.000169 
MeasComm+1 8: 0.000196831 0.000133561 0.000141561 9.864e-05 0.00024821 0.000173461 0.000216591 0.000170661 
MeasComm+1 8: 0.00021139 0.00016136 0.00014164 9.773e-05 0.000248391 0.00017494 0.00021682 0.000168751 
MeasComm+1 8: 0.000209571 0.000145951 0.000140611 9.2231e-05 0.000247881 0.000165471 0.00021699 0.000166411 
MeasComm+1 8: 0.00019565 0.00013191 0.00014094 9.81e-05 0.00024829 0.00017331 0.00021725 0.00016953 
MeasComm+1 8: 0.00019826 0.00014064 0.00014162 9.777e-05 0.00024824 0.0001749 0.00021762 0.00016852 
MeasComm+1 8: 0.000190451 0.000125 0.000141131 9.78e-05 0.00024838 0.000173201 0.00021746 0.00016963 
MeasComm+1 8: 0.000209541 0.000147111 0.0001411 9.799e-05 0.00024823 0.000174201 0.0002175 0.00017004 
MeasComm+1 8: 0.00019646 0.00012609 0.0001416 9.8131e-05 0.000248511 0.00017493 0.000217741 0.000168771 

MeasCopy 8: 0.000123171 5.435e-05 9.565e-05 4.037e-05 0.00020191 0.00010128 0.00017176 8.605e-05 
MeasCopy 8: 0.00012313 5.436e-05 9.5631e-05 4.032e-05 0.00020177 0.00010119 0.000171641 8.622e-05 
MeasCopy 8: 0.00012307 5.44e-05 9.5651e-05 4.031e-05 0.00020187 0.00010122 0.000171651 8.6181e-05 
MeasCopy 8: 0.00012308 5.44e-05 9.561e-05 4.036e-05 0.00020189 0.00010124 0.000171571 8.613e-05 
MeasCopy 8: 0.000123141 5.438e-05 9.564e-05 4.04e-05 0.00020188 0.00010112 0.00017173 8.615e-05 
MeasCopy 8: 0.00012308 5.438e-05 9.562e-05 4.033e-05 0.000201871 0.00010123 0.00017174 8.624e-05 
MeasCopy 8: 0.00012309 5.434e-05 9.564e-05 4.038e-05 0.000201881 0.00010119 0.00017166 8.613e-05 
MeasCopy 8: 0.000123161 5.437e-05 9.562e-05 4.034e-05 0.000201901 0.00010121 0.000171771 8.624e-05 
MeasCopy 8: 0.000123181 5.436e-05 9.566e-05 4.035e-05 0.00020186 0.00010122 0.00017168 8.624e-05 
MeasCopy 8: 0.00012313 5.43e-05 9.567e-05 4.031e-05 0.000201891 0.000101281 0.00017168 8.618e-05 

ComTab rank 0: 0 1159 285 0 1152 60 0 0 
ComTab rank 1: 1160 0 0 0 0 0 0 0 
ComTab rank 2: 291 0 0 858 277 693 0 0 
ComTab rank 3: 0 0 861 0 0 0 0 0 
ComTab rank 4: 1151 0 277 0 0 1232 1729 0 
ComTab rank 5: 60 0 725 0 1236 0 172 41 
ComTab rank 6: 0 0 0 0 1722 189 0 1779 
ComTab rank 7: 0 0 0 0 0 62 1779 0 

Edge-cut: 11358

Wgt-cut: 5.88806e-08

[1579601869.527140] [n004:118415:0]          mpool.c:38   UCX  WARN  object 0x15554411ee60 was not returned to mpool mm_recv_desc
[1579601869.539006] [n004:118416:0]          mpool.c:38   UCX  WARN  object 0x15554411cde0 was not returned to mpool mm_recv_desc
[1579601869.555882] [n004:118419:0]          mpool.c:38   UCX  WARN  object 0x155544118ce0 was not returned to mpool mm_recv_desc
[1579601869.559714] [n004:118417:0]          mpool.c:38   UCX  WARN  object 0x155544120ee0 was not returned to mpool mm_recv_desc
[1579601869.560103] [n004:118420:0]          mpool.c:38   UCX  WARN  object 0x1555394f8d60 was not returned to mpool mm_recv_desc
[1579601869.561289] [n004:118414:0]          mpool.c:38   UCX  WARN  object 0x155544116c60 was not returned to mpool mm_recv_desc
[1579601869.563367] [n004:118418:0]          mpool.c:38   UCX  WARN  object 0x155544122f60 was not returned to mpool mm_recv_desc
