 Data for JOB [49892,1] offset 0 Total slots allocated 16

 ========================   JOB MAP   ========================

 Data for node: n004	Num slots: 16	Max slots: 0	Num procs: 16
 	Process OMPI jobid: [49892,1] App: 0 Process rank: 0 Bound: socket 1[core 32[hwt 0-1]]:[../../../../../../../../../../../../../../../../../../../../../../../../../../../../../../../..][BB/../../../../../../../../../../../../../../../../../../../../../../../../../../../../../../..]
 	Process OMPI jobid: [49892,1] App: 0 Process rank: 1 Bound: socket 1[core 33[hwt 0-1]]:[../../../../../../../../../../../../../../../../../../../../../../../../../../../../../../../..][../BB/../../../../../../../../../../../../../../../../../../../../../../../../../../../../../..]
 	Process OMPI jobid: [49892,1] App: 0 Process rank: 2 Bound: socket 1[core 34[hwt 0-1]]:[../../../../../../../../../../../../../../../../../../../../../../../../../../../../../../../..][../../BB/../../../../../../../../../../../../../../../../../../../../../../../../../../../../..]
 	Process OMPI jobid: [49892,1] App: 0 Process rank: 3 Bound: socket 1[core 35[hwt 0-1]]:[../../../../../../../../../../../../../../../../../../../../../../../../../../../../../../../..][../../../BB/../../../../../../../../../../../../../../../../../../../../../../../../../../../..]
 	Process OMPI jobid: [49892,1] App: 0 Process rank: 4 Bound: socket 1[core 40[hwt 0-1]]:[../../../../../../../../../../../../../../../../../../../../../../../../../../../../../../../..][../../../../../../../../BB/../../../../../../../../../../../../../../../../../../../../../../..]
 	Process OMPI jobid: [49892,1] App: 0 Process rank: 5 Bound: socket 1[core 41[hwt 0-1]]:[../../../../../../../../../../../../../../../../../../../../../../../../../../../../../../../..][../../../../../../../../../BB/../../../../../../../../../../../../../../../../../../../../../..]
 	Process OMPI jobid: [49892,1] App: 0 Process rank: 6 Bound: socket 1[core 42[hwt 0-1]]:[../../../../../../../../../../../../../../../../../../../../../../../../../../../../../../../..][../../../../../../../../../../BB/../../../../../../../../../../../../../../../../../../../../..]
 	Process OMPI jobid: [49892,1] App: 0 Process rank: 7 Bound: socket 1[core 43[hwt 0-1]]:[../../../../../../../../../../../../../../../../../../../../../../../../../../../../../../../..][../../../../../../../../../../../BB/../../../../../../../../../../../../../../../../../../../..]
 	Process OMPI jobid: [49892,1] App: 0 Process rank: 8 Bound: socket 1[core 48[hwt 0-1]]:[../../../../../../../../../../../../../../../../../../../../../../../../../../../../../../../..][../../../../../../../../../../../../../../../../BB/../../../../../../../../../../../../../../..]
 	Process OMPI jobid: [49892,1] App: 0 Process rank: 9 Bound: socket 1[core 49[hwt 0-1]]:[../../../../../../../../../../../../../../../../../../../../../../../../../../../../../../../..][../../../../../../../../../../../../../../../../../BB/../../../../../../../../../../../../../..]
 	Process OMPI jobid: [49892,1] App: 0 Process rank: 10 Bound: socket 1[core 50[hwt 0-1]]:[../../../../../../../../../../../../../../../../../../../../../../../../../../../../../../../..][../../../../../../../../../../../../../../../../../../BB/../../../../../../../../../../../../..]
 	Process OMPI jobid: [49892,1] App: 0 Process rank: 11 Bound: socket 1[core 51[hwt 0-1]]:[../../../../../../../../../../../../../../../../../../../../../../../../../../../../../../../..][../../../../../../../../../../../../../../../../../../../BB/../../../../../../../../../../../..]
 	Process OMPI jobid: [49892,1] App: 0 Process rank: 12 Bound: socket 1[core 56[hwt 0-1]]:[../../../../../../../../../../../../../../../../../../../../../../../../../../../../../../../..][../../../../../../../../../../../../../../../../../../../../../../../../BB/../../../../../../..]
 	Process OMPI jobid: [49892,1] App: 0 Process rank: 13 Bound: socket 1[core 57[hwt 0-1]]:[../../../../../../../../../../../../../../../../../../../../../../../../../../../../../../../..][../../../../../../../../../../../../../../../../../../../../../../../../../BB/../../../../../..]
 	Process OMPI jobid: [49892,1] App: 0 Process rank: 14 Bound: socket 1[core 58[hwt 0-1]]:[../../../../../../../../../../../../../../../../../../../../../../../../../../../../../../../..][../../../../../../../../../../../../../../../../../../../../../../../../../../BB/../../../../..]
 	Process OMPI jobid: [49892,1] App: 0 Process rank: 15 Bound: socket 1[core 59[hwt 0-1]]:[../../../../../../../../../../../../../../../../../../../../../../../../../../../../../../../..][../../../../../../../../../../../../../../../../../../../../../../../../../../../BB/../../../..]

 =============================================================
[1579600854.546998] [n004:115705:0]         mxm.c:196  MXM  WARN  The 'ulimit -s' on the system is set to 'unlimited'. This may have negative performance implications. Please set the stack size to the default value (10240) 
[1579600854.550068] [n004:115707:0]         mxm.c:196  MXM  WARN  The 'ulimit -s' on the system is set to 'unlimited'. This may have negative performance implications. Please set the stack size to the default value (10240) 
[1579600854.550041] [n004:115708:0]         mxm.c:196  MXM  WARN  The 'ulimit -s' on the system is set to 'unlimited'. This may have negative performance implications. Please set the stack size to the default value (10240) 
[1579600854.550223] [n004:115706:0]         mxm.c:196  MXM  WARN  The 'ulimit -s' on the system is set to 'unlimited'. This may have negative performance implications. Please set the stack size to the default value (10240) 
[1579600854.550256] [n004:115699:0]         mxm.c:196  MXM  WARN  The 'ulimit -s' on the system is set to 'unlimited'. This may have negative performance implications. Please set the stack size to the default value (10240) 
[1579600854.550256] [n004:115700:0]         mxm.c:196  MXM  WARN  The 'ulimit -s' on the system is set to 'unlimited'. This may have negative performance implications. Please set the stack size to the default value (10240) 
[1579600854.550317] [n004:115697:0]         mxm.c:196  MXM  WARN  The 'ulimit -s' on the system is set to 'unlimited'. This may have negative performance implications. Please set the stack size to the default value (10240) 
[1579600854.550299] [n004:115698:0]         mxm.c:196  MXM  WARN  The 'ulimit -s' on the system is set to 'unlimited'. This may have negative performance implications. Please set the stack size to the default value (10240) 
[1579600854.550592] [n004:115710:0]         mxm.c:196  MXM  WARN  The 'ulimit -s' on the system is set to 'unlimited'. This may have negative performance implications. Please set the stack size to the default value (10240) 
[1579600854.550592] [n004:115711:0]         mxm.c:196  MXM  WARN  The 'ulimit -s' on the system is set to 'unlimited'. This may have negative performance implications. Please set the stack size to the default value (10240) 
[1579600854.551856] [n004:115701:0]         mxm.c:196  MXM  WARN  The 'ulimit -s' on the system is set to 'unlimited'. This may have negative performance implications. Please set the stack size to the default value (10240) 
[1579600854.551861] [n004:115702:0]         mxm.c:196  MXM  WARN  The 'ulimit -s' on the system is set to 'unlimited'. This may have negative performance implications. Please set the stack size to the default value (10240) 
[1579600854.551856] [n004:115703:0]         mxm.c:196  MXM  WARN  The 'ulimit -s' on the system is set to 'unlimited'. This may have negative performance implications. Please set the stack size to the default value (10240) 
[1579600854.552010] [n004:115712:0]         mxm.c:196  MXM  WARN  The 'ulimit -s' on the system is set to 'unlimited'. This may have negative performance implications. Please set the stack size to the default value (10240) 
[1579600854.553256] [n004:115709:0]         mxm.c:196  MXM  WARN  The 'ulimit -s' on the system is set to 'unlimited'. This may have negative performance implications. Please set the stack size to the default value (10240) 
[1579600854.554948] [n004:115704:0]         mxm.c:196  MXM  WARN  The 'ulimit -s' on the system is set to 'unlimited'. This may have negative performance implications. Please set the stack size to the default value (10240) 
0: 2 

Rank 0 ghostCells: 2786
Rank 1 ghostCells: 3441
Rank 2 ghostCells: 1210
Rank 3 ghostCells: 2410
Rank 4 ghostCells: 3074
Rank 5 ghostCells: 3988
Rank 6 ghostCells: 4080
Rank 7 ghostCells: 2840
Rank 8 ghostCells: 3114
Rank 9 ghostCells: 2652
Rank 10 ghostCells: 1289
Rank 11 ghostCells: 2485
Rank 12 ghostCells: 1098
Rank 13 ghostCells: 1556
Rank 14 ghostCells: 1665
Rank 15 ghostCells: 850

Rank 0 numCells: 25476
Rank 1 numCells: 27644
Rank 2 numCells: 16685
Rank 3 numCells: 25194
Rank 4 numCells: 25679
Rank 5 numCells: 25527
Rank 6 numCells: 27276
Rank 7 numCells: 27188
Rank 8 numCells: 26515
Rank 9 numCells: 25176
Rank 10 numCells: 24929
Rank 11 numCells: 23612
Rank 12 numCells: 24019
Rank 13 numCells: 25988
Rank 14 numCells: 20028
Rank 15 numCells: 23009

Rank 0 interiorCells: 22690
Rank 1 interiorCells: 24203
Rank 2 interiorCells: 15475
Rank 3 interiorCells: 22784
Rank 4 interiorCells: 22605
Rank 5 interiorCells: 21539
Rank 6 interiorCells: 23196
Rank 7 interiorCells: 24348
Rank 8 interiorCells: 23401
Rank 9 interiorCells: 22524
Rank 10 interiorCells: 23640
Rank 11 interiorCells: 21127
Rank 12 interiorCells: 22921
Rank 13 interiorCells: 24432
Rank 14 interiorCells: 18363
Rank 15 interiorCells: 22159

MeasComm+1 16: 0.000181451 0.00022429 0.00011783 0.00017817 0.00019598 0.000234391 0.000231011 0.00017439 0.000199711 0.0001599 0.00010835 0.00014095 8.616e-05 0.00010904 0.00011603 0.00013711 
MeasComm+1 16: 0.00018196 0.00022488 0.00011763 0.00017462 0.00019459 0.0002338 0.00023028 0.000176721 0.00019946 0.00015932 0.00010956 0.00014168 8.664e-05 0.0001086 0.00011546 0.00013744 
MeasComm+1 16: 0.00018203 0.000224761 0.00011704 0.00017616 0.00019614 0.00023235 0.00023163 0.000175021 0.00019996 0.00015953 0.00010879 0.00014304 8.608e-05 0.00010845 0.00011543 0.00013547 
MeasComm+1 16: 0.00018162 0.0002244 0.00011594 0.000175271 0.00019505 0.00023235 0.00023076 0.00017466 0.00019951 0.0001598 0.00010922 0.00014101 8.689e-05 0.00010854 0.00011614 0.00013657 
MeasComm+1 16: 0.00018054 0.00022329 0.00011628 0.00017706 0.00019487 0.00023421 0.00023172 0.00017409 0.0001986 0.00015938 0.000108331 0.00014252 8.624e-05 0.00010839 0.00011531 0.00013328 
MeasComm+1 16: 0.00018146 0.0002236 0.0001172 0.00017704 0.000193511 0.00023342 0.00023114 0.00017657 0.00019997 0.00015936 0.00011056 0.00014136 8.672e-05 0.0001086 0.00011458 0.00013774 
MeasComm+1 16: 0.00018149 0.00022378 0.00011681 0.00017629 0.00019518 0.000233801 0.00023064 0.000176381 0.00019871 0.00015974 0.00011098 0.00014287 7.927e-05 0.000109 0.00011591 0.00013602 
MeasComm+1 16: 0.00018131 0.00022452 0.00011696 0.0001737 0.00019689 0.00023421 0.00023085 0.00017638 0.00019976 0.00015975 0.00011167 0.0001413 8.586e-05 0.00010887 0.00011579 0.00013722 
MeasComm+1 16: 0.00018117 0.00022401 0.00011463 0.00017761 0.00019592 0.00023297 0.000230971 0.00017828 0.00019904 0.00015975 0.00010868 0.000141511 8.61e-05 0.0001084 0.00011458 0.00013684 
MeasComm+1 16: 0.00018222 0.00022341 0.0001165 0.00017484 0.00019461 0.00023368 0.00023142 0.00017588 0.00019899 0.00015994 0.00010507 0.0001431 7.762e-05 0.00010829 0.00011614 0.00013484 

MeasCopy 16: 0.0001306 0.00016132 5.667e-05 0.00011307 0.00014418 0.00018689 0.0001914 0.00013317 0.000145981 0.00012447 6.04e-05 0.000116491 5.1471e-05 7.294e-05 7.799e-05 3.991e-05 
MeasCopy 16: 0.00013059 0.00016132 5.671e-05 0.00011307 0.00014405 0.00018684 0.00019134 0.00013314 0.00014594 0.00012434 6.039e-05 0.00011649 5.149e-05 7.296e-05 7.807e-05 3.994e-05 
MeasCopy 16: 0.0001306 0.00016134 5.675e-05 0.000113 0.00014409 0.000187 0.00019136 0.00013309 0.00014606 0.00012443 6.04e-05 0.00011653 5.148e-05 7.293e-05 7.803e-05 3.99e-05 
MeasCopy 16: 0.0001306 0.00016133 5.671e-05 0.00011296 0.00014417 0.00018686 0.0001913 0.00013315 0.00014601 0.00012437 6.045e-05 0.00011655 5.147e-05 7.295e-05 7.806e-05 3.992e-05 
MeasCopy 16: 0.00013058 0.00016131 5.667e-05 0.00011293 0.00014415 0.00018691 0.0001913 0.000133121 0.00014595 0.00012445 6.042e-05 0.00011644 5.15e-05 7.2891e-05 7.805e-05 3.993e-05 
MeasCopy 16: 0.00013057 0.00016136 5.667e-05 0.00011305 0.00014412 0.000186941 0.00019138 0.00013322 0.000146 0.00012439 6.039e-05 0.0001165 5.145e-05 7.291e-05 7.807e-05 3.993e-05 
MeasCopy 16: 0.00013064 0.0001614 5.675e-05 0.00011305 0.00014416 0.00018696 0.00019138 0.00013314 0.00014599 0.00012434 6.041e-05 0.00011652 5.143e-05 7.298e-05 7.805e-05 3.993e-05 
MeasCopy 16: 0.00013059 0.00016131 5.671e-05 0.00011307 0.00014408 0.00018705 0.00019138 0.00013313 0.00014604 0.00012443 6.045e-05 0.00011649 5.148e-05 7.297e-05 7.801e-05 3.994e-05 
MeasCopy 16: 0.00013063 0.00016133 5.67e-05 0.00011304 0.00014403 0.000187 0.00019138 0.00013312 0.000146 0.00012445 6.034e-05 0.00011649 5.149e-05 7.292e-05 7.807e-05 3.989e-05 
MeasCopy 16: 0.00013058 0.00016123 5.667e-05 0.00011303 0.00014409 0.0001869 0.00019137 0.00013318 0.00014603 0.00012445 6.043e-05 0.000116501 5.148e-05 7.3e-05 7.804e-05 3.992e-05 

ComTab rank 0: 0 974 0 227 564 0 0 0 1012 1 0 69 0 0 63 65 
ComTab rank 1: 972 0 0 960 673 772 0 0 0 0 0 58 0 0 1 196 
ComTab rank 2: 0 0 0 771 0 0 0 0 55 0 0 0 15 364 83 0 
ComTab rank 3: 239 976 763 0 0 0 0 0 54 0 0 0 0 329 160 70 
ComTab rank 4: 567 693 0 0 0 1100 196 713 0 0 0 0 0 0 0 79 
ComTab rank 5: 0 771 0 0 1117 0 2049 233 0 0 0 0 0 0 0 13 
ComTab rank 6: 0 0 0 0 210 2063 0 1903 0 0 0 0 0 0 0 58 
ComTab rank 7: 0 0 0 0 717 249 1944 0 0 0 0 0 0 0 0 38 
ComTab rank 8: 1000 0 225 158 0 0 0 0 0 1265 0 396 0 0 187 0 
ComTab rank 9: 1 0 0 0 0 0 0 0 1422 0 704 669 0 0 0 0 
ComTab rank 10: 0 0 0 0 0 0 0 0 0 704 0 621 0 0 0 0 
ComTab rank 11: 71 113 0 0 0 0 0 0 521 1087 731 0 0 0 0 170 
ComTab rank 12: 0 0 14 0 0 0 0 0 0 0 0 0 0 692 392 0 
ComTab rank 13: 0 0 409 329 0 0 0 0 0 0 0 0 690 0 170 0 
ComTab rank 14: 98 1 167 263 0 0 0 0 260 0 0 0 533 315 0 132 
ComTab rank 15: 38 282 0 107 79 21 93 25 0 0 0 168 0 0 126 0 

Edge-cut: 27253

Wgt-cut: 6.45404e-08

[1579600899.703109] [n004:115699:0]          mpool.c:38   UCX  WARN  object 0x155544116c60 was not returned to mpool mm_recv_desc
[1579600899.756939] [n004:115705:0]          mpool.c:38   UCX  WARN  object 0x1555394f2be0 was not returned to mpool mm_recv_desc
[1579600899.758211] [n004:115701:0]          mpool.c:38   UCX  WARN  object 0x155544110ae0 was not returned to mpool mm_recv_desc
[1579600899.768147] [n004:115698:0]          mpool.c:38   UCX  WARN  object 0x55555b59cac0 was not returned to mpool ucp_am_bufs
