 Data for JOB [44790,1] offset 0 Total slots allocated 2

 ========================   JOB MAP   ========================

 Data for node: n001	Num slots: 2	Max slots: 0	Num procs: 2
 	Process OMPI jobid: [44790,1] App: 0 Process rank: 0 Bound: socket 1[core 33[hwt 0-1]]:[../../../../../../../../../../../../../../../../../../../../../../../../../../../../../../../..][../BB/../../../../../../../../../../../../../../../../../../../../../../../../../../../../../..]
 	Process OMPI jobid: [44790,1] App: 0 Process rank: 1 Bound: socket 0[core 18[hwt 0-1]]:[../../../../../../../../../../../../../../../../../../BB/../../../../../../../../../../../../..][../../../../../../../../../../../../../../../../../../../../../../../../../../../../../../../..]

 =============================================================
dune-size 1 5.03578e-06 5.02808e-06 
dune-size 2 4.84679e-06 4.85099e-06 
dune-size 4 4.96899e-06 4.96809e-06 
dune-size 8 5.18119e-06 5.18119e-06 
dune-size 16 5.63939e-06 5.64269e-06 
dune-size 32 6.45018e-06 6.44698e-06 
dune-size 64 8.10978e-06 8.10198e-06 
dune-size 128 1.20681e-05 1.20714e-05 
dune-size 256 1.86728e-05 1.86654e-05 
dune-size 512 3.26073e-05 3.26021e-05 
dune-size 1024 0.000105769 0.00010578 
dune-size 2048 0.000196012 0.000196018 
dune-size 4096 0.000375226 0.000375204 
dune-size 8192 0.000656745 0.000656717 
dune-size 16384 0.000946706 0.000946495 
dune-size 32768 0.00167531 0.00167518 
dune-size 65536 0.00332031 0.00331869 
dune-size 131072 0.00677671 0.00678745 
dune-size 262144 0.0131966 0.0131878 
dune-size 524288 0.0257512 0.0257452 
dune-size 1048576 0.0513841 0.0513377 
