 Data for JOB [42483,1] offset 0 Total slots allocated 32

 ========================   JOB MAP   ========================

 Data for node: srl-adm2	Num slots: 32	Max slots: 0	Num procs: 32
 	Process OMPI jobid: [42483,1] App: 0 Process rank: 0 Bound: socket 0[core 0[hwt 0-1]]:[BB/../../../../../../../../../../../../../../..][../../../../../../../../../../../../../../../..]
 	Process OMPI jobid: [42483,1] App: 0 Process rank: 1 Bound: socket 0[core 1[hwt 0-1]]:[../BB/../../../../../../../../../../../../../..][../../../../../../../../../../../../../../../..]
 	Process OMPI jobid: [42483,1] App: 0 Process rank: 2 Bound: socket 0[core 2[hwt 0-1]]:[../../BB/../../../../../../../../../../../../..][../../../../../../../../../../../../../../../..]
 	Process OMPI jobid: [42483,1] App: 0 Process rank: 3 Bound: socket 0[core 3[hwt 0-1]]:[../../../BB/../../../../../../../../../../../..][../../../../../../../../../../../../../../../..]
 	Process OMPI jobid: [42483,1] App: 0 Process rank: 4 Bound: socket 0[core 4[hwt 0-1]]:[../../../../BB/../../../../../../../../../../..][../../../../../../../../../../../../../../../..]
 	Process OMPI jobid: [42483,1] App: 0 Process rank: 5 Bound: socket 0[core 5[hwt 0-1]]:[../../../../../BB/../../../../../../../../../..][../../../../../../../../../../../../../../../..]
 	Process OMPI jobid: [42483,1] App: 0 Process rank: 6 Bound: socket 0[core 6[hwt 0-1]]:[../../../../../../BB/../../../../../../../../..][../../../../../../../../../../../../../../../..]
 	Process OMPI jobid: [42483,1] App: 0 Process rank: 7 Bound: socket 0[core 7[hwt 0-1]]:[../../../../../../../BB/../../../../../../../..][../../../../../../../../../../../../../../../..]
 	Process OMPI jobid: [42483,1] App: 0 Process rank: 8 Bound: socket 0[core 8[hwt 0-1]]:[../../../../../../../../BB/../../../../../../..][../../../../../../../../../../../../../../../..]
 	Process OMPI jobid: [42483,1] App: 0 Process rank: 9 Bound: socket 0[core 9[hwt 0-1]]:[../../../../../../../../../BB/../../../../../..][../../../../../../../../../../../../../../../..]
 	Process OMPI jobid: [42483,1] App: 0 Process rank: 10 Bound: socket 0[core 10[hwt 0-1]]:[../../../../../../../../../../BB/../../../../..][../../../../../../../../../../../../../../../..]
 	Process OMPI jobid: [42483,1] App: 0 Process rank: 11 Bound: socket 0[core 11[hwt 0-1]]:[../../../../../../../../../../../BB/../../../..][../../../../../../../../../../../../../../../..]
 	Process OMPI jobid: [42483,1] App: 0 Process rank: 12 Bound: socket 0[core 12[hwt 0-1]]:[../../../../../../../../../../../../BB/../../..][../../../../../../../../../../../../../../../..]
 	Process OMPI jobid: [42483,1] App: 0 Process rank: 13 Bound: socket 0[core 13[hwt 0-1]]:[../../../../../../../../../../../../../BB/../..][../../../../../../../../../../../../../../../..]
 	Process OMPI jobid: [42483,1] App: 0 Process rank: 14 Bound: socket 0[core 14[hwt 0-1]]:[../../../../../../../../../../../../../../BB/..][../../../../../../../../../../../../../../../..]
 	Process OMPI jobid: [42483,1] App: 0 Process rank: 15 Bound: socket 0[core 15[hwt 0-1]]:[../../../../../../../../../../../../../../../BB][../../../../../../../../../../../../../../../..]
 	Process OMPI jobid: [42483,1] App: 0 Process rank: 16 Bound: socket 1[core 16[hwt 0-1]]:[../../../../../../../../../../../../../../../..][BB/../../../../../../../../../../../../../../..]
 	Process OMPI jobid: [42483,1] App: 0 Process rank: 17 Bound: socket 1[core 17[hwt 0-1]]:[../../../../../../../../../../../../../../../..][../BB/../../../../../../../../../../../../../..]
 	Process OMPI jobid: [42483,1] App: 0 Process rank: 18 Bound: socket 1[core 18[hwt 0-1]]:[../../../../../../../../../../../../../../../..][../../BB/../../../../../../../../../../../../..]
 	Process OMPI jobid: [42483,1] App: 0 Process rank: 19 Bound: socket 1[core 19[hwt 0-1]]:[../../../../../../../../../../../../../../../..][../../../BB/../../../../../../../../../../../..]
 	Process OMPI jobid: [42483,1] App: 0 Process rank: 20 Bound: socket 1[core 20[hwt 0-1]]:[../../../../../../../../../../../../../../../..][../../../../BB/../../../../../../../../../../..]
 	Process OMPI jobid: [42483,1] App: 0 Process rank: 21 Bound: socket 1[core 21[hwt 0-1]]:[../../../../../../../../../../../../../../../..][../../../../../BB/../../../../../../../../../..]
 	Process OMPI jobid: [42483,1] App: 0 Process rank: 22 Bound: socket 1[core 22[hwt 0-1]]:[../../../../../../../../../../../../../../../..][../../../../../../BB/../../../../../../../../..]
 	Process OMPI jobid: [42483,1] App: 0 Process rank: 23 Bound: socket 1[core 23[hwt 0-1]]:[../../../../../../../../../../../../../../../..][../../../../../../../BB/../../../../../../../..]
 	Process OMPI jobid: [42483,1] App: 0 Process rank: 24 Bound: socket 1[core 24[hwt 0-1]]:[../../../../../../../../../../../../../../../..][../../../../../../../../BB/../../../../../../..]
 	Process OMPI jobid: [42483,1] App: 0 Process rank: 25 Bound: socket 1[core 25[hwt 0-1]]:[../../../../../../../../../../../../../../../..][../../../../../../../../../BB/../../../../../..]
 	Process OMPI jobid: [42483,1] App: 0 Process rank: 26 Bound: socket 1[core 26[hwt 0-1]]:[../../../../../../../../../../../../../../../..][../../../../../../../../../../BB/../../../../..]
 	Process OMPI jobid: [42483,1] App: 0 Process rank: 27 Bound: socket 1[core 27[hwt 0-1]]:[../../../../../../../../../../../../../../../..][../../../../../../../../../../../BB/../../../..]
 	Process OMPI jobid: [42483,1] App: 0 Process rank: 28 Bound: socket 1[core 28[hwt 0-1]]:[../../../../../../../../../../../../../../../..][../../../../../../../../../../../../BB/../../..]
 	Process OMPI jobid: [42483,1] App: 0 Process rank: 29 Bound: socket 1[core 29[hwt 0-1]]:[../../../../../../../../../../../../../../../..][../../../../../../../../../../../../../BB/../..]
 	Process OMPI jobid: [42483,1] App: 0 Process rank: 30 Bound: socket 1[core 30[hwt 0-1]]:[../../../../../../../../../../../../../../../..][../../../../../../../../../../../../../../BB/..]
 	Process OMPI jobid: [42483,1] App: 0 Process rank: 31 Bound: socket 1[core 31[hwt 0-1]]:[../../../../../../../../../../../../../../../..][../../../../../../../../../../../../../../../BB]

 =============================================================
[1578561825.514519] [srl-adm2:58275:0]         mxm.c:196  MXM  WARN  The 'ulimit -s' on the system is set to 'unlimited'. This may have negative performance implications. Please set the stack size to the default value (10240) 
[1578561825.514640] [srl-adm2:58289:0]         mxm.c:196  MXM  WARN  The 'ulimit -s' on the system is set to 'unlimited'. This may have negative performance implications. Please set the stack size to the default value (10240) 
[1578561825.515919] [srl-adm2:58276:0]         mxm.c:196  MXM  WARN  The 'ulimit -s' on the system is set to 'unlimited'. This may have negative performance implications. Please set the stack size to the default value (10240) 
[1578561825.515936] [srl-adm2:58264:0]         mxm.c:196  MXM  WARN  The 'ulimit -s' on the system is set to 'unlimited'. This may have negative performance implications. Please set the stack size to the default value (10240) 
[1578561825.516288] [srl-adm2:58269:0]         mxm.c:196  MXM  WARN  The 'ulimit -s' on the system is set to 'unlimited'. This may have negative performance implications. Please set the stack size to the default value (10240) 
[1578561825.516515] [srl-adm2:58286:0]         mxm.c:196  MXM  WARN  The 'ulimit -s' on the system is set to 'unlimited'. This may have negative performance implications. Please set the stack size to the default value (10240) 
[1578561825.519116] [srl-adm2:58285:0]         mxm.c:196  MXM  WARN  The 'ulimit -s' on the system is set to 'unlimited'. This may have negative performance implications. Please set the stack size to the default value (10240) 
[1578561825.520226] [srl-adm2:58274:0]         mxm.c:196  MXM  WARN  The 'ulimit -s' on the system is set to 'unlimited'. This may have negative performance implications. Please set the stack size to the default value (10240) 
[1578561825.520710] [srl-adm2:58282:0]         mxm.c:196  MXM  WARN  The 'ulimit -s' on the system is set to 'unlimited'. This may have negative performance implications. Please set the stack size to the default value (10240) 
[1578561825.521065] [srl-adm2:58271:0]         mxm.c:196  MXM  WARN  The 'ulimit -s' on the system is set to 'unlimited'. This may have negative performance implications. Please set the stack size to the default value (10240) 
[1578561825.521833] [srl-adm2:58292:0]         mxm.c:196  MXM  WARN  The 'ulimit -s' on the system is set to 'unlimited'. This may have negative performance implications. Please set the stack size to the default value (10240) 
[1578561825.522428] [srl-adm2:58280:0]         mxm.c:196  MXM  WARN  The 'ulimit -s' on the system is set to 'unlimited'. This may have negative performance implications. Please set the stack size to the default value (10240) 
[1578561825.523414] [srl-adm2:58290:0]         mxm.c:196  MXM  WARN  The 'ulimit -s' on the system is set to 'unlimited'. This may have negative performance implications. Please set the stack size to the default value (10240) 
[1578561825.524140] [srl-adm2:58265:0]         mxm.c:196  MXM  WARN  The 'ulimit -s' on the system is set to 'unlimited'. This may have negative performance implications. Please set the stack size to the default value (10240) 
[1578561825.524137] [srl-adm2:58281:0]         mxm.c:196  MXM  WARN  The 'ulimit -s' on the system is set to 'unlimited'. This may have negative performance implications. Please set the stack size to the default value (10240) 
[1578561825.524298] [srl-adm2:58267:0]         mxm.c:196  MXM  WARN  The 'ulimit -s' on the system is set to 'unlimited'. This may have negative performance implications. Please set the stack size to the default value (10240) 
[1578561825.524575] [srl-adm2:58273:0]         mxm.c:196  MXM  WARN  The 'ulimit -s' on the system is set to 'unlimited'. This may have negative performance implications. Please set the stack size to the default value (10240) 
[1578561825.525293] [srl-adm2:58283:0]         mxm.c:196  MXM  WARN  The 'ulimit -s' on the system is set to 'unlimited'. This may have negative performance implications. Please set the stack size to the default value (10240) 
[1578561825.525931] [srl-adm2:58284:0]         mxm.c:196  MXM  WARN  The 'ulimit -s' on the system is set to 'unlimited'. This may have negative performance implications. Please set the stack size to the default value (10240) 
[1578561825.526018] [srl-adm2:58288:0]         mxm.c:196  MXM  WARN  The 'ulimit -s' on the system is set to 'unlimited'. This may have negative performance implications. Please set the stack size to the default value (10240) 
[1578561825.526123] [srl-adm2:58268:0]         mxm.c:196  MXM  WARN  The 'ulimit -s' on the system is set to 'unlimited'. This may have negative performance implications. Please set the stack size to the default value (10240) 
[1578561825.526236] [srl-adm2:58263:0]         mxm.c:196  MXM  WARN  The 'ulimit -s' on the system is set to 'unlimited'. This may have negative performance implications. Please set the stack size to the default value (10240) 
[1578561825.526475] [srl-adm2:58266:0]         mxm.c:196  MXM  WARN  The 'ulimit -s' on the system is set to 'unlimited'. This may have negative performance implications. Please set the stack size to the default value (10240) 
[1578561825.526697] [srl-adm2:58295:0]         mxm.c:196  MXM  WARN  The 'ulimit -s' on the system is set to 'unlimited'. This may have negative performance implications. Please set the stack size to the default value (10240) 
[1578561825.528213] [srl-adm2:58277:0]         mxm.c:196  MXM  WARN  The 'ulimit -s' on the system is set to 'unlimited'. This may have negative performance implications. Please set the stack size to the default value (10240) 
[1578561825.528661] [srl-adm2:58287:0]         mxm.c:196  MXM  WARN  The 'ulimit -s' on the system is set to 'unlimited'. This may have negative performance implications. Please set the stack size to the default value (10240) 
[1578561825.528677] [srl-adm2:58293:0]         mxm.c:196  MXM  WARN  The 'ulimit -s' on the system is set to 'unlimited'. This may have negative performance implications. Please set the stack size to the default value (10240) 
[1578561825.529622] [srl-adm2:58270:0]         mxm.c:196  MXM  WARN  The 'ulimit -s' on the system is set to 'unlimited'. This may have negative performance implications. Please set the stack size to the default value (10240) 
[1578561825.529592] [srl-adm2:58291:0]         mxm.c:196  MXM  WARN  The 'ulimit -s' on the system is set to 'unlimited'. This may have negative performance implications. Please set the stack size to the default value (10240) 
[1578561825.529669] [srl-adm2:58272:0]         mxm.c:196  MXM  WARN  The 'ulimit -s' on the system is set to 'unlimited'. This may have negative performance implications. Please set the stack size to the default value (10240) 
[1578561825.529694] [srl-adm2:58294:0]         mxm.c:196  MXM  WARN  The 'ulimit -s' on the system is set to 'unlimited'. This may have negative performance implications. Please set the stack size to the default value (10240) 
[1578561825.529809] [srl-adm2:58278:0]         mxm.c:196  MXM  WARN  The 'ulimit -s' on the system is set to 'unlimited'. This may have negative performance implications. Please set the stack size to the default value (10240) 
0: 4 

Rank 0 ghostCells: 3519
Rank 1 ghostCells: 3767
Rank 2 ghostCells: 2768
Rank 3 ghostCells: 3369
Rank 4 ghostCells: 3671
Rank 5 ghostCells: 4880
Rank 6 ghostCells: 8107
Rank 7 ghostCells: 8422
Rank 8 ghostCells: 3404
Rank 9 ghostCells: 2627
Rank 10 ghostCells: 3591
Rank 11 ghostCells: 2463
Rank 12 ghostCells: 10067
Rank 13 ghostCells: 7825
Rank 14 ghostCells: 2169
Rank 15 ghostCells: 1444
Rank 16 ghostCells: 5235
Rank 17 ghostCells: 10747
Rank 18 ghostCells: 2532
Rank 19 ghostCells: 5314
Rank 20 ghostCells: 2973
Rank 21 ghostCells: 3905
Rank 22 ghostCells: 3872
Rank 23 ghostCells: 2756
Rank 24 ghostCells: 1092
Rank 25 ghostCells: 2506
Rank 26 ghostCells: 2857
Rank 27 ghostCells: 2019
Rank 28 ghostCells: 1486
Rank 29 ghostCells: 1534
Rank 30 ghostCells: 2300
Rank 31 ghostCells: 3599

Rank 0 numCells: 15611
Rank 1 numCells: 15528
Rank 2 numCells: 14572
Rank 3 numCells: 14090
Rank 4 numCells: 15887
Rank 5 numCells: 16799
Rank 6 numCells: 20039
Rank 7 numCells: 20015
Rank 8 numCells: 14587
Rank 9 numCells: 14833
Rank 10 numCells: 14000
Rank 11 numCells: 14573
Rank 12 numCells: 22284
Rank 13 numCells: 16568
Rank 14 numCells: 9083
Rank 15 numCells: 10042
Rank 16 numCells: 17033
Rank 17 numCells: 21691
Rank 18 numCells: 14710
Rank 19 numCells: 16960
Rank 20 numCells: 15145
Rank 21 numCells: 15683
Rank 22 numCells: 15761
Rank 23 numCells: 14637
Rank 24 numCells: 13182
Rank 25 numCells: 13303
Rank 26 numCells: 15023
Rank 27 numCells: 5531
Rank 28 numCells: 12737
Rank 29 numCells: 12438
Rank 30 numCells: 14069
Rank 31 numCells: 15813

Rank 0 interiorCells: 12092
Rank 1 interiorCells: 11761
Rank 2 interiorCells: 11804
Rank 3 interiorCells: 10721
Rank 4 interiorCells: 12216
Rank 5 interiorCells: 11919
Rank 6 interiorCells: 11932
Rank 7 interiorCells: 11593
Rank 8 interiorCells: 11183
Rank 9 interiorCells: 12206
Rank 10 interiorCells: 10409
Rank 11 interiorCells: 12110
Rank 12 interiorCells: 12217
Rank 13 interiorCells: 8743
Rank 14 interiorCells: 6914
Rank 15 interiorCells: 8598
Rank 16 interiorCells: 11798
Rank 17 interiorCells: 10944
Rank 18 interiorCells: 12178
Rank 19 interiorCells: 11646
Rank 20 interiorCells: 12172
Rank 21 interiorCells: 11778
Rank 22 interiorCells: 11889
Rank 23 interiorCells: 11881
Rank 24 interiorCells: 12090
Rank 25 interiorCells: 10797
Rank 26 interiorCells: 12166
Rank 27 interiorCells: 3512
Rank 28 interiorCells: 11251
Rank 29 interiorCells: 10904
Rank 30 interiorCells: 11769
Rank 31 interiorCells: 12214

MeasComm+1 32: 0.000322869 0.000394256 0.000288358 0.00031072 0.000380062 0.000435025 0.000500542 0.000470473 0.000350796 0.000351818 0.000358427 0.000248196 0.000552867 0.000436646 0.00030506 0.000135057 0.00040035 0.000605155 0.00034119 0.000480611 0.000309044 0.000353748 0.000381816 0.000362747 0.000280443 0.000338774 0.000206001 0.000289654 0.000147872 0.000357844 0.000167394 0.000227763 
MeasComm+1 32: 0.000318417 0.000390319 0.000286243 0.000283356 0.000377756 0.000443281 0.000498234 0.000471599 0.000351977 0.00030027 0.000360509 0.000177022 0.000551711 0.000444151 0.000304842 0.000136064 0.000399278 0.000605256 0.000342777 0.000393802 0.000309476 0.000362724 0.000382489 0.000361544 0.0002785 0.000342256 0.000210641 0.00023278 0.000147548 0.000353772 0.000166855 0.000227009 
MeasComm+1 32: 0.000317422 0.000381786 0.000287207 0.000309484 0.000378164 0.000438653 0.000495144 0.000470694 0.00035577 0.000351362 0.000351995 0.000245619 0.000551233 0.000441347 0.00030533 0.000156518 0.000396981 0.000602104 0.000340952 0.000499515 0.000308875 0.000357804 0.000381592 0.000357989 0.000278842 0.00034338 0.000272557 0.000283991 0.000150318 0.000353651 0.000191275 0.000253143 
MeasComm+1 32: 0.00031951 0.000391353 0.000286229 0.000308499 0.000378841 0.000412606 0.000495403 0.000469265 0.000352128 0.000351123 0.000358341 0.000248652 0.000548911 0.000438588 0.000303959 0.000155352 0.000392534 0.000605308 0.000342417 0.000476088 0.000307794 0.000362987 0.000379512 0.000362383 0.000278183 0.00034341 0.000259158 0.000283482 0.000149374 0.000353859 0.000179358 0.000235203 
MeasComm+1 32: 0.000320345 0.000382489 0.000282738 0.00030945 0.000378571 0.000442672 0.000497987 0.000470018 0.000356863 0.000352031 0.000291261 0.00019372 0.000550967 0.000442697 0.000304647 0.000134946 0.000400247 0.000603765 0.000339447 0.000501878 0.000308836 0.000362054 0.000380548 0.00036101 0.000277935 0.000341861 0.000206877 0.000254884 0.000145901 0.000354237 0.000167931 0.000227291 
MeasComm+1 32: 0.000320429 0.000388913 0.000287118 0.000309673 0.000376436 0.000439404 0.000494144 0.000470255 0.000353986 0.000350448 0.00035764 0.000178758 0.000549384 0.000442088 0.000300198 0.000135159 0.000387505 0.000606672 0.000335868 0.000456956 0.000210467 0.000355994 0.000381996 0.000362185 0.000278042 0.000338409 0.000206519 0.000150436 0.000140797 0.000358828 0.000165067 0.000227584 
MeasComm+1 32: 0.000320684 0.000385874 0.000285311 0.000309403 0.000372525 0.000433656 0.00049461 0.000471421 0.000351428 0.00034896 0.000370293 0.000248513 0.000549165 0.000437744 0.000304868 0.000134844 0.000398757 0.000604129 0.000338525 0.000502216 0.000308424 0.000361886 0.000383636 0.000362841 0.000278696 0.000340934 0.000207618 0.000284732 0.000147595 0.000354679 0.000166314 0.000226968 
MeasComm+1 32: 0.000320389 0.000389792 0.000285021 0.000309584 0.000378405 0.000411707 0.000496767 0.000470129 0.000353887 0.000352472 0.000355879 0.000177444 0.000549978 0.000442793 0.000305132 0.000135192 0.000400064 0.000603924 0.00033995 0.000502076 0.000308845 0.000362576 0.000384893 0.000361423 0.000278584 0.000344257 0.000194608 0.000223502 0.000148248 0.00035347 0.000159276 0.000228013 
MeasComm+1 32: 0.000319129 0.0003915 0.000286805 0.000309702 0.000375284 0.000440488 0.000494625 0.000469773 0.000347591 0.00035134 0.000352472 0.000248199 0.000550804 0.000439626 0.000303944 0.000135464 0.000397806 0.000603911 0.00033821 0.000500512 0.000307989 0.000364301 0.000385887 0.000359355 0.000278777 0.000339393 0.00020799 0.000279031 0.000146629 0.000349951 0.000165335 0.000226739 
MeasComm+1 32: 0.000320916 0.000377518 0.000279864 0.000306726 0.000372425 0.000432749 0.000496337 0.000469689 0.000354169 0.000351148 0.000356188 0.000248631 0.000550516 0.000443684 0.000305079 0.000134615 0.000400233 0.000606492 0.000335562 0.000501636 0.000309175 0.000361914 0.000378472 0.000362908 0.000278343 0.000339921 0.000196752 0.000274897 0.000139468 0.000353221 0.000156508 0.000227449 

ComTab rank 0: 0 693 824 99 339 0 1235 427 403 0 57 0 4 31 0 0 0 0 0 0 264 0 2 0 24 0 0 3 0 0 0 0 
ComTab rank 1: 733 0 0 0 809 208 1224 283 0 2 0 0 54 0 0 0 21 63 0 44 594 0 309 81 46 115 0 59 0 0 0 0 
ComTab rank 2: 838 0 0 1342 0 0 394 331 420 0 0 0 9 115 0 0 0 0 0 0 0 0 0 0 3 0 0 3 0 0 0 0 
ComTab rank 3: 97 0 1331 0 44 0 181 457 177 0 613 0 440 1039 0 0 0 0 0 0 0 0 0 0 0 0 20 0 0 0 0 0 
ComTab rank 4: 323 901 0 44 0 620 953 152 0 333 302 0 527 84 0 0 0 594 0 0 0 0 0 0 36 53 0 0 0 0 0 0 
ComTab rank 5: 0 235 0 0 709 0 502 45 8 206 125 0 2724 477 104 0 214 3036 0 134 0 0 20 0 70 70 0 0 0 0 0 0 
ComTab rank 6: 1222 1233 398 203 940 475 0 2728 59 396 491 0 1626 340 0 0 147 393 27 160 219 0 142 0 234 102 0 5 0 0 0 0 
ComTab rank 7: 427 280 331 421 135 45 2846 0 51 55 51 0 3860 2196 0 0 0 122 0 50 45 0 131 0 173 0 0 56 0 0 0 0 
ComTab rank 8: 383 0 394 190 0 20 55 55 0 704 528 422 402 911 437 0 40 12 0 0 0 0 0 0 5 2 5 0 0 0 0 0 
ComTab rank 9: 0 2 0 0 315 70 336 44 679 0 652 562 166 262 276 0 59 38 0 0 0 0 0 0 2 128 26 0 0 0 0 18 
ComTab rank 10: 22 0 0 685 311 131 495 47 528 616 0 563 83 853 210 0 43 0 0 0 0 0 0 0 1 28 12 32 0 0 0 0 
ComTab rank 11: 0 0 0 0 0 0 0 0 453 568 587 0 0 221 437 0 0 0 0 0 0 0 0 0 0 163 53 0 15 164 0 501 
ComTab rank 12: 4 66 9 432 527 2693 1707 4039 384 201 73 0 0 3607 118 0 44 3496 0 137 36 0 234 0 0 10 0 0 0 0 0 0 
ComTab rank 13: 31 0 115 1012 84 455 309 2098 888 276 828 221 3743 0 841 0 0 1402 0 0 0 0 0 0 0 0 0 0 0 0 0 0 
ComTab rank 14: 0 0 0 0 0 105 0 0 441 369 269 537 122 835 0 7 0 0 0 0 0 0 0 0 89 0 273 0 0 0 0 72 
ComTab rank 15: 0 0 0 0 0 0 0 0 0 0 0 0 0 0 7 0 0 0 0 0 0 0 0 0 0 0 580 344 288 0 0 358 
ComTab rank 16: 0 21 0 0 0 220 130 0 109 192 114 0 50 0 0 0 0 1818 194 2326 25 691 913 358 0 203 0 0 0 23 0 0 
ComTab rank 17: 0 58 0 0 586 3015 394 119 9 82 0 0 3521 1440 0 0 1774 0 117 1344 0 104 326 403 0 46 0 0 0 438 0 0 
ComTab rank 18: 0 0 0 0 0 0 27 0 0 0 0 0 0 0 0 0 116 102 0 1218 580 842 101 23 0 0 0 0 0 0 0 0 
ComTab rank 19: 0 41 0 0 0 110 184 45 0 0 0 0 136 0 0 0 2067 1293 1249 0 275 528 729 286 0 30 0 0 0 456 0 0 
ComTab rank 20: 218 523 0 0 0 0 236 38 0 0 0 0 38 0 0 0 41 0 550 273 0 694 710 151 0 75 0 101 0 0 0 0 
ComTab rank 21: 0 0 0 0 0 0 0 0 0 0 0 0 0 0 0 0 723 71 1007 629 631 0 597 701 0 317 0 0 0 104 0 0 
ComTab rank 22: 2 296 0 0 0 20 173 127 0 0 0 0 152 0 0 0 589 272 92 696 733 609 0 1171 0 117 0 82 0 29 0 0 
ComTab rank 23: 0 81 0 0 0 0 0 0 0 0 0 0 0 0 0 0 223 409 32 379 170 678 1154 0 0 96 0 14 0 51 0 0 
ComTab rank 24: 46 40 3 0 73 40 216 137 5 2 1 0 0 0 95 0 0 0 0 0 0 0 0 0 0 126 119 269 0 0 0 0 
ComTab rank 25: 0 179 0 0 64 84 108 0 2 228 21 353 12 0 0 0 142 39 0 34 149 728 117 153 124 0 31 108 136 96 1 71 
ComTab rank 26: 0 0 0 27 0 0 0 0 9 89 18 52 0 0 249 577 0 0 0 0 0 0 0 0 119 30 0 663 122 0 692 896 
ComTab rank 27: 4 115 3 0 0 0 5 51 0 0 55 0 0 0 0 344 0 0 0 0 119 0 76 14 264 108 721 0 30 0 81 258 
ComTab rank 28: 0 0 0 0 0 0 0 0 0 0 0 37 0 0 0 371 0 0 0 0 0 0 0 0 0 138 129 10 0 0 325 700 
ComTab rank 29: 0 0 0 0 0 0 0 0 0 0 0 182 0 0 0 0 23 438 0 440 0 104 39 31 0 60 0 0 0 0 127 313 
ComTab rank 30: 0 0 0 0 0 0 0 0 0 0 0 0 0 0 0 0 0 0 0 0 0 0 0 0 0 1 642 59 275 118 0 1559 
ComTab rank 31: 0 0 0 0 0 0 0 0 0 19 0 490 0 0 54 282 0 0 0 0 0 0 0 0 0 52 829 258 617 303 1494 0 

Edge-cut: 92826

Wgt-cut: 2.19548e-08

[1578561869.819503] [srl-adm2:58265:0]          mpool.c:38   UCX  WARN  object 0x5555622c0000 was not returned to mpool ucp_am_bufs
[1578561869.820203] [srl-adm2:58264:0]          mpool.c:38   UCX  WARN  object 0x5555640e4e80 was not returned to mpool ucp_am_bufs
[1578561869.820175] [srl-adm2:58284:0]          mpool.c:38   UCX  WARN  object 0x1555393e58e0 was not returned to mpool mm_recv_desc
[1578561869.820334] [srl-adm2:58270:0]          mpool.c:38   UCX  WARN  object 0x555564123540 was not returned to mpool ucp_am_bufs
[1578561869.820494] [srl-adm2:58275:0]          mpool.c:38   UCX  WARN  object 0x1555393f9de0 was not returned to mpool mm_recv_desc
