 Data for JOB [65411,1] offset 0 Total slots allocated 2

 ========================   JOB MAP   ========================

 Data for node: n001	Num slots: 2	Max slots: 0	Num procs: 2
 	Process OMPI jobid: [65411,1] App: 0 Process rank: 0 Bound: socket 1[core 41[hwt 0-1]]:[../../../../../../../../../../../../../../../../../../../../../../../../../../../../../../../..][../../../../../../../../../BB/../../../../../../../../../../../../../../../../../../../../../..]
 	Process OMPI jobid: [65411,1] App: 0 Process rank: 1 Bound: socket 1[core 34[hwt 0-1]]:[../../../../../../../../../../../../../../../../../../../../../../../../../../../../../../../..][../../BB/../../../../../../../../../../../../../../../../../../../../../../../../../../../../..]

 =============================================================
dune-size 1 4.21889e-06 4.21689e-06 
dune-size 2 4.02249e-06 4.02279e-06 
dune-size 4 4.24729e-06 4.24819e-06 
dune-size 8 4.38649e-06 4.38589e-06 
dune-size 16 4.84319e-06 4.84919e-06 
dune-size 32 5.70318e-06 5.70528e-06 
dune-size 64 7.34898e-06 7.34898e-06 
dune-size 128 1.07378e-05 1.07449e-05 
dune-size 256 1.7885e-05 1.78901e-05 
dune-size 512 3.07157e-05 3.07224e-05 
dune-size 1024 8.67787e-05 8.67917e-05 
dune-size 2048 0.000158499 0.000158495 
dune-size 4096 0.000307147 0.000307143 
dune-size 8192 0.000530333 0.000530336 
dune-size 16384 0.000879026 0.000879032 
dune-size 32768 0.00162667 0.00162667 
dune-size 65536 0.00323116 0.00323103 
dune-size 131072 0.00639453 0.00639089 
dune-size 262144 0.0128193 0.0128192 
dune-size 524288 0.0254086 0.0254075 
dune-size 1048576 0.051004 0.0510342 
