 Data for JOB [5538,1] offset 0 Total slots allocated 4

 ========================   JOB MAP   ========================

 Data for node: n003	Num slots: 4	Max slots: 0	Num procs: 4
 	Process OMPI jobid: [5538,1] App: 0 Process rank: 0 Bound: socket 1[core 41[hwt 0-1]]:[../../../../../../../../../../../../../../../../../../../../../../../../../../../../../../../..][../../../../../../../../../BB/../../../../../../../../../../../../../../../../../../../../../..]
 	Process OMPI jobid: [5538,1] App: 0 Process rank: 1 Bound: socket 0[core 19[hwt 0-1]]:[../../../../../../../../../../../../../../../../../../../BB/../../../../../../../../../../../..][../../../../../../../../../../../../../../../../../../../../../../../../../../../../../../../..]
 	Process OMPI jobid: [5538,1] App: 0 Process rank: 2 Bound: socket 0[core 20[hwt 0-1]]:[../../../../../../../../../../../../../../../../../../../../BB/../../../../../../../../../../..][../../../../../../../../../../../../../../../../../../../../../../../../../../../../../../../..]
 	Process OMPI jobid: [5538,1] App: 0 Process rank: 3 Bound: socket 1[core 42[hwt 0-1]]:[../../../../../../../../../../../../../../../../../../../../../../../../../../../../../../../..][../../../../../../../../../../BB/../../../../../../../../../../../../../../../../../../../../..]

 =============================================================
Two group cota
0 1 1
3 2 2
2 3 3
1 0 0
dune-size 1 5.88768e-06 5.88768e-06 5.57608e-06 5.57168e-06 
dune-size 2 5.45969e-06 5.46279e-06 5.36159e-06 5.35499e-06 
dune-size 4 5.52689e-06 5.53369e-06 5.47939e-06 5.47849e-06 
dune-size 8 6.90838e-06 5.84529e-06 6.91128e-06 5.84879e-06 
dune-size 16 6.24089e-06 6.23829e-06 6.16929e-06 6.16629e-06 
dune-size 32 7.02858e-06 7.03638e-06 6.96339e-06 6.96599e-06 
dune-size 64 8.90668e-06 8.90548e-06 8.87618e-06 8.87368e-06 
dune-size 128 1.21071e-05 1.21045e-05 1.20483e-05 1.20451e-05 
dune-size 256 1.93522e-05 1.93649e-05 1.91062e-05 1.91079e-05 
dune-size 512 3.31012e-05 3.31233e-05 3.28556e-05 3.28504e-05 
dune-size 1024 0.0001075 0.000107501 0.000106115 0.000106101 
dune-size 2048 0.000198295 0.000198299 0.000198412 0.000198403 
dune-size 4096 0.000362398 0.000362424 0.000380109 0.000380124 
dune-size 8192 0.000638224 0.000638199 0.000638066 0.00063808 
dune-size 16384 0.000906596 0.000906586 0.000909777 0.000909808 
dune-size 32768 0.00168624 0.00168617 0.00167592 0.00167599 
dune-size 65536 0.0032614 0.00325961 0.00327968 0.00328199 
dune-size 131072 0.00658047 0.00657326 0.00653595 0.00654359 
