 Data for JOB [39579,1] offset 0 Total slots allocated 2

 ========================   JOB MAP   ========================

 Data for node: n001	Num slots: 2	Max slots: 0	Num procs: 2
 	Process OMPI jobid: [39579,1] App: 0 Process rank: 0 Bound: socket 0[core 1[hwt 0-1]]:[../BB/../../../../../../../../../../../../../../../../../../../../../../../../../../../../../..][../../../../../../../../../../../../../../../../../../../../../../../../../../../../../../../..]
 	Process OMPI jobid: [39579,1] App: 0 Process rank: 1 Bound: socket 0[core 10[hwt 0-1]]:[../../../../../../../../../../BB/../../../../../../../../../../../../../../../../../../../../..][../../../../../../../../../../../../../../../../../../../../../../../../../../../../../../../..]

 =============================================================
dune-size 1 4.16979e-06 4.17059e-06 
dune-size 2 4.00319e-06 4.00399e-06 
dune-size 4 4.09509e-06 4.09619e-06 
dune-size 8 4.39709e-06 4.39699e-06 
dune-size 16 4.67969e-06 4.67909e-06 
dune-size 32 6.32669e-06 6.32449e-06 
dune-size 64 7.21358e-06 7.21028e-06 
dune-size 128 1.05922e-05 1.05913e-05 
dune-size 256 1.7989e-05 1.79881e-05 
dune-size 512 3.05032e-05 3.05082e-05 
dune-size 1024 8.78498e-05 8.78406e-05 
dune-size 2048 0.000158881 0.000158889 
dune-size 4096 0.00030981 0.000309811 
dune-size 8192 0.000545905 0.000545906 
dune-size 16384 0.000910067 0.000910109 
dune-size 32768 0.0016355 0.00163555 
dune-size 65536 0.00323195 0.00323216 
dune-size 131072 0.00636225 0.00636406 
dune-size 262144 0.012768 0.012768 
dune-size 524288 0.0253871 0.0254189 
dune-size 1048576 0.0506968 0.0507066 
