 Data for JOB [61417,1] offset 0 Total slots allocated 32

 ========================   JOB MAP   ========================

 Data for node: n003	Num slots: 32	Max slots: 0	Num procs: 32
 	Process OMPI jobid: [61417,1] App: 0 Process rank: 0 Bound: socket 0[core 0[hwt 0-1]]:[BB/../../../../../../../../../../../../../../../../../../../../../../../../../../../../../../..][../../../../../../../../../../../../../../../../../../../../../../../../../../../../../../../..]
 	Process OMPI jobid: [61417,1] App: 0 Process rank: 1 Bound: socket 0[core 1[hwt 0-1]]:[../BB/../../../../../../../../../../../../../../../../../../../../../../../../../../../../../..][../../../../../../../../../../../../../../../../../../../../../../../../../../../../../../../..]
 	Process OMPI jobid: [61417,1] App: 0 Process rank: 2 Bound: socket 0[core 2[hwt 0-1]]:[../../BB/../../../../../../../../../../../../../../../../../../../../../../../../../../../../..][../../../../../../../../../../../../../../../../../../../../../../../../../../../../../../../..]
 	Process OMPI jobid: [61417,1] App: 0 Process rank: 3 Bound: socket 0[core 3[hwt 0-1]]:[../../../BB/../../../../../../../../../../../../../../../../../../../../../../../../../../../..][../../../../../../../../../../../../../../../../../../../../../../../../../../../../../../../..]
 	Process OMPI jobid: [61417,1] App: 0 Process rank: 4 Bound: socket 0[core 8[hwt 0-1]]:[../../../../../../../../BB/../../../../../../../../../../../../../../../../../../../../../../..][../../../../../../../../../../../../../../../../../../../../../../../../../../../../../../../..]
 	Process OMPI jobid: [61417,1] App: 0 Process rank: 5 Bound: socket 0[core 9[hwt 0-1]]:[../../../../../../../../../BB/../../../../../../../../../../../../../../../../../../../../../..][../../../../../../../../../../../../../../../../../../../../../../../../../../../../../../../..]
 	Process OMPI jobid: [61417,1] App: 0 Process rank: 6 Bound: socket 0[core 10[hwt 0-1]]:[../../../../../../../../../../BB/../../../../../../../../../../../../../../../../../../../../..][../../../../../../../../../../../../../../../../../../../../../../../../../../../../../../../..]
 	Process OMPI jobid: [61417,1] App: 0 Process rank: 7 Bound: socket 0[core 11[hwt 0-1]]:[../../../../../../../../../../../BB/../../../../../../../../../../../../../../../../../../../..][../../../../../../../../../../../../../../../../../../../../../../../../../../../../../../../..]
 	Process OMPI jobid: [61417,1] App: 0 Process rank: 8 Bound: socket 0[core 16[hwt 0-1]]:[../../../../../../../../../../../../../../../../BB/../../../../../../../../../../../../../../..][../../../../../../../../../../../../../../../../../../../../../../../../../../../../../../../..]
 	Process OMPI jobid: [61417,1] App: 0 Process rank: 9 Bound: socket 0[core 17[hwt 0-1]]:[../../../../../../../../../../../../../../../../../BB/../../../../../../../../../../../../../..][../../../../../../../../../../../../../../../../../../../../../../../../../../../../../../../..]
 	Process OMPI jobid: [61417,1] App: 0 Process rank: 10 Bound: socket 0[core 18[hwt 0-1]]:[../../../../../../../../../../../../../../../../../../BB/../../../../../../../../../../../../..][../../../../../../../../../../../../../../../../../../../../../../../../../../../../../../../..]
 	Process OMPI jobid: [61417,1] App: 0 Process rank: 11 Bound: socket 0[core 19[hwt 0-1]]:[../../../../../../../../../../../../../../../../../../../BB/../../../../../../../../../../../..][../../../../../../../../../../../../../../../../../../../../../../../../../../../../../../../..]
 	Process OMPI jobid: [61417,1] App: 0 Process rank: 12 Bound: socket 0[core 24[hwt 0-1]]:[../../../../../../../../../../../../../../../../../../../../../../../../BB/../../../../../../..][../../../../../../../../../../../../../../../../../../../../../../../../../../../../../../../..]
 	Process OMPI jobid: [61417,1] App: 0 Process rank: 13 Bound: socket 0[core 25[hwt 0-1]]:[../../../../../../../../../../../../../../../../../../../../../../../../../BB/../../../../../..][../../../../../../../../../../../../../../../../../../../../../../../../../../../../../../../..]
 	Process OMPI jobid: [61417,1] App: 0 Process rank: 14 Bound: socket 0[core 26[hwt 0-1]]:[../../../../../../../../../../../../../../../../../../../../../../../../../../BB/../../../../..][../../../../../../../../../../../../../../../../../../../../../../../../../../../../../../../..]
 	Process OMPI jobid: [61417,1] App: 0 Process rank: 15 Bound: socket 0[core 27[hwt 0-1]]:[../../../../../../../../../../../../../../../../../../../../../../../../../../../BB/../../../..][../../../../../../../../../../../../../../../../../../../../../../../../../../../../../../../..]
 	Process OMPI jobid: [61417,1] App: 0 Process rank: 16 Bound: socket 1[core 32[hwt 0-1]]:[../../../../../../../../../../../../../../../../../../../../../../../../../../../../../../../..][BB/../../../../../../../../../../../../../../../../../../../../../../../../../../../../../../..]
 	Process OMPI jobid: [61417,1] App: 0 Process rank: 17 Bound: socket 1[core 33[hwt 0-1]]:[../../../../../../../../../../../../../../../../../../../../../../../../../../../../../../../..][../BB/../../../../../../../../../../../../../../../../../../../../../../../../../../../../../..]
 	Process OMPI jobid: [61417,1] App: 0 Process rank: 18 Bound: socket 1[core 34[hwt 0-1]]:[../../../../../../../../../../../../../../../../../../../../../../../../../../../../../../../..][../../BB/../../../../../../../../../../../../../../../../../../../../../../../../../../../../..]
 	Process OMPI jobid: [61417,1] App: 0 Process rank: 19 Bound: socket 1[core 35[hwt 0-1]]:[../../../../../../../../../../../../../../../../../../../../../../../../../../../../../../../..][../../../BB/../../../../../../../../../../../../../../../../../../../../../../../../../../../..]
 	Process OMPI jobid: [61417,1] App: 0 Process rank: 20 Bound: socket 1[core 40[hwt 0-1]]:[../../../../../../../../../../../../../../../../../../../../../../../../../../../../../../../..][../../../../../../../../BB/../../../../../../../../../../../../../../../../../../../../../../..]
 	Process OMPI jobid: [61417,1] App: 0 Process rank: 21 Bound: socket 1[core 41[hwt 0-1]]:[../../../../../../../../../../../../../../../../../../../../../../../../../../../../../../../..][../../../../../../../../../BB/../../../../../../../../../../../../../../../../../../../../../..]
 	Process OMPI jobid: [61417,1] App: 0 Process rank: 22 Bound: socket 1[core 42[hwt 0-1]]:[../../../../../../../../../../../../../../../../../../../../../../../../../../../../../../../..][../../../../../../../../../../BB/../../../../../../../../../../../../../../../../../../../../..]
 	Process OMPI jobid: [61417,1] App: 0 Process rank: 23 Bound: socket 1[core 43[hwt 0-1]]:[../../../../../../../../../../../../../../../../../../../../../../../../../../../../../../../..][../../../../../../../../../../../BB/../../../../../../../../../../../../../../../../../../../..]
 	Process OMPI jobid: [61417,1] App: 0 Process rank: 24 Bound: socket 1[core 48[hwt 0-1]]:[../../../../../../../../../../../../../../../../../../../../../../../../../../../../../../../..][../../../../../../../../../../../../../../../../BB/../../../../../../../../../../../../../../..]
 	Process OMPI jobid: [61417,1] App: 0 Process rank: 25 Bound: socket 1[core 49[hwt 0-1]]:[../../../../../../../../../../../../../../../../../../../../../../../../../../../../../../../..][../../../../../../../../../../../../../../../../../BB/../../../../../../../../../../../../../..]
 	Process OMPI jobid: [61417,1] App: 0 Process rank: 26 Bound: socket 1[core 50[hwt 0-1]]:[../../../../../../../../../../../../../../../../../../../../../../../../../../../../../../../..][../../../../../../../../../../../../../../../../../../BB/../../../../../../../../../../../../..]
 	Process OMPI jobid: [61417,1] App: 0 Process rank: 27 Bound: socket 1[core 51[hwt 0-1]]:[../../../../../../../../../../../../../../../../../../../../../../../../../../../../../../../..][../../../../../../../../../../../../../../../../../../../BB/../../../../../../../../../../../..]
 	Process OMPI jobid: [61417,1] App: 0 Process rank: 28 Bound: socket 1[core 56[hwt 0-1]]:[../../../../../../../../../../../../../../../../../../../../../../../../../../../../../../../..][../../../../../../../../../../../../../../../../../../../../../../../../BB/../../../../../../..]
 	Process OMPI jobid: [61417,1] App: 0 Process rank: 29 Bound: socket 1[core 57[hwt 0-1]]:[../../../../../../../../../../../../../../../../../../../../../../../../../../../../../../../..][../../../../../../../../../../../../../../../../../../../../../../../../../BB/../../../../../..]
 	Process OMPI jobid: [61417,1] App: 0 Process rank: 30 Bound: socket 1[core 58[hwt 0-1]]:[../../../../../../../../../../../../../../../../../../../../../../../../../../../../../../../..][../../../../../../../../../../../../../../../../../../../../../../../../../../BB/../../../../..]
 	Process OMPI jobid: [61417,1] App: 0 Process rank: 31 Bound: socket 1[core 59[hwt 0-1]]:[../../../../../../../../../../../../../../../../../../../../../../../../../../../../../../../..][../../../../../../../../../../../../../../../../../../../../../../../../../../../BB/../../../..]

 =============================================================
[1579248460.087479] [n003:88473:0]         mxm.c:196  MXM  WARN  The 'ulimit -s' on the system is set to 'unlimited'. This may have negative performance implications. Please set the stack size to the default value (10240) 
[1579248460.088333] [n003:88484:0]         mxm.c:196  MXM  WARN  The 'ulimit -s' on the system is set to 'unlimited'. This may have negative performance implications. Please set the stack size to the default value (10240) 
[1579248460.089488] [n003:88475:0]         mxm.c:196  MXM  WARN  The 'ulimit -s' on the system is set to 'unlimited'. This may have negative performance implications. Please set the stack size to the default value (10240) 
[1579248460.089677] [n003:88485:0]         mxm.c:196  MXM  WARN  The 'ulimit -s' on the system is set to 'unlimited'. This may have negative performance implications. Please set the stack size to the default value (10240) 
[1579248460.089916] [n003:88480:0]         mxm.c:196  MXM  WARN  The 'ulimit -s' on the system is set to 'unlimited'. This may have negative performance implications. Please set the stack size to the default value (10240) 
[1579248460.090066] [n003:88482:0]         mxm.c:196  MXM  WARN  The 'ulimit -s' on the system is set to 'unlimited'. This may have negative performance implications. Please set the stack size to the default value (10240) 
[1579248460.090999] [n003:88477:0]         mxm.c:196  MXM  WARN  The 'ulimit -s' on the system is set to 'unlimited'. This may have negative performance implications. Please set the stack size to the default value (10240) 
[1579248460.091181] [n003:88464:0]         mxm.c:196  MXM  WARN  The 'ulimit -s' on the system is set to 'unlimited'. This may have negative performance implications. Please set the stack size to the default value (10240) 
[1579248460.091179] [n003:88467:0]         mxm.c:196  MXM  WARN  The 'ulimit -s' on the system is set to 'unlimited'. This may have negative performance implications. Please set the stack size to the default value (10240) 
[1579248460.091310] [n003:88474:0]         mxm.c:196  MXM  WARN  The 'ulimit -s' on the system is set to 'unlimited'. This may have negative performance implications. Please set the stack size to the default value (10240) 
[1579248460.091510] [n003:88478:0]         mxm.c:196  MXM  WARN  The 'ulimit -s' on the system is set to 'unlimited'. This may have negative performance implications. Please set the stack size to the default value (10240) 
[1579248460.092061] [n003:88469:0]         mxm.c:196  MXM  WARN  The 'ulimit -s' on the system is set to 'unlimited'. This may have negative performance implications. Please set the stack size to the default value (10240) 
[1579248460.092487] [n003:88468:0]         mxm.c:196  MXM  WARN  The 'ulimit -s' on the system is set to 'unlimited'. This may have negative performance implications. Please set the stack size to the default value (10240) 
[1579248460.092903] [n003:88466:0]         mxm.c:196  MXM  WARN  The 'ulimit -s' on the system is set to 'unlimited'. This may have negative performance implications. Please set the stack size to the default value (10240) 
[1579248460.095645] [n003:88471:0]         mxm.c:196  MXM  WARN  The 'ulimit -s' on the system is set to 'unlimited'. This may have negative performance implications. Please set the stack size to the default value (10240) 
[1579248460.097210] [n003:88481:0]         mxm.c:196  MXM  WARN  The 'ulimit -s' on the system is set to 'unlimited'. This may have negative performance implications. Please set the stack size to the default value (10240) 
[1579248460.097523] [n003:88486:0]         mxm.c:196  MXM  WARN  The 'ulimit -s' on the system is set to 'unlimited'. This may have negative performance implications. Please set the stack size to the default value (10240) 
[1579248460.097719] [n003:88458:0]         mxm.c:196  MXM  WARN  The 'ulimit -s' on the system is set to 'unlimited'. This may have negative performance implications. Please set the stack size to the default value (10240) 
[1579248460.099959] [n003:88457:0]         mxm.c:196  MXM  WARN  The 'ulimit -s' on the system is set to 'unlimited'. This may have negative performance implications. Please set the stack size to the default value (10240) 
[1579248460.100001] [n003:88456:0]         mxm.c:196  MXM  WARN  The 'ulimit -s' on the system is set to 'unlimited'. This may have negative performance implications. Please set the stack size to the default value (10240) 
[1579248460.100084] [n003:88462:0]         mxm.c:196  MXM  WARN  The 'ulimit -s' on the system is set to 'unlimited'. This may have negative performance implications. Please set the stack size to the default value (10240) 
[1579248460.100084] [n003:88460:0]         mxm.c:196  MXM  WARN  The 'ulimit -s' on the system is set to 'unlimited'. This may have negative performance implications. Please set the stack size to the default value (10240) 
[1579248460.100593] [n003:88472:0]         mxm.c:196  MXM  WARN  The 'ulimit -s' on the system is set to 'unlimited'. This may have negative performance implications. Please set the stack size to the default value (10240) 
[1579248460.101173] [n003:88465:0]         mxm.c:196  MXM  WARN  The 'ulimit -s' on the system is set to 'unlimited'. This may have negative performance implications. Please set the stack size to the default value (10240) 
[1579248460.102119] [n003:88476:0]         mxm.c:196  MXM  WARN  The 'ulimit -s' on the system is set to 'unlimited'. This may have negative performance implications. Please set the stack size to the default value (10240) 
[1579248460.102399] [n003:88459:0]         mxm.c:196  MXM  WARN  The 'ulimit -s' on the system is set to 'unlimited'. This may have negative performance implications. Please set the stack size to the default value (10240) 
[1579248460.103753] [n003:88463:0]         mxm.c:196  MXM  WARN  The 'ulimit -s' on the system is set to 'unlimited'. This may have negative performance implications. Please set the stack size to the default value (10240) 
[1579248460.103789] [n003:88461:0]         mxm.c:196  MXM  WARN  The 'ulimit -s' on the system is set to 'unlimited'. This may have negative performance implications. Please set the stack size to the default value (10240) 
[1579248460.103809] [n003:88479:0]         mxm.c:196  MXM  WARN  The 'ulimit -s' on the system is set to 'unlimited'. This may have negative performance implications. Please set the stack size to the default value (10240) 
[1579248460.103888] [n003:88470:0]         mxm.c:196  MXM  WARN  The 'ulimit -s' on the system is set to 'unlimited'. This may have negative performance implications. Please set the stack size to the default value (10240) 
[1579248460.103912] [n003:88483:0]         mxm.c:196  MXM  WARN  The 'ulimit -s' on the system is set to 'unlimited'. This may have negative performance implications. Please set the stack size to the default value (10240) 
[1579248460.104088] [n003:88487:0]         mxm.c:196  MXM  WARN  The 'ulimit -s' on the system is set to 'unlimited'. This may have negative performance implications. Please set the stack size to the default value (10240) 
0: 0 

Rank 0 ghostCells: 443
Rank 1 ghostCells: 391
Rank 2 ghostCells: 295
Rank 3 ghostCells: 209
Rank 4 ghostCells: 426
Rank 5 ghostCells: 553
Rank 6 ghostCells: 447
Rank 7 ghostCells: 487
Rank 8 ghostCells: 463
Rank 9 ghostCells: 405
Rank 10 ghostCells: 453
Rank 11 ghostCells: 493
Rank 12 ghostCells: 343
Rank 13 ghostCells: 343
Rank 14 ghostCells: 345
Rank 15 ghostCells: 180
Rank 16 ghostCells: 347
Rank 17 ghostCells: 475
Rank 18 ghostCells: 422
Rank 19 ghostCells: 550
Rank 20 ghostCells: 536
Rank 21 ghostCells: 570
Rank 22 ghostCells: 597
Rank 23 ghostCells: 380
Rank 24 ghostCells: 560
Rank 25 ghostCells: 446
Rank 26 ghostCells: 640
Rank 27 ghostCells: 495
Rank 28 ghostCells: 643
Rank 29 ghostCells: 498
Rank 30 ghostCells: 344
Rank 31 ghostCells: 222

Rank 0 numCells: 1874
Rank 1 numCells: 1907
Rank 2 numCells: 1770
Rank 3 numCells: 1683
Rank 4 numCells: 1923
Rank 5 numCells: 2050
Rank 6 numCells: 1943
Rank 7 numCells: 1984
Rank 8 numCells: 1742
Rank 9 numCells: 1902
Rank 10 numCells: 1976
Rank 11 numCells: 1343
Rank 12 numCells: 1624
Rank 13 numCells: 1853
Rank 14 numCells: 1732
Rank 15 numCells: 1584
Rank 16 numCells: 1616
Rank 17 numCells: 1744
Rank 18 numCells: 1852
Rank 19 numCells: 2012
Rank 20 numCells: 1956
Rank 21 numCells: 1713
Rank 22 numCells: 2086
Rank 23 numCells: 1758
Rank 24 numCells: 2047
Rank 25 numCells: 1709
Rank 26 numCells: 2151
Rank 27 numCells: 1734
Rank 28 numCells: 2115
Rank 29 numCells: 1895
Rank 30 numCells: 1498
Rank 31 numCells: 1656

Rank 0 interiorCells: 1431
Rank 1 interiorCells: 1516
Rank 2 interiorCells: 1475
Rank 3 interiorCells: 1474
Rank 4 interiorCells: 1497
Rank 5 interiorCells: 1497
Rank 6 interiorCells: 1496
Rank 7 interiorCells: 1497
Rank 8 interiorCells: 1279
Rank 9 interiorCells: 1497
Rank 10 interiorCells: 1523
Rank 11 interiorCells: 850
Rank 12 interiorCells: 1281
Rank 13 interiorCells: 1510
Rank 14 interiorCells: 1387
Rank 15 interiorCells: 1404
Rank 16 interiorCells: 1269
Rank 17 interiorCells: 1269
Rank 18 interiorCells: 1430
Rank 19 interiorCells: 1462
Rank 20 interiorCells: 1420
Rank 21 interiorCells: 1143
Rank 22 interiorCells: 1489
Rank 23 interiorCells: 1378
Rank 24 interiorCells: 1487
Rank 25 interiorCells: 1263
Rank 26 interiorCells: 1511
Rank 27 interiorCells: 1239
Rank 28 interiorCells: 1472
Rank 29 interiorCells: 1397
Rank 30 interiorCells: 1154
Rank 31 interiorCells: 1434

MeasComm+1 32: 5.273e-05 3.657e-05 2.536e-05 2.907e-05 4.291e-05 7.206e-05 4.921e-05 5.394e-05 5.922e-05 5.318e-05 5.899e-05 6.934e-05 3.452e-05 4.122e-05 3.48e-05 2.61e-05 3.954e-05 5.781e-05 4.25e-05 6.739e-05 6.156e-05 5.972e-05 6.199e-05 4.051e-05 8.35e-05 5.098e-05 7.612e-05 6.955e-05 7.669e-05 5.671e-05 5.936e-05 5.027e-05 
MeasComm+1 32: 5.178e-05 3.65e-05 2.508e-05 2.885e-05 4.102e-05 7.147e-05 4.8299e-05 5.34e-05 5.911e-05 5.361e-05 5.668e-05 6.907e-05 3.442e-05 4.107e-05 3.42e-05 2.577e-05 3.83e-05 5.821e-05 4.272e-05 6.674e-05 6.1759e-05 5.949e-05 6.225e-05 4.034e-05 8.4379e-05 5.012e-05 7.495e-05 6.921e-05 7.584e-05 5.553e-05 5.788e-05 4.939e-05 
MeasComm+1 32: 4.972e-05 3.662e-05 2.537e-05 2.8729e-05 4.107e-05 6.857e-05 4.925e-05 5.14e-05 5.742e-05 5.429e-05 5.866e-05 6.418e-05 3.438e-05 4.071e-05 3.455e-05 2.554e-05 3.786e-05 5.77e-05 4.274e-05 6.5889e-05 6.106e-05 5.916e-05 6.186e-05 4.02e-05 8.357e-05 4.991e-05 7.584e-05 6.901e-05 7.661e-05 5.6e-05 5.842e-05 4.92e-05 
MeasComm+1 32: 4.802e-05 3.631e-05 2.503e-05 2.947e-05 4.313e-05 6.739e-05 4.95e-05 5.215e-05 5.923e-05 5.355e-05 5.81e-05 6.762e-05 3.466e-05 4.1e-05 3.387e-05 2.593e-05 3.812e-05 5.795e-05 4.284e-05 6.727e-05 6.157e-05 5.932e-05 6.232e-05 4.0219e-05 8.239e-05 4.987e-05 7.476e-05 6.917e-05 7.6339e-05 5.5789e-05 5.798e-05 4.875e-05 
MeasComm+1 32: 4.645e-05 3.63e-05 2.468e-05 2.933e-05 4.073e-05 7.045e-05 4.863e-05 5.157e-05 5.732e-05 5.358e-05 5.809e-05 6.969e-05 3.409e-05 4.06e-05 3.452e-05 2.484e-05 3.729e-05 5.731e-05 4.3229e-05 6.636e-05 6.102e-05 5.9479e-05 6.204e-05 3.973e-05 8.395e-05 5.046e-05 7.388e-05 6.943e-05 7.461e-05 5.607e-05 5.771e-05 4.895e-05 
MeasComm+1 32: 4.925e-05 3.65e-05 2.492e-05 2.872e-05 4.318e-05 7.002e-05 4.878e-05 5.007e-05 5.995e-05 5.429e-05 5.7759e-05 6.768e-05 3.456e-05 4.08e-05 3.403e-05 2.623e-05 3.794e-05 5.692e-05 4.292e-05 6.686e-05 6.122e-05 5.928e-05 6.2029e-05 3.996e-05 8.386e-05 5.0599e-05 7.506e-05 6.955e-05 7.548e-05 5.605e-05 5.833e-05 4.922e-05 
MeasComm+1 32: 4.805e-05 3.65e-05 2.564e-05 2.905e-05 4.263e-05 6.927e-05 4.686e-05 5.017e-05 5.803e-05 5.194e-05 5.8209e-05 6.784e-05 3.42e-05 4.087e-05 3.415e-05 2.524e-05 3.764e-05 5.7689e-05 4.278e-05 6.682e-05 6.141e-05 5.95e-05 6.162e-05 4.003e-05 8.291e-05 5.032e-05 7.5909e-05 6.895e-05 7.759e-05 5.565e-05 5.84e-05 4.872e-05 
MeasComm+1 32: 5.267e-05 3.68e-05 2.508e-05 2.901e-05 4.261e-05 6.969e-05 4.861e-05 5.336e-05 6.033e-05 5.538e-05 5.819e-05 6.785e-05 3.493e-05 4.091e-05 3.413e-05 2.558e-05 4.011e-05 5.817e-05 4.262e-05 6.673e-05 6.067e-05 5.907e-05 6.214e-05 3.979e-05 8.382e-05 5.019e-05 7.521e-05 6.927e-05 7.826e-05 5.629e-05 5.814e-05 4.915e-05 
MeasComm+1 32: 4.885e-05 3.659e-05 2.527e-05 2.895e-05 4.33e-05 6.847e-05 4.951e-05 4.998e-05 5.945e-05 5.428e-05 5.8599e-05 6.746e-05 3.433e-05 4.114e-05 3.424e-05 2.579e-05 3.769e-05 5.797e-05 4.242e-05 6.692e-05 6.152e-05 5.951e-05 6.1889e-05 3.985e-05 8.344e-05 4.956e-05 7.31e-05 6.931e-05 7.721e-05 5.579e-05 5.8379e-05 4.919e-05 
MeasComm+1 32: 5.261e-05 3.622e-05 2.55e-05 2.918e-05 4.327e-05 7.074e-05 4.868e-05 5.342e-05 5.987e-05 5.416e-05 5.748e-05 6.86e-05 3.462e-05 4.09e-05 3.404e-05 2.62e-05 3.749e-05 5.691e-05 4.2629e-05 6.631e-05 6.14e-05 5.892e-05 6.2e-05 3.987e-05 8.33e-05 5.022e-05 7.391e-05 6.857e-05 7.873e-05 5.603e-05 5.833e-05 4.867e-05 

MeasCopy 32: 2.078e-05 1.832e-05 1.384e-05 9.82e-06 1.998e-05 2.587e-05 2.097e-05 2.282e-05 2.167e-05 1.899e-05 2.1229e-05 2.31e-05 1.608e-05 1.608e-05 1.617e-05 8.43e-06 1.628e-05 2.229e-05 1.981e-05 2.578e-05 2.507e-05 2.672e-05 2.799e-05 1.784e-05 2.629e-05 2.09e-05 3.001e-05 2.322e-05 3.017e-05 2.333e-05 1.613e-05 1.043e-05 
MeasCopy 32: 2.077e-05 1.834e-05 1.385e-05 9.83e-06 1.994e-05 2.591e-05 2.097e-05 2.281e-05 2.1719e-05 1.897e-05 2.124e-05 2.31e-05 1.611e-05 1.61e-05 1.615e-05 8.44e-06 1.628e-05 2.22e-05 1.978e-05 2.579e-05 2.511e-05 2.672e-05 2.8e-05 1.779e-05 2.626e-05 2.093e-05 3.002e-05 2.319e-05 3.015e-05 2.334e-05 1.613e-05 1.041e-05 
MeasCopy 32: 2.081e-05 1.834e-05 1.383e-05 9.81e-06 1.997e-05 2.592e-05 2.096e-05 2.283e-05 2.1709e-05 1.894e-05 2.122e-05 2.311e-05 1.607e-05 1.605e-05 1.618e-05 8.45e-06 1.626e-05 2.226e-05 1.978e-05 2.574e-05 2.512e-05 2.674e-05 2.8e-05 1.783e-05 2.624e-05 2.09e-05 3e-05 2.32e-05 3.015e-05 2.336e-05 1.611e-05 1.041e-05 
MeasCopy 32: 2.077e-05 1.834e-05 1.382e-05 9.8e-06 1.999e-05 2.595e-05 2.094e-05 2.283e-05 2.17e-05 1.901e-05 2.124e-05 2.311e-05 1.606e-05 1.609e-05 1.618e-05 8.45e-06 1.629e-05 2.225e-05 1.979e-05 2.578e-05 2.511e-05 2.6689e-05 2.797e-05 1.781e-05 2.625e-05 2.087e-05 3.002e-05 2.321e-05 3.013e-05 2.333e-05 1.613e-05 1.041e-05 
MeasCopy 32: 2.079e-05 1.83e-05 1.384e-05 9.81e-06 1.999e-05 2.594e-05 2.095e-05 2.283e-05 2.172e-05 1.896e-05 2.123e-05 2.312e-05 1.609e-05 1.609e-05 1.618e-05 8.45e-06 1.628e-05 2.226e-05 1.98e-05 2.58e-05 2.513e-05 2.673e-05 2.799e-05 1.781e-05 2.622e-05 2.09e-05 3e-05 2.319e-05 3.012e-05 2.335e-05 1.611e-05 1.042e-05 
MeasCopy 32: 2.0779e-05 1.829e-05 1.384e-05 9.82e-06 1.997e-05 2.588e-05 2.096e-05 2.284e-05 2.172e-05 1.898e-05 2.124e-05 2.306e-05 1.609e-05 1.609e-05 1.616e-05 8.44e-06 1.629e-05 2.225e-05 1.977e-05 2.579e-05 2.51e-05 2.673e-05 2.797e-05 1.78e-05 2.626e-05 2.09e-05 2.997e-05 2.322e-05 3.009e-05 2.336e-05 1.613e-05 1.041e-05 
MeasCopy 32: 2.079e-05 1.834e-05 1.385e-05 9.81e-06 1.996e-05 2.595e-05 2.095e-05 2.284e-05 2.171e-05 1.899e-05 2.121e-05 2.313e-05 1.607e-05 1.608e-05 1.616e-05 8.44e-06 1.629e-05 2.225e-05 1.977e-05 2.577e-05 2.508e-05 2.673e-05 2.796e-05 1.781e-05 2.625e-05 2.0889e-05 3e-05 2.321e-05 3.014e-05 2.337e-05 1.6129e-05 1.043e-05 
MeasCopy 32: 2.078e-05 1.828e-05 1.385e-05 9.82e-06 1.995e-05 2.59e-05 2.098e-05 2.282e-05 2.1699e-05 1.9e-05 2.123e-05 2.308e-05 1.61e-05 1.61e-05 1.618e-05 8.45e-06 1.627e-05 2.226e-05 1.978e-05 2.579e-05 2.508e-05 2.6719e-05 2.799e-05 1.782e-05 2.625e-05 2.0919e-05 3.002e-05 2.324e-05 3.013e-05 2.336e-05 1.613e-05 1.0409e-05 
MeasCopy 32: 2.078e-05 1.834e-05 1.383e-05 9.82e-06 1.997e-05 2.593e-05 2.095e-05 2.282e-05 2.169e-05 1.9e-05 2.122e-05 2.307e-05 1.61e-05 1.607e-05 1.618e-05 8.45e-06 1.625e-05 2.225e-05 1.976e-05 2.579e-05 2.5109e-05 2.672e-05 2.799e-05 1.782e-05 2.626e-05 2.091e-05 3.002e-05 2.322e-05 3.014e-05 2.335e-05 1.61e-05 1.041e-05 
MeasCopy 32: 2.078e-05 1.834e-05 1.383e-05 9.82e-06 1.997e-05 2.594e-05 2.092e-05 2.281e-05 2.168e-05 1.899e-05 2.1249e-05 2.309e-05 1.608e-05 1.608e-05 1.615e-05 8.46e-06 1.627e-05 2.227e-05 1.98e-05 2.58e-05 2.512e-05 2.671e-05 2.8e-05 1.781e-05 2.6229e-05 2.0909e-05 2.999e-05 2.3219e-05 3.012e-05 2.335e-05 1.6139e-05 1.043e-05 

ComTab rank 0: 0 253 75 6 95 11 0 59 0 0 0 0 0 0 0 0 0 0 0 0 0 0 0 0 0 0 0 0 0 0 0 0 
ComTab rank 1: 246 0 93 4 77 0 0 3 0 0 0 0 0 0 0 0 0 0 0 0 0 0 0 0 0 0 0 0 0 0 0 0 
ComTab rank 2: 75 93 0 158 0 0 0 0 0 0 0 0 0 0 0 0 0 0 0 0 0 0 0 0 0 0 0 0 0 0 0 0 
ComTab rank 3: 6 5 171 0 0 0 0 36 0 0 0 0 0 0 0 0 0 0 0 0 0 0 0 0 0 0 0 0 0 0 0 0 
ComTab rank 4: 95 78 0 0 0 173 0 144 0 0 0 0 0 0 0 0 0 0 0 0 0 0 0 0 0 0 0 0 0 0 0 12 
ComTab rank 5: 11 0 0 0 171 0 148 94 0 0 29 16 0 0 0 0 0 0 0 0 0 0 0 0 14 0 0 0 148 0 0 36 
ComTab rank 6: 0 0 0 0 0 154 0 176 0 0 0 81 0 0 0 0 0 0 0 0 0 0 0 0 26 0 0 0 93 0 0 1 
ComTab rank 7: 62 4 0 36 147 105 168 0 0 0 0 39 0 0 0 0 0 0 0 0 0 0 0 0 0 0 0 0 0 0 0 0 
ComTab rank 8: 0 0 0 0 0 0 0 0 0 169 89 107 60 17 28 0 0 0 0 0 0 0 0 0 87 0 0 18 0 0 0 0 
ComTab rank 9: 0 0 0 0 0 0 0 0 153 0 77 65 2 39 78 0 0 0 0 0 0 0 0 0 27 0 0 55 0 0 0 0 
ComTab rank 10: 0 0 0 0 0 29 0 0 90 76 0 144 0 63 0 0 0 0 0 0 0 0 0 0 138 0 0 3 0 0 0 0 
ComTab rank 11: 0 0 0 0 0 18 85 42 112 46 180 0 58 52 0 0 0 0 0 0 0 0 0 0 41 0 0 0 0 0 0 0 
ComTab rank 12: 0 0 0 0 0 0 0 0 60 2 0 58 0 139 105 60 0 0 0 0 0 0 0 0 0 0 0 0 0 0 0 0 
ComTab rank 13: 0 0 0 0 0 0 0 0 15 40 63 53 131 0 101 47 0 0 0 0 0 0 0 0 0 0 0 0 0 0 0 0 
ComTab rank 14: 0 0 0 0 0 0 0 0 28 78 0 0 106 95 0 111 0 0 0 0 0 0 0 0 0 0 0 0 0 0 0 0 
ComTab rank 15: 0 0 0 0 0 0 0 0 0 0 0 0 68 47 103 0 0 0 0 0 0 0 0 0 0 0 0 0 0 0 0 0 
ComTab rank 16: 0 0 0 0 0 0 0 0 0 0 0 0 0 0 0 0 0 107 152 16 0 0 96 0 0 0 0 0 0 0 0 19 
ComTab rank 17: 0 0 0 0 0 0 0 0 0 0 0 0 0 0 0 0 107 0 37 166 0 97 49 0 0 0 16 0 0 88 28 13 
ComTab rank 18: 0 0 0 0 0 0 0 0 0 0 0 0 0 0 0 0 152 37 0 130 2 11 158 0 0 0 0 0 0 0 0 0 
ComTab rank 19: 0 0 0 0 0 0 0 0 0 0 0 0 0 0 0 0 16 168 130 0 85 82 20 0 0 10 30 0 0 144 8 0 
ComTab rank 20: 0 0 0 0 0 0 0 0 0 0 0 0 0 0 0 0 0 0 2 85 0 220 42 78 0 75 98 21 0 4 26 0 
ComTab rank 21: 0 0 0 0 0 0 0 0 0 0 0 0 0 0 0 0 0 97 11 79 225 0 93 96 0 4 88 0 0 0 15 0 
ComTab rank 22: 0 0 0 0 0 0 0 0 0 0 0 0 0 0 0 0 96 43 154 26 39 103 0 237 0 0 0 0 0 0 3 0 
ComTab rank 23: 0 0 0 0 0 0 0 0 0 0 0 0 0 0 0 0 0 0 0 0 78 86 244 0 0 0 0 0 0 0 12 0 
ComTab rank 24: 0 0 0 0 0 16 21 0 90 21 138 36 0 0 0 0 0 0 0 0 0 0 0 0 0 137 55 149 35 0 0 9 
ComTab rank 25: 0 0 0 0 0 0 0 0 0 0 0 0 0 0 0 0 0 0 0 10 75 4 0 0 142 0 161 47 84 35 0 0 
ComTab rank 26: 0 0 0 0 0 0 0 0 0 0 0 0 0 0 0 0 0 16 0 28 97 85 0 0 67 167 0 202 100 36 56 0 
ComTab rank 27: 0 0 0 0 0 0 0 0 18 59 4 0 0 0 0 0 0 0 0 0 26 0 0 0 145 51 196 0 33 0 56 30 
ComTab rank 28: 0 0 0 0 0 133 93 0 0 0 0 0 0 0 0 0 0 0 0 0 0 0 0 0 40 83 101 43 0 216 39 45 
ComTab rank 29: 0 0 0 0 0 0 0 0 0 0 0 0 0 0 0 0 0 83 0 141 4 0 0 0 0 34 36 0 232 0 66 2 
ComTab rank 30: 0 0 0 0 0 0 0 0 0 0 0 0 0 0 0 0 0 28 0 8 12 15 3 3 0 0 62 62 43 87 0 111 
ComTab rank 31: 0 0 0 0 12 37 1 0 0 0 0 0 0 0 0 0 18 14 0 0 0 0 0 0 9 0 0 30 35 2 108 0 

Edge-cut: 9152

Wgt-cut: 1.61195e-07

[1579248474.171004] [n003:88456:0]          mpool.c:38   UCX  WARN  object 0x1555394f2be0 was not returned to mpool mm_recv_desc
[1579248474.201794] [n003:88466:0]          mpool.c:38   UCX  WARN  object 0x1555440f84e0 was not returned to mpool mm_recv_desc
[1579248474.262070] [n003:88458:0]          mpool.c:38   UCX  WARN  object 0x5555588e4600 was not returned to mpool ucp_am_bufs
[1579248474.336434] [n003:88474:0]          mpool.c:38   UCX  WARN  object 0x1555394eeae0 was not returned to mpool mm_recv_desc
[1579248474.364354] [n003:88462:0]          mpool.c:38   UCX  WARN  object 0x55555c3eb4c0 was not returned to mpool ucp_am_bufs
