 Data for JOB [60981,1] offset 0 Total slots allocated 8

 ========================   JOB MAP   ========================

 Data for node: n003	Num slots: 8	Max slots: 0	Num procs: 8
 	Process OMPI jobid: [60981,1] App: 0 Process rank: 0 Bound: socket 0[core 0[hwt 0-1]]:[BB/../../../../../../../../../../../../../../../../../../../../../../../../../../../../../../..][../../../../../../../../../../../../../../../../../../../../../../../../../../../../../../../..]
 	Process OMPI jobid: [60981,1] App: 0 Process rank: 1 Bound: socket 0[core 8[hwt 0-1]]:[../../../../../../../../BB/../../../../../../../../../../../../../../../../../../../../../../..][../../../../../../../../../../../../../../../../../../../../../../../../../../../../../../../..]
 	Process OMPI jobid: [60981,1] App: 0 Process rank: 2 Bound: socket 0[core 16[hwt 0-1]]:[../../../../../../../../../../../../../../../../BB/../../../../../../../../../../../../../../..][../../../../../../../../../../../../../../../../../../../../../../../../../../../../../../../..]
 	Process OMPI jobid: [60981,1] App: 0 Process rank: 3 Bound: socket 0[core 24[hwt 0-1]]:[../../../../../../../../../../../../../../../../../../../../../../../../BB/../../../../../../..][../../../../../../../../../../../../../../../../../../../../../../../../../../../../../../../..]
 	Process OMPI jobid: [60981,1] App: 0 Process rank: 4 Bound: socket 1[core 32[hwt 0-1]]:[../../../../../../../../../../../../../../../../../../../../../../../../../../../../../../../..][BB/../../../../../../../../../../../../../../../../../../../../../../../../../../../../../../..]
 	Process OMPI jobid: [60981,1] App: 0 Process rank: 5 Bound: socket 1[core 40[hwt 0-1]]:[../../../../../../../../../../../../../../../../../../../../../../../../../../../../../../../..][../../../../../../../../BB/../../../../../../../../../../../../../../../../../../../../../../..]
 	Process OMPI jobid: [60981,1] App: 0 Process rank: 6 Bound: socket 1[core 48[hwt 0-1]]:[../../../../../../../../../../../../../../../../../../../../../../../../../../../../../../../..][../../../../../../../../../../../../../../../../BB/../../../../../../../../../../../../../../..]
 	Process OMPI jobid: [60981,1] App: 0 Process rank: 7 Bound: socket 1[core 56[hwt 0-1]]:[../../../../../../../../../../../../../../../../../../../../../../../../../../../../../../../..][../../../../../../../../../../../../../../../../../../../../../../../../BB/../../../../../../..]

 =============================================================
[1579248444.059423] [n003:88242:0]         mxm.c:196  MXM  WARN  The 'ulimit -s' on the system is set to 'unlimited'. This may have negative performance implications. Please set the stack size to the default value (10240) 
[1579248444.060380] [n003:88243:0]         mxm.c:196  MXM  WARN  The 'ulimit -s' on the system is set to 'unlimited'. This may have negative performance implications. Please set the stack size to the default value (10240) 
[1579248444.060438] [n003:88247:0]         mxm.c:196  MXM  WARN  The 'ulimit -s' on the system is set to 'unlimited'. This may have negative performance implications. Please set the stack size to the default value (10240) 
[1579248444.060464] [n003:88245:0]         mxm.c:196  MXM  WARN  The 'ulimit -s' on the system is set to 'unlimited'. This may have negative performance implications. Please set the stack size to the default value (10240) 
[1579248444.060810] [n003:88246:0]         mxm.c:196  MXM  WARN  The 'ulimit -s' on the system is set to 'unlimited'. This may have negative performance implications. Please set the stack size to the default value (10240) 
[1579248444.060793] [n003:88248:0]         mxm.c:196  MXM  WARN  The 'ulimit -s' on the system is set to 'unlimited'. This may have negative performance implications. Please set the stack size to the default value (10240) 
[1579248444.060827] [n003:88244:0]         mxm.c:196  MXM  WARN  The 'ulimit -s' on the system is set to 'unlimited'. This may have negative performance implications. Please set the stack size to the default value (10240) 
[1579248444.063523] [n003:88241:0]         mxm.c:196  MXM  WARN  The 'ulimit -s' on the system is set to 'unlimited'. This may have negative performance implications. Please set the stack size to the default value (10240) 
0: 0 

Rank 0 ghostCells: 919
Rank 1 ghostCells: 470
Rank 2 ghostCells: 803
Rank 3 ghostCells: 905
Rank 4 ghostCells: 292
Rank 5 ghostCells: 651
Rank 6 ghostCells: 540
Rank 7 ghostCells: 215

Rank 0 numCells: 6535
Rank 1 numCells: 6137
Rank 2 numCells: 6011
Rank 3 numCells: 6303
Rank 4 numCells: 6206
Rank 5 numCells: 6090
Rank 6 numCells: 6595
Rank 7 numCells: 5349

Rank 0 interiorCells: 5616
Rank 1 interiorCells: 5667
Rank 2 interiorCells: 5208
Rank 3 interiorCells: 5398
Rank 4 interiorCells: 5914
Rank 5 interiorCells: 5439
Rank 6 interiorCells: 6055
Rank 7 interiorCells: 5134

MeasComm+1 8: 7.251e-05 6.113e-05 7.39e-05 7.054e-05 4.039e-05 5.94e-05 5.181e-05 3.241e-05 
MeasComm+1 8: 7.371e-05 6.072e-05 7.417e-05 7.139e-05 4.129e-05 6.149e-05 5.17e-05 3.3419e-05 
MeasComm+1 8: 7.303e-05 4.808e-05 7.417e-05 7.113e-05 3.669e-05 6.109e-05 5.187e-05 2.557e-05 
MeasComm+1 8: 7.259e-05 5.644e-05 7.304e-05 6.948e-05 3.561e-05 6.034e-05 5.091e-05 3.31e-05 
MeasComm+1 8: 7.43e-05 5.948e-05 7.443e-05 7.051e-05 4.22e-05 6.1959e-05 5.161e-05 3.382e-05 
MeasComm+1 8: 7.331e-05 5.778e-05 7.423e-05 7.179e-05 4.233e-05 6.185e-05 5.204e-05 3.367e-05 
MeasComm+1 8: 7.307e-05 5.929e-05 7.387e-05 7.101e-05 4.129e-05 6.142e-05 5.192e-05 3.359e-05 
MeasComm+1 8: 7.3469e-05 5.809e-05 7.42e-05 7.12e-05 4.197e-05 6.225e-05 5.195e-05 3.395e-05 
MeasComm+1 8: 7.354e-05 6.1e-05 7.422e-05 7.107e-05 4.18e-05 6.18e-05 5.167e-05 3.369e-05 
MeasComm+1 8: 7.389e-05 5.838e-05 7.436e-05 7.137e-05 4.266e-05 6.216e-05 5.197e-05 3.319e-05 

MeasCopy 8: 4.304e-05 2.202e-05 3.764e-05 4.244e-05 1.368e-05 3.05e-05 2.53e-05 1.009e-05 
MeasCopy 8: 4.307e-05 2.202e-05 3.764e-05 4.244e-05 1.37e-05 3.0529e-05 2.532e-05 1.009e-05 
MeasCopy 8: 4.304e-05 2.206e-05 3.764e-05 4.244e-05 1.369e-05 3.05e-05 2.528e-05 1.007e-05 
MeasCopy 8: 4.306e-05 2.203e-05 3.762e-05 4.242e-05 1.371e-05 3.051e-05 2.527e-05 1.009e-05 
MeasCopy 8: 4.306e-05 2.204e-05 3.759e-05 4.243e-05 1.37e-05 3.051e-05 2.534e-05 1.011e-05 
MeasCopy 8: 4.309e-05 2.203e-05 3.765e-05 4.237e-05 1.368e-05 3.05e-05 2.5309e-05 1.009e-05 
MeasCopy 8: 4.304e-05 2.205e-05 3.764e-05 4.242e-05 1.368e-05 3.053e-05 2.53e-05 1.008e-05 
MeasCopy 8: 4.3079e-05 2.203e-05 3.764e-05 4.241e-05 1.368e-05 3.05e-05 2.528e-05 1.009e-05 
MeasCopy 8: 4.309e-05 2.204e-05 3.761e-05 4.244e-05 1.369e-05 3.052e-05 2.531e-05 1.01e-05 
MeasCopy 8: 4.31e-05 2.204e-05 3.764e-05 4.242e-05 1.369e-05 3.051e-05 2.5319e-05 1.01e-05 

ComTab rank 0: 0 443 200 301 0 0 0 0 
ComTab rank 1: 445 0 27 0 0 0 0 0 
ComTab rank 2: 201 21 0 351 0 25 250 0 
ComTab rank 3: 317 0 345 0 0 293 0 0 
ComTab rank 4: 0 0 0 0 0 292 0 0 
ComTab rank 5: 0 0 25 294 291 0 63 0 
ComTab rank 6: 0 0 251 0 0 80 0 215 
ComTab rank 7: 0 0 0 0 0 0 215 0 

Edge-cut: 2949

Wgt-cut: 3.11878e-08

[1579248450.237921] [n003:88248:0]          mpool.c:38   UCX  WARN  object 0x555558724b00 was not returned to mpool ucp_am_bufs
[1579248450.260054] [n003:88245:0]          mpool.c:38   UCX  WARN  object 0x155544122f60 was not returned to mpool mm_recv_desc
[1579248450.273634] [n003:88244:0]          mpool.c:38   UCX  WARN  object 0x15554411cde0 was not returned to mpool mm_recv_desc
[1579248450.274980] [n003:88242:0]          mpool.c:38   UCX  WARN  object 0x1555394f6ce0 was not returned to mpool mm_recv_desc
[1579248450.276812] [n003:88246:0]          mpool.c:38   UCX  WARN  object 0x1555394f8d60 was not returned to mpool mm_recv_desc
[1579248450.277238] [n003:88247:0]          mpool.c:38   UCX  WARN  object 0x15554411ee60 was not returned to mpool mm_recv_desc
[1579248450.278601] [n003:88243:0]          mpool.c:38   UCX  WARN  object 0x155544120ee0 was not returned to mpool mm_recv_desc
