[1578471078.186042] [srl-adm2:48214:0]         mxm.c:196  MXM  WARN  The 'ulimit -s' on the system is set to 'unlimited'. This may have negative performance implications. Please set the stack size to the default value (10240) 
[1578471078.185990] [srl-adm2:48215:0]         mxm.c:196  MXM  WARN  The 'ulimit -s' on the system is set to 'unlimited'. This may have negative performance implications. Please set the stack size to the default value (10240) 
0: 2 
After loadbalancing process 1 has 21033 cells.
After loadbalancing process 0 has 25076 cells.

Rank 0 ghostCells: 798
Rank 1 ghostCells: 880

Rank 0 numCells: 25076
Rank 1 numCells: 21033

Rank 0 interiorCells: 24278
Rank 1 interiorCells: 20153

ComTab rank 0: 0 798 
ComTab rank 1: 880 0 

Edge-cut: 2074

Wgt-cut: 6.65007e-10

[1578471081.922632] [srl-adm2:48215:0]          mpool.c:38   UCX  WARN  object 0x155544122f60 was not returned to mpool mm_recv_desc
[1578476424.551855] [srl-login1:27990:0]         mxm.c:196  MXM  WARN  The 'ulimit -s' on the system is set to 'unlimited'. This may have negative performance implications. Please set the stack size to the default value (10240) 
[1578476424.551837] [srl-login1:27991:0]         mxm.c:196  MXM  WARN  The 'ulimit -s' on the system is set to 'unlimited'. This may have negative performance implications. Please set the stack size to the default value (10240) 
0: 2 
After loadbalancing process 0 has 21000 cells.
After loadbalancing process 1 has 25186 cells.

Rank 0 ghostCells: 919
Rank 1 ghostCells: 836

Rank 0 numCells: 21000
Rank 1 numCells: 25186

Rank 0 interiorCells: 20081
Rank 1 interiorCells: 24350

ComTab rank 0: 0 919 
ComTab rank 1: 836 0 

Edge-cut: 1468

Wgt-cut: 2.95567e-09

[1578476428.830537] [srl-login1:27991:0]          mpool.c:38   UCX  WARN  object 0x155544122f60 was not returned to mpool mm_recv_desc
