 Data for JOB [24240,1] offset 0 Total slots allocated 2

 ========================   JOB MAP   ========================

 Data for node: n004	Num slots: 2	Max slots: 0	Num procs: 2
 	Process OMPI jobid: [24240,1] App: 0 Process rank: 0 Bound: socket 1[core 49[hwt 0-1]]:[../../../../../../../../../../../../../../../../../../../../../../../../../../../../../../../..][../../../../../../../../../../../../../../../../../BB/../../../../../../../../../../../../../..]
 	Process OMPI jobid: [24240,1] App: 0 Process rank: 1 Bound: socket 1[core 50[hwt 0-1]]:[../../../../../../../../../../../../../../../../../../../../../../../../../../../../../../../..][../../../../../../../../../../../../../../../../../../BB/../../../../../../../../../../../../..]

 =============================================================
dune-size 1 6.09231e-06 6.08481e-06 
dune-size 2 5.7866e-06 5.7795e-06 
dune-size 4 6.3296e-06 6.3219e-06 
dune-size 8 6.67231e-06 6.66341e-06 
dune-size 16 7.54551e-06 7.53461e-06 
dune-size 32 9.67821e-06 9.67001e-06 
dune-size 64 9.54751e-06 9.56271e-06 
dune-size 128 9.14672e-06 9.14612e-06 
dune-size 256 1.49202e-05 1.49193e-05 
dune-size 512 2.71742e-05 2.71726e-05 
dune-size 1024 5.60324e-05 5.60321e-05 
dune-size 2048 0.000106808 0.000106807 
dune-size 4096 0.000210778 0.000210786 
dune-size 8192 0.000411385 0.000411395 
dune-size 16384 0.000794515 0.000794502 
dune-size 32768 0.00155771 0.0015577 
dune-size 65536 0.00313341 0.00313342 
dune-size 131072 0.00641876 0.00641876 
dune-size 262144 0.012643 0.012646 
dune-size 524288 0.0252702 0.025275 
dune-size 1048576 0.0507251 0.0507531 
