[1578471087.934402] [srl-login1:11557:0]         mxm.c:196  MXM  WARN  The 'ulimit -s' on the system is set to 'unlimited'. This may have negative performance implications. Please set the stack size to the default value (10240) 
[1578471087.934404] [srl-login1:11558:0]         mxm.c:196  MXM  WARN  The 'ulimit -s' on the system is set to 'unlimited'. This may have negative performance implications. Please set the stack size to the default value (10240) 
0: 0 
After loadbalancing process 1 has 21033 cells.
After loadbalancing process 0 has 25076 cells.

Rank 0 ghostCells: 798
Rank 1 ghostCells: 880

Rank 0 numCells: 25076
Rank 1 numCells: 21033

Rank 0 interiorCells: 24278
Rank 1 interiorCells: 20153

ComTab rank 0: 0 798 
ComTab rank 1: 880 0 

Edge-cut: 2074

Wgt-cut: 6.65007e-10

[1578471092.055900] [srl-login1:11558:0]          mpool.c:38   UCX  WARN  object 0x55555c55e580 was not returned to mpool ucp_am_bufs
[1578476441.813802] [srl-adm2:4549 :0]         mxm.c:196  MXM  WARN  The 'ulimit -s' on the system is set to 'unlimited'. This may have negative performance implications. Please set the stack size to the default value (10240) 
[1578476441.813776] [srl-adm2:4550 :0]         mxm.c:196  MXM  WARN  The 'ulimit -s' on the system is set to 'unlimited'. This may have negative performance implications. Please set the stack size to the default value (10240) 
0: 0 
After loadbalancing process 1 has 20756 cells.
After loadbalancing process 0 has 24886 cells.

Rank 0 ghostCells: 609
Rank 1 ghostCells: 602

Rank 0 numCells: 24886
Rank 1 numCells: 20756

Rank 0 interiorCells: 24277
Rank 1 interiorCells: 20154

ComTab rank 0: 0 609 
ComTab rank 1: 602 0 

Edge-cut: 798

Wgt-cut: 6.38405e-09

[1578476445.592712] [srl-adm2:4550 :0]          mpool.c:38   UCX  WARN  object 0x155544122f60 was not returned to mpool mm_recv_desc
