[1578471088.175512] [srl-mds1:14893:0]         mxm.c:196  MXM  WARN  The 'ulimit -s' on the system is set to 'unlimited'. This may have negative performance implications. Please set the stack size to the default value (10240) 
[1578471088.175662] [srl-mds1:14892:0]         mxm.c:196  MXM  WARN  The 'ulimit -s' on the system is set to 'unlimited'. This may have negative performance implications. Please set the stack size to the default value (10240) 
0: 0 
After loadbalancing process 1 has 21033 cells.
After loadbalancing process 0 has 25076 cells.

Rank 0 ghostCells: 798
Rank 1 ghostCells: 880

Rank 0 numCells: 25076
Rank 1 numCells: 21033

Rank 0 interiorCells: 24278
Rank 1 interiorCells: 20153

ComTab rank 0: 0 798 
ComTab rank 1: 880 0 

Edge-cut: 2074

Wgt-cut: 6.65007e-10

[1578471091.397422] [srl-mds1:14893:0]          mpool.c:38   UCX  WARN  object 0x155544c70f60 was not returned to mpool mm_recv_desc
[1578476441.571880] [srl-login1:28340:0]         mxm.c:196  MXM  WARN  The 'ulimit -s' on the system is set to 'unlimited'. This may have negative performance implications. Please set the stack size to the default value (10240) 
[1578476441.572349] [srl-login1:28337:0]         mxm.c:196  MXM  WARN  The 'ulimit -s' on the system is set to 'unlimited'. This may have negative performance implications. Please set the stack size to the default value (10240) 
[1578476441.572341] [srl-login1:28338:0]         mxm.c:196  MXM  WARN  The 'ulimit -s' on the system is set to 'unlimited'. This may have negative performance implications. Please set the stack size to the default value (10240) 
[1578476441.579369] [srl-login1:28339:0]         mxm.c:196  MXM  WARN  The 'ulimit -s' on the system is set to 'unlimited'. This may have negative performance implications. Please set the stack size to the default value (10240) 
0: 0 
After loadbalancing process 1 has 9593 cells.
After loadbalancing process 3 has 12113 cells.
After loadbalancing process 0 has 12398 cells.
After loadbalancing process 2 has 12586 cells.

Rank 0 ghostCells: 305
Rank 1 ghostCells: 364
Rank 2 ghostCells: 1058
Rank 3 ghostCells: 532

Rank 0 numCells: 12398
Rank 1 numCells: 9593
Rank 2 numCells: 12586
Rank 3 numCells: 12113

Rank 0 interiorCells: 12093
Rank 1 interiorCells: 9229
Rank 2 interiorCells: 11528
Rank 3 interiorCells: 11581

ComTab rank 0: 0 70 236 9 
ComTab rank 1: 59 0 312 0 
ComTab rank 2: 229 309 0 530 
ComTab rank 3: 9 0 526 0 

Edge-cut: 1427

Wgt-cut: 1.35161e-08

[1578476445.761671] [srl-login1:28340:0]          mpool.c:38   UCX  WARN  object 0x55555c556980 was not returned to mpool ucp_am_bufs
[1578476445.761843] [srl-login1:28339:0]          mpool.c:38   UCX  WARN  object 0x1555393fff60 was not returned to mpool mm_recv_desc
[1578476445.762168] [srl-login1:28338:0]          mpool.c:38   UCX  WARN  object 0x55555d944540 was not returned to mpool ucp_am_bufs
