 Data for JOB [29083,1] offset 0 Total slots allocated 8

 ========================   JOB MAP   ========================

 Data for node: n004	Num slots: 8	Max slots: 0	Num procs: 8
 	Process OMPI jobid: [29083,1] App: 0 Process rank: 0 Bound: socket 1[core 56[hwt 0-1]]:[../../../../../../../../../../../../../../../../../../../../../../../../../../../../../../../..][../../../../../../../../../../../../../../../../../../../../../../../../BB/../../../../../../..]
 	Process OMPI jobid: [29083,1] App: 0 Process rank: 1 Bound: socket 1[core 37[hwt 0-1]]:[../../../../../../../../../../../../../../../../../../../../../../../../../../../../../../../..][../../../../../BB/../../../../../../../../../../../../../../../../../../../../../../../../../..]
 	Process OMPI jobid: [29083,1] App: 0 Process rank: 2 Bound: socket 1[core 58[hwt 0-1]]:[../../../../../../../../../../../../../../../../../../../../../../../../../../../../../../../..][../../../../../../../../../../../../../../../../../../../../../../../../../../BB/../../../../..]
 	Process OMPI jobid: [29083,1] App: 0 Process rank: 3 Bound: socket 1[core 39[hwt 0-1]]:[../../../../../../../../../../../../../../../../../../../../../../../../../../../../../../../..][../../../../../../../BB/../../../../../../../../../../../../../../../../../../../../../../../..]
 	Process OMPI jobid: [29083,1] App: 0 Process rank: 4 Bound: socket 1[core 36[hwt 0-1]]:[../../../../../../../../../../../../../../../../../../../../../../../../../../../../../../../..][../../../../BB/../../../../../../../../../../../../../../../../../../../../../../../../../../..]
 	Process OMPI jobid: [29083,1] App: 0 Process rank: 5 Bound: socket 1[core 57[hwt 0-1]]:[../../../../../../../../../../../../../../../../../../../../../../../../../../../../../../../..][../../../../../../../../../../../../../../../../../../../../../../../../../BB/../../../../../..]
 	Process OMPI jobid: [29083,1] App: 0 Process rank: 6 Bound: socket 1[core 38[hwt 0-1]]:[../../../../../../../../../../../../../../../../../../../../../../../../../../../../../../../..][../../../../../../BB/../../../../../../../../../../../../../../../../../../../../../../../../..]
 	Process OMPI jobid: [29083,1] App: 0 Process rank: 7 Bound: socket 1[core 59[hwt 0-1]]:[../../../../../../../../../../../../../../../../../../../../../../../../../../../../../../../..][../../../../../../../../../../../../../../../../../../../../../../../../../../../BB/../../../..]

 =============================================================
4 5 7
4 6 6
4 7 5
6 7 5
6 4 4
6 5 7
7 4 6
7 5 5
7 6 4
1 2 0
1 3 3
1 0 2
3 0 2
3 1 1
3 2 0
Two group cota
0 1 3
0 2 2
0 3 1
2 3 1
2 0 0
2 1 3
5 6 4
5 7 7
5 4 6
dune-size 1 2.03033e-05 2.0246e-05 2.02824e-05 2.03124e-05 2.07888e-05 2.07761e-05 2.07307e-05 2.07397e-05 
dune-size 2 1.79748e-05 1.7939e-05 1.79726e-05 1.7953e-05 1.70785e-05 1.70501e-05 1.70798e-05 1.70868e-05 
dune-size 4 1.55329e-05 1.54992e-05 1.55345e-05 1.55073e-05 1.58332e-05 1.57927e-05 1.5835e-05 1.58237e-05 
dune-size 8 1.66937e-05 1.66341e-05 1.6695e-05 1.6667e-05 1.69338e-05 1.68834e-05 1.69083e-05 1.69474e-05 
dune-size 16 1.74963e-05 1.74772e-05 1.75013e-05 1.74826e-05 1.92121e-05 1.91793e-05 1.91905e-05 1.92082e-05 
dune-size 32 1.5186e-05 1.52142e-05 1.51981e-05 1.52083e-05 1.50664e-05 1.51024e-05 1.50773e-05 1.5093e-05 
dune-size 64 2.01186e-05 2.014e-05 2.01154e-05 2.01353e-05 2.07299e-05 2.07206e-05 2.0772e-05 2.0769e-05 
dune-size 128 2.97384e-05 2.97837e-05 2.97658e-05 2.97784e-05 2.9735e-05 2.98156e-05 2.97867e-05 2.97571e-05 
dune-size 256 5.03234e-05 5.03803e-05 5.04158e-05 5.03481e-05 5.06085e-05 5.07226e-05 5.06238e-05 5.06812e-05 
dune-size 512 8.85711e-05 8.86691e-05 8.85703e-05 8.85753e-05 8.8757e-05 8.86456e-05 8.875e-05 8.86536e-05 
dune-size 1024 0.000229967 0.000230232 0.000229979 0.000230238 0.000231819 0.000231386 0.000231612 0.000231392 
dune-size 2048 0.000425495 0.000425932 0.000425439 0.00042634 0.000416889 0.00041598 0.000416019 0.00041649 
dune-size 4096 0.000714926 0.000716527 0.000714918 0.000715719 0.000727177 0.00072882 0.000728015 0.000727177 
dune-size 8192 0.00126008 0.00126251 0.00126004 0.0012609 0.00128577 0.00128403 0.00128405 0.00128728 
dune-size 16384 0.00243107 0.00243118 0.00242749 0.00242747 0.00240451 0.00240107 0.0024011 0.00240602 
dune-size 32768 0.00478077 0.00477771 0.00477794 0.00477893 0.00478051 0.00477731 0.00477718 0.00477821 
dune-size 65536 0.00964474 0.00964073 0.00962905 0.00963916 0.0096266 0.00961713 0.00962661 0.00964348 
dune-size 131072 0.0194915 0.0194392 0.0194848 0.0194371 0.0193805 0.0193226 0.0193233 0.019491 
