 Data for JOB [41025,1] offset 0 Total slots allocated 2

 ========================   JOB MAP   ========================

 Data for node: n001	Num slots: 2	Max slots: 0	Num procs: 2
 	Process OMPI jobid: [41025,1] App: 0 Process rank: 0 Bound: socket 0[core 9[hwt 0-1]]:[../../../../../../../../../BB/../../../../../../../../../../../../../../../../../../../../../..][../../../../../../../../../../../../../../../../../../../../../../../../../../../../../../../..]
 	Process OMPI jobid: [41025,1] App: 0 Process rank: 1 Bound: socket 0[core 18[hwt 0-1]]:[../../../../../../../../../../../../../../../../../../BB/../../../../../../../../../../../../..][../../../../../../../../../../../../../../../../../../../../../../../../../../../../../../../..]

 =============================================================
dune-size 1 4.06859e-06 4.06789e-06 
dune-size 2 4.67909e-06 4.67979e-06 
dune-size 4 4.06749e-06 4.06879e-06 
dune-size 8 4.25899e-06 4.25879e-06 
dune-size 16 4.68579e-06 4.68789e-06 
dune-size 32 5.53988e-06 5.54068e-06 
dune-size 64 7.95178e-06 7.94768e-06 
dune-size 128 1.04714e-05 1.04717e-05 
dune-size 256 1.73742e-05 1.73736e-05 
dune-size 512 3.05105e-05 3.05086e-05 
dune-size 1024 8.6286e-05 8.62842e-05 
dune-size 2048 0.000157924 0.000157911 
dune-size 4096 0.000308417 0.000308405 
dune-size 8192 0.000549744 0.000549696 
dune-size 16384 0.000877657 0.000877599 
dune-size 32768 0.00162874 0.00162863 
dune-size 65536 0.00324245 0.00324199 
dune-size 131072 0.00638846 0.00638772 
dune-size 262144 0.012787 0.0128117 
dune-size 524288 0.0254544 0.0254403 
dune-size 1048576 0.0513712 0.0513087 
