 Data for JOB [62367,1] offset 0 Total slots allocated 8

 ========================   JOB MAP   ========================

 Data for node: n004	Num slots: 8	Max slots: 0	Num procs: 8
 	Process OMPI jobid: [62367,1] App: 0 Process rank: 0 Bound: socket 0[core 0[hwt 0-1]]:[BB/../../../../../../../../../../../../../../../../../../../../../../../../../../../../../../..][../../../../../../../../../../../../../../../../../../../../../../../../../../../../../../../..]
 	Process OMPI jobid: [62367,1] App: 0 Process rank: 1 Bound: socket 0[core 1[hwt 0-1]]:[../BB/../../../../../../../../../../../../../../../../../../../../../../../../../../../../../..][../../../../../../../../../../../../../../../../../../../../../../../../../../../../../../../..]
 	Process OMPI jobid: [62367,1] App: 0 Process rank: 2 Bound: socket 0[core 8[hwt 0-1]]:[../../../../../../../../BB/../../../../../../../../../../../../../../../../../../../../../../..][../../../../../../../../../../../../../../../../../../../../../../../../../../../../../../../..]
 	Process OMPI jobid: [62367,1] App: 0 Process rank: 3 Bound: socket 0[core 9[hwt 0-1]]:[../../../../../../../../../BB/../../../../../../../../../../../../../../../../../../../../../..][../../../../../../../../../../../../../../../../../../../../../../../../../../../../../../../..]
 	Process OMPI jobid: [62367,1] App: 0 Process rank: 4 Bound: socket 0[core 16[hwt 0-1]]:[../../../../../../../../../../../../../../../../BB/../../../../../../../../../../../../../../..][../../../../../../../../../../../../../../../../../../../../../../../../../../../../../../../..]
 	Process OMPI jobid: [62367,1] App: 0 Process rank: 5 Bound: socket 0[core 17[hwt 0-1]]:[../../../../../../../../../../../../../../../../../BB/../../../../../../../../../../../../../..][../../../../../../../../../../../../../../../../../../../../../../../../../../../../../../../..]
 	Process OMPI jobid: [62367,1] App: 0 Process rank: 6 Bound: socket 0[core 24[hwt 0-1]]:[../../../../../../../../../../../../../../../../../../../../../../../../BB/../../../../../../..][../../../../../../../../../../../../../../../../../../../../../../../../../../../../../../../..]
 	Process OMPI jobid: [62367,1] App: 0 Process rank: 7 Bound: socket 0[core 25[hwt 0-1]]:[../../../../../../../../../../../../../../../../../../../../../../../../../BB/../../../../../..][../../../../../../../../../../../../../../../../../../../../../../../../../../../../../../../..]

 =============================================================
[1579604816.405216] [n004:127662:0]         mxm.c:196  MXM  WARN  The 'ulimit -s' on the system is set to 'unlimited'. This may have negative performance implications. Please set the stack size to the default value (10240) 
[1579604816.406630] [n004:127663:0]         mxm.c:196  MXM  WARN  The 'ulimit -s' on the system is set to 'unlimited'. This may have negative performance implications. Please set the stack size to the default value (10240) 
[1579604816.407109] [n004:127664:0]         mxm.c:196  MXM  WARN  The 'ulimit -s' on the system is set to 'unlimited'. This may have negative performance implications. Please set the stack size to the default value (10240) 
[1579604816.407220] [n004:127665:0]         mxm.c:196  MXM  WARN  The 'ulimit -s' on the system is set to 'unlimited'. This may have negative performance implications. Please set the stack size to the default value (10240) 
[1579604816.407260] [n004:127666:0]         mxm.c:196  MXM  WARN  The 'ulimit -s' on the system is set to 'unlimited'. This may have negative performance implications. Please set the stack size to the default value (10240) 
[1579604816.407259] [n004:127667:0]         mxm.c:196  MXM  WARN  The 'ulimit -s' on the system is set to 'unlimited'. This may have negative performance implications. Please set the stack size to the default value (10240) 
[1579604816.407879] [n004:127660:0]         mxm.c:196  MXM  WARN  The 'ulimit -s' on the system is set to 'unlimited'. This may have negative performance implications. Please set the stack size to the default value (10240) 
[1579604816.407880] [n004:127661:0]         mxm.c:196  MXM  WARN  The 'ulimit -s' on the system is set to 'unlimited'. This may have negative performance implications. Please set the stack size to the default value (10240) 
0: 1 

Rank 0 ghostCells: 10323
Rank 1 ghostCells: 7618
Rank 2 ghostCells: 7875
Rank 3 ghostCells: 16689
Rank 4 ghostCells: 3896
Rank 5 ghostCells: 3126
Rank 6 ghostCells: 5655
Rank 7 ghostCells: 2890

Rank 0 numCells: 59028
Rank 1 numCells: 49255
Rank 2 numCells: 56666
Rank 3 numCells: 64328
Rank 4 numCells: 49438
Rank 5 numCells: 36601
Rank 6 numCells: 49331
Rank 7 numCells: 48832

Rank 0 interiorCells: 48705
Rank 1 interiorCells: 41637
Rank 2 interiorCells: 48791
Rank 3 interiorCells: 47639
Rank 4 interiorCells: 45542
Rank 5 interiorCells: 33475
Rank 6 interiorCells: 43676
Rank 7 interiorCells: 45942

MeasComm+1 8: 0.000833751 0.000684971 0.000675782 0.000931622 0.000568061 0.000514421 0.000586832 0.00026913 
MeasComm+1 8: 0.000833152 0.000692582 0.000674361 0.000932631 0.000569161 0.000511361 0.000592981 0.000265741 
MeasComm+1 8: 0.000759491 0.000701792 0.000674692 0.000926212 0.000558991 0.000512341 0.000584702 0.00027054 
MeasComm+1 8: 0.000759781 0.000699861 0.000676741 0.000932452 0.000571311 0.000514021 0.000607851 0.000269331 
MeasComm+1 8: 0.000793762 0.000706222 0.000674101 0.000930841 0.000556612 0.000492331 0.000587091 0.000269861 
MeasComm+1 8: 0.000781442 0.000700341 0.000615452 0.000928442 0.000557061 0.000514061 0.000589351 0.00026998 
MeasComm+1 8: 0.000807222 0.000697302 0.000675632 0.000931432 0.000559192 0.000514561 0.000588511 0.00026964 
MeasComm+1 8: 0.000830682 0.000689772 0.000670692 0.000932862 0.000564282 0.000514131 0.000585441 0.00026894 
MeasComm+1 8: 0.000776402 0.000700542 0.000679042 0.000930502 0.000568181 0.000514301 0.000604782 0.000270071 
MeasComm+1 8: 0.000832642 0.000681351 0.000630381 0.000931112 0.000566611 0.000481651 0.000588281 0.000270251 

MeasCopy 8: 0.000484331 0.00035737 0.00036921 0.000783152 0.00018268 0.000146731 0.000265191 0.000135581 
MeasCopy 8: 0.000484161 0.000357411 0.000369381 0.000783292 0.000182691 0.00014676 0.00026531 0.00013565 
MeasCopy 8: 0.000484351 0.00035742 0.000369201 0.000783412 0.000182631 0.00014666 0.000265351 0.000135681 
MeasCopy 8: 0.000484381 0.000357341 0.000369311 0.000783332 0.00018269 0.00014671 0.000265301 0.0001356 
MeasCopy 8: 0.000484461 0.000357441 0.000369221 0.000783471 0.0001825 0.0001467 0.00026545 0.000135621 
MeasCopy 8: 0.000484171 0.000357441 0.0003694 0.000783471 0.000182671 0.000146631 0.000265331 0.000135661 
MeasCopy 8: 0.000484401 0.000357191 0.000369311 0.000783342 0.00018271 0.00014664 0.000265301 0.000135611 
MeasCopy 8: 0.000484331 0.000357271 0.000369421 0.000783491 0.000182661 0.00014666 0.000265221 0.00013561 
MeasCopy 8: 0.000484211 0.00035741 0.000369361 0.000783382 0.00018266 0.00014663 0.00026532 0.00013571 
MeasCopy 8: 0.000484381 0.00035723 0.000369391 0.000783451 0.00018267 0.00014672 0.00026542 0.00013537 

ComTab rank 0: 0 2409 1773 5790 0 643 596 0 
ComTab rank 1: 2321 0 0 5416 0 90 218 0 
ComTab rank 2: 1464 0 0 3554 2494 720 345 0 
ComTab rank 3: 5279 4190 4005 0 2445 186 2055 0 
ComTab rank 4: 0 0 2484 1738 0 198 0 0 
ComTab rank 5: 797 112 1249 223 230 0 546 214 
ComTab rank 6: 552 191 72 1973 0 301 0 2858 
ComTab rank 7: 0 0 0 0 0 197 2732 0 

Edge-cut: 45181

Wgt-cut: 7.6028e-09

[1579604864.948818] [n004:127662:0]          mpool.c:38   UCX  WARN  object 0x155544116c60 was not returned to mpool mm_recv_desc
[1579604864.949255] [n004:127663:0]          mpool.c:38   UCX  WARN  object 0x155544118ce0 was not returned to mpool mm_recv_desc
[1579604864.955827] [n004:127667:0]          mpool.c:38   UCX  WARN  object 0x1555394feee0 was not returned to mpool mm_recv_desc
[1579604864.972358] [n004:127665:0]          mpool.c:38   UCX  WARN  object 0x1555394f8d60 was not returned to mpool mm_recv_desc
[1579604864.972453] [n004:127661:0]          mpool.c:38   UCX  WARN  object 0x1555394fce60 was not returned to mpool mm_recv_desc
[1579604864.973697] [n004:127664:0]          mpool.c:38   UCX  WARN  object 0x1555394fade0 was not returned to mpool mm_recv_desc
[1579604864.976390] [n004:127666:0]          mpool.c:38   UCX  WARN  object 0x155544122f60 was not returned to mpool mm_recv_desc
