--------------------------------------------------------------------------
WARNING: No preset parameters were found for the device that Open MPI
detected:

  Local host:            n004
  Device name:           mlx5_1
  Device vendor ID:      0x02c9
  Device vendor part ID: 4123

Default device parameters will be used, which may result in lower
performance.  You can edit any of the files specified by the
btl_openib_device_param_files MCA parameter to set values for your
device.

NOTE: You can turn off this warning by setting the MCA parameter
      btl_openib_warn_no_device_params_found to 0.
--------------------------------------------------------------------------
--------------------------------------------------------------------------
By default, for Open MPI 4.0 and later, infiniband ports on a device
are not used by default.  The intent is to use UCX for these devices.
You can override this policy by setting the btl_openib_allow_ib MCA parameter
to true.

  Local host:              n004
  Local adapter:           mlx5_2
  Local port:              1

--------------------------------------------------------------------------
--------------------------------------------------------------------------
WARNING: There was an error initializing an OpenFabrics device.

  Local host:   n004
  Local device: mlx5_2
--------------------------------------------------------------------------
[n003:46691] [[243,0],0] ORTE_ERROR_LOG: Data unpack would read past end of buffer in file util/show_help.c at line 501
[n003:46691] 511 more processes have sent help message help-mpi-btl-openib.txt / no device params found
[n003:46691] Set MCA parameter "orte_base_help_aggregate" to 0 to see all help / error messages
[n003:46691] 126 more processes have sent help message help-mpi-btl-openib.txt / ib port not selected
[n003:46691] 127 more processes have sent help message help-mpi-btl-openib.txt / error in device init
slurmstepd: error: *** JOB 49433 ON n003 CANCELLED AT 2020-04-30T10:52:44 DUE TO TIME LIMIT ***
--------------------------------------------------------------------------
ORTE has lost communication with a remote daemon.

  HNP daemon   : [[243,0],0] on node n003
  Remote daemon: [[243,0],1] on node n004

This is usually due to either a failure of the TCP network
connection to the node, or possibly an internal failure of
the daemon itself. We cannot recover from this failure, and
therefore will terminate the job.
--------------------------------------------------------------------------
